A0A087WPU8	P56931
A0A087WR96	P06800
A0A087WSP5	A0A087WSP5
A0A087WSP5	Q8C3V4
A0A087WST4	P06800
A0A0B4J1L1	P54843
A0A0G2JEJ8	A0A0A0MQA2
A0A0G2JG69	A0A0A0MQA2
A0A0G2JGL2	A0A0A0MQA2
A0A0U1RQB6	P17433
A0A0U1RQB6	P28705
A0A140LI02	A0A140LI02
A0A140LI02	Q9CR14
A0A1B0GXE2	P52332
A0JNT9	P35279
A0JNT9	P35283
A0JNT9	P46638
A0JNT9	P61294
A1L358	A1L358
A1L358	Q8BI67
A1L358	Q8R0T2
A2A468	A2A468
A2A468	Q05BA5
A2A5J5	P13541
A2A5J5	Q9WU78
A2A5Z6	P63001
A2A8U2	P48678
A2A935	P37238
A2A9T0	Q9WUN2
A2AE94	Q99P58
A2AE94	Q9ERI2
A2AIX1	Q5S006
A2AJK6	Q60I23
A2AM29	Q8CGN4
A2AQ07	Q6VN19
A2AQR4	A2AQR4
A2AQR4	Q6PGF3
A2AQR4	Q99PM3
A2ARV4	P97318
A2ARV4	Q62108
A2ARV4	Q8BL58
A2ARV4	Q8K2H6
A2ARV4	Q9D6K5
A2ARV4	Q9ERE9
A2ASS6	Q70IV5
A2AVQ5	P97762
A2AVQ5	Q6ZPZ3
A2AVQ5	Q9CR59
A2AWL7	B2RS19
A2AWT5	Q8K202
A2AWT6	Q8K202
A2AWT7	Q8K202
A2BH40	O09106
A2BH40	P70288
A2BH40	P97496
A2BH40	Q60520
A2BH40	Q8R0K9
A2CG63	P70278
A2N3K1	A2N3K1
A2NN81	A2NN81
A3KBF5	Q8VD04
A3KGF7	P14733
A3KGF7	P33609
A3KGF7	Q9CXF4
A4GZ26	Q8BKX1
A4QPD3	A4QPD3
A4QPD3	O55144
A4QPD3	Q3U4B1
A6NAS6	A6NAS6
B0V2N1	Q60680
B1AUA8	B1AUA8
B1AUA8	P0CG49
B1AUA8	P0CG50
B1AUA8	P62983
B1AUA8	P62984
B1AUA8	Q80U87
B1AXD8	Q9EST8
B1AYL1	P39447
B1AYL1	Q99L88
B2RR24	Q6PDN3
B2RR83	A2AG06
B2RS19	A2AWL7
B2RS19	B2RS19
B2RS19	P01108
B2RS19	P03966
B2RS19	P50540
B2RS19	Q80US8
B2RS19	Q8C4Y1
B2RS19	Q91VN7
B2RUG9	B2RUR8
B2RUG9	Q02248
B2RWS6	Q9WTL8
B2RX14	Q8K3Y3
B2RXS4	Q68FM7
B5KM66	Q9D495
B7ZDF5	Q99PE2
B7ZDF5	Q9WU42
B7ZDF7	Q99PE2
B7ZDF7	Q9WU42
B7ZNY0	Q60680
B9EKI5	P25911
B9EKI5	Q60631
B9EKI5	Q60992
B9EKI5	Q8CBW3
B9EKI5	Q99M51
C3VLD3	P46638
D3YVF0	P12367
D3YVF0	P48453
D3YVV7	Q8BGJ5
D3YVV7	Q8CB58
D3YVV7	Q8K310
D3YVV7	Q8R081
D3YVV7	Q91Z31
D3YVV7	Q922I7
D3YZC9	P08046
D3YZC9	P70314
D3YZD0	P08046
D3YZD0	P70314
D3Z1P7	Q62141
D3Z3K2	A0A140LI02
D3Z3K2	A2A7Y5
D3Z3K2	B9EHI3
D3Z3K2	P13609
D3Z3K2	P22005
D3Z3K2	P61957
D3Z3K2	P84244
D3Z3K2	Q03173
D3Z3K2	Q04742
D3Z3K2	Q3U125
D3Z3K2	Q497N6
D3Z3K2	Q5RL10
D3Z3K2	Q5SPL2
D3Z3K2	Q65Z95
D3Z3K2	Q6PDM1
D3Z3K2	Q6UL01
D3Z3K2	Q70FJ1
D3Z3K2	Q80ZP0
D3Z3K2	Q80ZU5
D3Z3K2	Q8BIL5
D3Z3K2	Q8CAC8
D3Z3K2	Q8CFI7
D3Z3K2	Q8CHI8
D3Z3K2	Q8R1W2
D3Z3K2	Q99NA2
D3Z3K2	Q9CQT5
D3Z3K2	Q9CQT6
D3Z3K2	Q9CRD0
D3Z3K2	Q9D023
D3Z3K2	Q9D6S7
D3Z3K2	Q9D9T6
D3Z3K2	Q9DA42
D3Z3K2	Q9R109
D3Z3K2	Q9R1S0
D3Z3K2	Q9WTX7
D3Z4R4	P22361
D3Z4R4	Q80W03
D3Z4R4	Q9JL10
E9PUR6	P09632
E9PUR6	P22605
E9PUR6	P25425
E9PUR6	Q8CGW9
E9PVS2	Q9EPK5
E9PYG6	P25911
E9PYG6	P39688
E9PZQ0	P0C0S6
E9Q0S6	O55222
E9Q238	P68254
E9Q401	E9Q401
E9Q401	E9Q9K8
E9Q401	G5E8J6
E9Q401	Q9Z2I2
E9Q4Q2	P08046
E9Q4Q2	P70314
E9Q557	Q60680
E9Q5G3	Q7M6U3
E9Q5G7	Q03385
E9Q5G7	Q4FJP3
E9Q5K9	Q6PDN3
E9Q5M9	A1L358
E9Q612	P27467
E9Q7C9	Q8CJ40
E9Q7L6	O55144
E9Q7L6	Q07279
E9QAE4	P28700
E9QAG8	O09106
E9QAT0	P42669
E9QKD9	O55144
E9QKD9	Q07279
E9QLD2	Q62141
E9QN59	A0A0A0MQA2
E9QNF5	P42669
E9QQ33	Q60823
F2Z3U3	Q62421
F6VAN0	P35441
F6VAN0	Q9Z1T2
F6VR53	F6VR53
F8VPR5	O35740
F8VPR5	P02340
F8VPR5	P15037
F8VPR5	P17433
F8VPR5	P28705
F8VPR5	P70700
F8VPR5	Q04207
F8VPR5	Q6P3E7
F8VPR5	Q6ZPI0
F8VPR5	Q8BHZ4
F8VPR5	Q8BJ71
F8VPR5	Q924Z4
F8VPR5	Q9ERK4
F8VPZ1	Q80X44
F8VQB6	P97798
F8VQB8	Q8JZP3
F8VQJ3	P10493
G3UW47	P68369
G3UW47	Q922F4
G3X8R0	G3X8R0
G3X9B2	Q8BZQ7
G3X9W7	G3X9W7
G3X9Y5	Q9QYI3
G5E852	P20491
G5E8H3	P56546
G5E8L8	Q64337
G5E8L8	Q9QXK9
G5E8L8	Q9WVS7
G5E8N7	G5E8N7
H3BLN6	Q8JZP3
H7BX60	Q5EE38
I6L9E2	A0A0B4J1F0
J3QMY9	Q9WTK8
J3QN89	Q62406
O08529	Q60591
O08532	P04925
O08537	O88470
O08537	Q8VH51
O08537	Q9Z1B5
O08539	P10637
O08539	Q9Z2C5
O08573	O08573
O08573	P15379
O08573	Q8VIM0
O08575	Q91WA6
O08575	Q9WUB0
O08586	P0CG49
O08586	P0CG50
O08586	P49452
O08586	P62983
O08586	P62984
O08599	Q68ED2
O08599	Q68EF4
O08603	O08603
O08605	P63085
O08605	Q62448
O08608	Q8BVM4
O08609	Q2VPU4
O08641	Q6DFV5
O08641	Q91X43
O08665	P97333
O08674	O55144
O08686	P01101
O08686	P05627
O08686	P16951
O08686	Q01147
O08709	O09000
O08709	O70145
O08709	P19157
O08709	P47713
O08709	Q9Z0P7
O08712	O35235
O08715	P0CG49
O08715	P0CG50
O08715	P62983
O08715	P62984
O08715	Q06986
O08734	O08734
O08734	Q60930
O08736	O08736
O08746	Q8BWG8
O08785	O54943
O08785	P63318
O08785	P97784
O08785	Q2VPD4
O08785	Q923E4
O08785	Q9WTL8
O08788	P28741
O08788	Q6A078
O08791	Q03526
O08791	Q8K4J2
O08795	Q8C7M3
O08808	O08808
O08808	P83917
O08808	Q61686
O08808	Q8BKX1
O08808	Q9DCC5
O08849	Q5S006
O08849	Q6R891
O08856	P42225
O08856	Q920Q8
O08863	P39429
O08863	Q9Z2A0
O08908	P05532
O08911	P47811
O08915	P21279
O08915	P27601
O08915	P30561
O08915	P37242
O08967	O08967
O08989	P42337
O08992	O70405
O08992	Q9WU78
O08999	Q9WVH9
O09000	O09000
O09000	O55128
O09000	Q924S6
O09000	Q9Z0P7
O09012	Q60680
O09053	Q91XU0
O09105	Q61909
O09106	E9QAG8
O09106	O35129
O09106	P02340
O09106	P25799
O09106	P27699
O09106	Q7TN08
O09106	Q80TZ9
O09118	P70211
O09130	P63280
O09159	P35991
O35082	P04426
O35082	P17553
O35082	P22724
O35082	P22725
O35082	Q61851
O35099	Q63810
O35099	Q91VY9
O35114	P17439
O35129	Q9CZE3
O35134	P15806
O35136	P04925
O35137	O35137
O35137	O35602
O35137	O88609
O35137	O88621
O35137	P18111
O35137	P23812
O35137	P24610
O35137	P31310
O35137	P31311
O35137	P35582
O35137	P40764
O35137	P43241
O35137	P43267
O35137	P48432
O35137	P62515
O35137	P63013
O35137	P70217
O35137	P70321
O35137	P70396
O35137	P70662
O35137	Q07424
O35137	Q08624
O35137	Q63934
O35137	Q64317
O35137	Q6PGF3
O35137	Q8CFD5
O35137	Q8K284
O35137	Q8R0B5
O35137	Q8VD35
O35137	Q9JKD8
O35137	Q9WUI0
O35137	Q9WVB3
O35144	Q6ZQJ5
O35149	E9PZQ0
O35157	P11881
O35157	Q8VDN2
O35160	P43267
O35182	O35625
O35182	O88712
O35182	Q9JIF0
O35185	O35185
O35185	P28033
O35226	Q80U87
O35228	P43431
O35235	O35235
O35235	O35305
O35245	E2JF22
O35250	P23818
O35250	P23819
O35250	P35438
O35250	Q62108
O35253	O35625
O35253	Q923E4
O35253	Q9JIF0
O35284	Q64287
O35286	Q9ERA6
O35295	Q9QXJ2
O35305	O35235
O35305	P39429
O35305	P70191
O35305	P70196
O35310	O35310
O35317	O35437
O35317	O70477
O35317	Q8BG99
O35324	Q8BHK6
O35324	Q9QUM4
O35381	P70288
O35381	Q60591
O35382	O35250
O35382	O35382
O35382	Q6KAR6
O35387	P42227
O35387	Q8BWG8
O35387	Q8CIH5
O35426	P58929
O35450	P39428
O35459	Q62406
O35464	Q80UG2
O35495	Q8BGU5
O35516	Q62406
O35526	P46097
O35601	O89100
O35601	Q62418
O35601	Q9JJG6
O35607	P68040
O35607	Q8BWG8
O35613	O88904
O35613	P61957
O35613	P63166
O35613	Q60953
O35613	Q9CSN1
O35613	Q9JI11
O35613	Q9JI44
O35613	Q9Z125
O35615	Q9JJ11
O35618	P23804
O35625	O35182
O35625	O35253
O35625	O35625
O35625	O88907
O35625	P0CG49
O35625	P0CG50
O35625	P42859
O35625	P62983
O35625	P62984
O35625	P63330
O35625	Q60953
O35625	Q8BUN5
O35625	Q8C4Q6
O35625	Q8C5D8
O35625	Q99ML9
O35625	Q9JIF0
O35625	Q9JM05
O35626	P62874
O35626	Q8CG79
O35626	Q920B9
O35626	Q9JJ00
O35627	P28705
O35627	P54775
O35627	P70365
O35627	Q5RIM6
O35627	Q62227
O35627	Q8BK32
O35627	Q9WU42
O35654	Q60591
O35658	Q02956
O35664	P42225
O35668	P33175
O35668	Q8K3E5
O35681	O35681
O35681	Q9R0N4
O35681	Q9R0N8
O35681	Q9R0N9
O35684	O35684
O35685	Q61768
O35690	Q99PQ2
O35716	P05532
O35716	Q62120
O35730	O35730
O35730	P25916
O35730	Q8CCI5
O35730	Q9CQJ4
O35730	Q9QWH1
O35730	Q9QXV1
O35846	A2BH40
O35864	P05627
O35864	P46414
O35887	A3KGF7
O35904	P08556
O35904	P26450
O35904	P32883
O35904	Q61411
O35927	Q7TN08
O35973	O35973
O35973	O55144
O35973	O70361
O35973	P58462
O35973	P97784
O35973	Q9R194
O35973	Q9R1X4
O35984	O55144
O35984	Q8BG99
O54709	O08603
O54714	Q04207
O54714	Q7TN29
O54724	Q6PDN3
O54724	Q9Z1T1
O54737	P11798
O54737	Q60631
O54784	O54784
O54784	P42227
O54784	P61079
O54784	Q06507
O54786	O54788
O54788	O54786
O54790	P97302
O54790	Q60795
O54791	Q9D071
O54824	O88932
O54824	P35436
O54824	P35561
O54824	Q01097
O54824	Q01098
O54824	Q01815
O54824	Q03391
O54824	Q03719
O54824	Q0PCR6
O54824	Q7TS72
O54824	Q8R435
O54824	Q9Z0V1
O54824	Q9Z0V2
O54826	Q8C3V4
O54826	Q91X45
O54828	P42866
O54828	P62881
O54836	P39428
O54864	P10085
O54885	Q9R007
O54890	P05480
O54901	Q6XJV4
O54901	Q9ES57
O54910	Q04863
O54915	P28705
O54916	Q8CIH5
O54918	P10417
O54918	P97287
O54918	Q07440
O54918	Q9CQV8
O54918	Q9DBC7
O54918	Q9EQY0
O54931	P12367
O54941	P35991
O54943	O08785
O54943	O35973
O54943	O54943
O54943	P58462
O54943	P97784
O54943	Q6PGF3
O54943	Q8C4V4
O54943	Q99PM3
O54943	Q9R194
O54943	Q9WTL8
O54946	Q8BWG8
O54949	Q9QZR5
O54957	Q60631
O54957	Q62077
O54972	P15806
O54972	P22091
O54972	P70662
O54972	Q60722
O54972	Q61286
O55013	O55013
O55026	O70439
O55029	Q99N72
O55033	O35625
O55033	P39053
O55033	P61979
O55033	Q62417
O55033	Q8CBW3
O55042	P68510
O55042	Q5S006
O55098	P70278
O55107	E9PZQ0
O55108	E9PZQ0
O55128	O88907
O55128	Q9Z0P7
O55144	A0A087WPU8
O55144	O54941
O55144	Q5SXJ3
O55144	Q69ZU8
O55144	Q7TNV0
O55144	Q8VDQ8
O55144	Q99LJ2
O55144	Q9CQZ1
O55144	Q9CXU1
O55144	Q9D8X5
O55144	Q9D902
O55144	Q9EPZ6
O55144	Q9EQN3
O55144	Q9JKD8
O55144	Q9WUU6
O55144	Q9WVB3
O55144	V9GX74
O55176	P25233
O55176	Q9QYH6
O55179	Q60823
O55179	Q8CFA1
O55196	O08677
O55196	O88207
O55196	P16015
O55196	Q8R2Q8
O55196	Q9QYM9
O55203	E9Q6F9
O55203	O88609
O55203	P25801
O55203	P53776
O55203	P61375
O55203	P61969
O55203	P63006
O55203	Q149D4
O55203	Q3U4B1
O55203	Q8BZL8
O55203	Q8C9M8
O55203	Q924W9
O55203	Q9CXV0
O55203	Q9CYZ8
O55203	Q9D0P5
O55203	Q9JKU8
O55203	Q9WUH2
O55203	Q9Z0S2
O55222	Q9WUD1
O55230	Q924H5
O55230	Q9CQE0
O55230	Q9CX47
O55242	P63141
O70137	P97875
O70161	P17426
O70161	Q9DBG3
O70172	O70172
O70174	P68510
O70174	Q8BLC3
O70220	Q9CYZ8
O70220	Q9D032
O70237	O54864
O70237	Q9Z148
O70263	B1AYL1
O70263	P97792
O70263	Q91XL2
O70273	Q9EST8
O70302	P0CG49
O70302	P0CG50
O70302	P56198
O70302	P62983
O70302	P62984
O70305	Q62420
O70306	O55144
O70309	P97479
O70318	P63001
O70318	Q8CIH5
O70318	Q9JLB0
O70333	E9PZQ0
O70343	Q61539
O70343	Q64287
O70343	Q923E4
O70343	Q9Z0Y9
O70361	O54943
O70361	P97784
O70374	P22091
O70405	Q9DB70
O70421	Q62108
O70421	Q811D0
O70421	Q91XM9
O70433	Q02248
O70433	Q199A7
O70433	Q8CI15
O70433	Q8CIH5
O70433	Q9DBC7
O70445	P61458
O70458	P53347
O70468	P68033
O70468	Q02566
O70469	B1AWS8
O70469	P35546
O70469	Q01279
O70479	O70479
O70481	Q62245
O70494	E9PZQ0
O70496	Q8BGT0
O70546	Q62383
O70585	P33175
O70585	P39428
O70585	Q91WZ8
O78196	Q9Z324
O88188	Q62192
O88282	P41183
O88307	Q9EQH3
O88343	Q64444
O88351	O09044
O88351	O88351
O88351	O88522
O88351	P70434
O88351	Q9WU38
O88447	Q58A65
O88447	Q8BG26
O88447	Q8CII8
O88447	Q9ESN9
O88448	Q9EPL2
O88470	D3Z2U7
O88470	E9Q1C5
O88470	M0QWU0
O88470	O54962
O88470	P08752
O88470	P19785
O88470	P23116
O88470	P23475
O88470	P35545
O88470	P47955
O88470	P50637
O88470	P62862
O88470	P63280
O88470	Q3UHH1
O88470	Q3UIU2
O88470	Q505F1
O88470	Q6PI63
O88470	Q70LM9
O88470	Q70LN0
O88470	Q8BGF7
O88470	Q8BMJ7
O88470	Q8C405
O88470	Q8C5D8
O88470	Q8C6G0
O88470	Q8CCE9
O88470	Q91WA4
O88470	Q920A7
O88470	Q9D1E1
O88470	Q9D8E6
O88470	Q9JL60
O88477	Q8K3Y3
O88485	P63168
O88485	Q61768
O88485	Q64368
O88485	Q9ERR1
O88508	O88974
O88508	P52633
O88508	Q60848
O88508	Q9CWR8
O88508	Q9Z148
O88509	Q60848
O88509	Q9CWR8
O88513	P13297
O88513	P28359
O88513	P31311
O88513	Q8K214
O88513	Q8R4E9
O88522	O88351
O88522	P0CG49
O88522	P0CG50
O88522	P15806
O88522	P17879
O88522	P62983
O88522	P62984
O88522	Q05BA5
O88522	Q07279
O88522	Q60680
O88522	Q60769
O88522	Q61187
O88522	Q6T264
O88522	Q924T7
O88522	Q9EST8
O88531	Q9Z2A0
O88532	P70392
O88544	O88545
O88544	Q9QXJ2
O88551	P39447
O88551	Q8VBX6
O88559	P23204
O88559	Q3UJH4
O88559	Q9Z0Y9
O88566	B2RUG9
O88566	Q02248
O88566	Q99ML9
O88566	Q9WV60
O88574	O35381
O88574	Q60520
O88597	O08908
O88597	P63158
O88597	Q6PF93
O88609	E9Q6F9
O88609	Q149D4
O88609	Q3U4B1
O88609	Q8C9M8
O88609	Q9CYZ8
O88609	Q9D032
O88621	P28705
O88621	P42582
O88621	Q02591
O88621	Q62432
O88621	Q8BUN5
O88621	Q99PM3
O88631	O88643
O88634	P08152
O88643	P60766
O88643	Q9ES28
O88643	Q9WVM1
O88653	O09000
O88653	O88907
O88653	Q9JHS3
O88653	Q9Z0P7
O88665	O08908
O88665	P26450
O88667	P63001
O88703	O88703
O88704	O88704
O88705	Q8BFX3
O88708	P25206
O88708	P49717
O88708	P97310
O88708	P97311
O88708	Q66JV6
O88708	Q9WUV0
O88712	P70288
O88712	Q99N13
O88746	Q9QZ06
O88792	Q62083
O88803	O88803
O88811	P0CG50
O88845	P12367
O88866	P46935
O88895	P25322
O88895	P48437
O88898	O88898
O88898	Q9ESJ1
O88898	Q9JJP2
O88904	O35613
O88907	A2A468
O88907	O09000
O88907	O55128
O88907	P49312
O88907	Q05BA5
O88907	Q505F1
O88907	Q7TN29
O88907	Q9Z0P7
O88952	Q08460
O88974	O09000
O88974	O88907
O88974	P70392
O88974	Q9Z0P7
O88983	Q91XH6
O88987	Q60662
O88987	Q99MP8
O89019	Q8K3E5
O89019	Q91ZR4
O89023	Q91WC1
O89032	P47713
O89033	Q60862
O89033	Q61881
O89033	Q9Z1N2
O89051	P12023
O89086	Q8CBW3
O89090	P47811
O89090	Q99PV5
O89100	O89100
O89100	Q60787
O89100	Q9QUN3
O89110	P19091
O89110	Q61160
O89110	Q99J83
O89110	Q9D8Y7
P00493	P00493
P00520	O55042
P00520	P00520
P00520	P97465
P00520	Q8CBW3
P00520	Q8CHK4
P00757	P01139
P00860	P00860
P00860	P25118
P01101	O08537
P01101	P06537
P01101	Q06507
P01108	P59941
P01108	Q8CH72
P01108	Q9QWV9
P01139	P00757
P01139	P01139
P01580	P52293
P01631	P01865
P01635	P01820
P01636	P18525
P01660	P01865
P01665	P01868
P01723	P01820
P01724	P01868
P01727	P01751
P01727	P01820
P01727	P01868
P01731	P01731
P01731	P06240
P01738	P01851
P01746	P01837
P01747	P01837
P01789	P01837
P01801	P01727
P01801	P01837
P01864	P01837
P01865	P01837
P01867	P01631
P01867	P01837
P01868	P01631
P01868	P01837
P01868	P01843
P01872	P01872
P01872	P12849
P01872	P19437
P01872	P25918
P01882	P01882
P01882	P19437
P01882	P25918
P01882	Q64389
P01887	P01897
P01887	P01899
P01887	P01901
P01887	P03991
P01887	P04223
P01887	P11609
P01887	Q31093
P01887	Q31142
P01887	Q31202
P01899	P01887
P01900	P01887
P01901	P01887
P01901	P16879
P01910	P06343
P01921	P04228
P02340	B2RWS6
P02340	O54992
P02340	O88898
P02340	O88907
P02340	P02340
P02340	P0CG49
P02340	P0CG50
P02340	P23804
P02340	P26687
P02340	P47811
P02340	P62983
P02340	P62984
P02340	P97302
P02340	Q60974
P02340	Q61827
P02340	Q6PGF3
P02340	Q8C5D8
P02340	Q99KR7
P02340	Q9JJP2
P02340	Q9JM05
P02340	Q9QUR7
P02340	Q9Z2U2
P02463	P02463
P02468	P02469
P02468	P10493
P02535	Q60680
P03966	O35134
P03966	Q6PDN3
P03966	Q924Z4
P03966	Q9JHE6
P03987	P01837
P04104	P42227
P04117	P04117
P04202	O88393
P04202	Q62312
P04202	Q64729
P04224	P02089
P04351	P34902
P04426	O35082
P04426	Q6DID7
P04627	P32883
P04627	Q61411
P04925	O08532
P04925	O88935
P04925	P04925
P04925	P08226
P04925	P10417
P04925	P11627
P04925	P20029
P04925	P20917
P04925	P39053
P04925	Q03157
P04925	Q60631
P04925	Q61885
P04925	Q8BLK3
P04925	Q8C460
P04925	Q99JI4
P04925	Q99PJ0
P04925	Q9EPL2
P04925	Q9QXJ1
P05064	P35991
P05064	Q9Z2A0
P05132	P31324
P05132	Q5S006
P05480	P35546
P05480	P54763
P05480	P70315
P05480	Q8C180
P05532	P26450
P05532	Q60631
P05555	P11835
P05622	O08586
P05622	Q9JHL1
P05627	P01101
P05627	P05627
P05627	P09025
P05627	P09065
P05627	P09631
P05627	P42227
P05627	P43120
P05627	P54841
P05627	P58771
P05627	Q06507
P05627	Q64261
P05627	Q8BUN5
P05627	Q8VBV4
P05627	Q91Y86
P05784	Q64337
P06151	Q60668
P06151	Q9JHG7
P06240	P01731
P06240	P06332
P06240	P49710
P06240	Q9JLY0
P06240	Q9QXK9
P06332	P06240
P06343	P01910
P06344	P14434
P06346	P04228
P06537	P05627
P06684	P30993
P06745	P06745
P06798	Q07279
P06804	P06804
P06876	Q62318
P06876	Q9JKY0
P06876	Q9Z2U2
P07091	O08663
P07091	P07091
P07091	P56565
P07141	P05480
P07141	P09581
P07141	Q8C161
P07141	Q9JHU4
P07147	P07147
P07147	P11344
P07356	O55196
P07356	P0CG49
P07356	P0CG50
P07356	P62983
P07356	P62984
P07356	P63166
P07901	P31750
P08046	P08046
P08046	Q61127
P08074	P08074
P08113	P50652
P08152	O88634
P08152	P63280
P08152	Q61122
P08152	Q61127
P08152	Q8C5D8
P08207	O08908
P08207	P07356
P08207	Q62406
P08228	P63001
P08551	Q9ESN6
P08556	P42337
P08556	Q9JHG7
P08730	Q9DCV7
P08775	Q5DW34
P08775	Q61656
P08775	Q62093
P08775	Q6PDM2
P08775	Q8CB77
P08775	Q9Z148
P09021	P41778
P09021	Q60954
P09022	P41778
P09022	P47242
P09022	Q924Z4
P09023	P41778
P09027	P32443
P09027	Q8JZN2
P09027	Q924Z4
P09027	Q9WVB3
P09055	P26955
P09079	O35317
P09092	O35317
P09092	P25425
P09092	P41778
P09092	P60898
P09092	Q8BG99
P09103	P04925
P09174	Q61053
P09405	P20263
P09405	P35569
P09405	P63028
P09405	Q9DC51
P09405	Q9QWV4
P09450	O35284
P09450	Q9D275
P09528	P09528
P09528	Q9CPX4
P09581	O89100
P09581	P05480
P09581	P07141
P09631	O35317
P09631	P25425
P09631	P50220
P09631	P60898
P09631	P63015
P09631	Q60954
P09631	Q6ZPI0
P09631	Q8R4I4
P09632	O35317
P09632	P25425
P09632	P41778
P09632	P42232
P09632	P60898
P09632	P70434
P09632	Q60585
P09632	Q60954
P09632	Q61179
P09632	Q8BG99
P09632	Q8R4I4
P09632	Q9WV74
P09671	P02340
P09671	P54099
P09793	P09793
P09793	P84091
P09803	P09803
P09803	Q02248
P0C0S6	P35991
P0C0S6	Q62481
P0C605	O35607
P0CG49	O35226
P0CG49	O88522
P0CG49	P02340
P0CG49	P22723
P0CG49	P31750
P0CG49	P53349
P0CG49	P70196
P0CG49	Q04207
P0CG49	Q60803
P0CG49	Q60855
P0CG49	Q61483
P0CG49	Q62172
P0CG49	Q62406
P0CG49	Q6A009
P0CG49	Q7TN99
P0CG49	Q99K90
P0CG49	Q99N13
P0CG50	O08992
P0CG50	O35226
P0CG50	O88522
P0CG50	P02340
P0CG50	P22723
P0CG50	P31750
P0CG50	P53349
P0CG50	P70196
P0CG50	Q04207
P0CG50	Q60803
P0CG50	Q60855
P0CG50	Q61483
P0CG50	Q62172
P0CG50	Q62406
P0CG50	Q6A009
P0CG50	Q6R3M4
P0CG50	Q7TN99
P0CG50	Q99K90
P0DI97	Q9R171
P0DJI6	Q9WVH4
P0DMN7	P70315
P0DMN7	P98083
P0DOV1	P13405
P0DOV1	Q8C5D8
P0DOV2	P13405
P0DOV2	Q8C5D8
P10085	O54864
P10085	P10085
P10085	P15806
P10085	P25976
P10085	P41136
P10085	P70365
P10085	Q05BA5
P10085	Q61026
P10085	Q61656
P10085	Q7TPV4
P10085	Q99JR8
P10085	Q99PV5
P10107	Q62406
P10166	B2RS19
P10166	Q8C4Y1
P10284	Q07279
P10284	Q3TCH7
P10284	Q60954
P10300	P01731
P10417	O08734
P10417	O88597
P10417	P04925
P10417	P10417
P10417	Q07813
P10417	Q60739
P10417	Q61337
P10493	Q05793
P10628	O35317
P10628	P41778
P10628	P60898
P10629	O35317
P10637	Q61644
P10751	Q8BI67
P10833	O35904
P10833	P42337
P10833	Q9JHG7
P10889	P10889
P10923	Q62406
P11103	P20263
P11103	P39428
P11103	P97864
P11103	Q9WTL8
P11103	Q9Z2A0
P11157	E9PZQ0
P11276	Q8CIH5
P11344	P11344
P11416	P21279
P11416	Q02248
P11416	Q5RIM6
P11416	Q8BK32
P11416	Q8CBD1
P11440	P48967
P11440	P51943
P11440	Q61457
P11499	P19426
P11499	Q60825
P11499	Q9D1P4
P11627	P34152
P11627	Q8VI36
P11627	Q9ER00
P11679	P26361
P11679	Q64337
P11688	O54890
P11798	P11798
P11798	P70168
P11835	P24063
P11835	Q9DBC7
P11881	Q6PIE5
P11983	Q8BH16
P11983	Q9CZA6
P11985	P67871
P12023	P14211
P12023	P18872
P12023	Q03157
P12023	Q8R1C9
P12023	Q9DBR4
P12023	Q9QXJ1
P12815	P12815
P12815	P70389
P12815	Q921R8
P12815	Q9CQ85
P12815	Q9D0C1
P12815	Q9WU78
P12960	P04925
P12979	P25976
P12979	Q3TKT4
P13020	Q8CIH5
P13020	Q9Z1W9
P13297	P29037
P13297	P43276
P13297	Q9QYH6
P13379	P22682
P13405	P24610
P13405	P52927
P13405	Q155P7
P13405	Q61412
P13405	Q80UP3
P13405	Q8BQC8
P13405	Q9R002
P13595	P04925
P13595	P21803
P13745	P13745
P13864	P52633
P13864	Q04207
P13864	Q80W03
P13864	Q99MP8
P14069	Q9CXW3
P14148	P35991
P14211	P12023
P14211	P70196
P14211	Q99M51
P14234	Q9QZE2
P14404	Q9Z2D8
P14429	P01887
P14434	P14434
P14434	P14483
P14438	P04441
P14438	P06344
P14439	P14439
P14439	Q31163
P14483	P14434
P14602	P42227
P14753	Q91XC0
P14873	Q9WTU3
P15037	Q924Z4
P15066	Q9D275
P15105	P35991
P15116	P15116
P15208	P49817
P15208	Q3UHD9
P15208	Q60760
P15209	P49615
P15209	P61809
P15314	O54714
P15314	P63166
P15314	P63280
P15379	Q60610
P15379	Q64729
P15379	Q6ZPF3
P15533	Q925I8
P15535	P29752
P15535	Q7TSS2
P15806	E9Q6D6
P15806	O35437
P15806	O54941
P15806	P15806
P15806	P20067
P15806	P26687
P15806	P41136
P15806	P48985
P15806	P58462
P15806	P70271
P15806	Q3U0V6
P15806	Q60756
P15806	Q60867
P15806	Q61039
P15806	Q62392
P15806	Q6PGF3
P15806	Q6ZPI0
P15806	Q7TN08
P15806	Q7TNK1
P15806	Q8BGJ0
P15806	Q8C0J6
P15806	Q8CFD5
P15806	Q920Q8
P15806	Q924Z4
P15806	Q99NE9
P15806	Q99PV5
P15806	Q9CPV7
P15806	Q9EP71
P15806	Q9JI90
P15806	Q9JJR7
P15806	Q9QXN3
P15806	Q9WVB3
P15806	Q9WVP6
P15806	Q9Z2U2
P15919	G3UVU2
P15919	P52293
P15919	Q9JL60
P15920	P63034
P16054	D3YUA8
P16054	P23242
P16056	P22682
P16056	P35918
P16056	Q9QYY0
P16092	O35082
P16110	O09000
P16110	O88907
P16110	P16110
P16110	Q9QXA1
P16110	Q9Z0P7
P16277	E9PYG6
P16277	P26450
P16277	Q8CIH5
P16858	P19253
P16858	Q08460
P16951	O08686
P16951	P63085
P17095	O55128
P17095	Q9Z0P7
P17156	P17156
P17225	Q9CW46
P17426	Q01097
P17433	P31310
P17433	P45481
P17433	P70338
P17553	O35082
P17679	O35615
P17679	P13405
P17679	P17433
P17679	P25801
P17679	Q3TKT4
P17742	Q9Z0X1
P17809	P25118
P17897	P01823
P17897	Q920E6
P17919	Q923E4
P17919	Q924Z4
P18052	P43406
P18111	P97334
P18111	Q64317
P18111	Q6P9Y7
P18111	Q9D0D5
P18242	O55196
P18469	P04441
P18528	P01837
P18828	Q80Z37
P18872	P06151
P18872	P12660
P18872	P97428
P18872	Q8VDU0
P18911	Q9WU56
P19091	O35437
P19091	O55144
P19091	P25425
P19091	Q61026
P19157	O08709
P19157	P19157
P19182	P70181
P19182	Q62141
P19221	O08675
P19221	O88634
P19437	P01872
P19437	P01882
P19785	P17208
P19785	Q00175
P19785	Q61026
P19785	Q63934
P19785	Q78NA5
P20029	P08113
P20029	Q99KV1
P20029	Q9D8I1
P20067	O35864
P20067	O55144
P20067	P10085
P20067	P15806
P20067	Q60722
P20067	Q61286
P20108	P20108
P20152	Q8BWG8
P20152	Q9CQV8
P20263	P61965
P20263	Q61066
P20263	Q61545
P20263	Q8BUN5
P20334	P39428
P20334	P39429
P20357	Q6PHZ2
P20444	O08785
P20491	Q62120
P20664	P33609
P20722	Q9CQN4
P21274	Q9CQN4
P21275	Q9CQN4
P21460	Q9Z2A0
P21784	P15919
P21803	P13595
P21836	P02469
P22091	O09106
P22091	O54972
P22091	P11103
P22091	P15806
P22091	P17679
P22091	P23475
P22091	P25801
P22091	P70288
P22091	P70662
P22091	Q04750
P22091	Q3UE68
P22091	Q60722
P22091	Q61286
P22091	Q62158
P22091	Q80YV3
P22091	Q8BZL8
P22091	Q8VE37
P22091	Q9CYZ8
P22091	Q9D032
P22361	P27889
P22361	Q923E4
P22361	Q99PM3
P22366	P22366
P22366	Q9EQ32
P22437	P22437
P22437	Q02819
P22605	P22605
P22605	P28700
P22646	P0CG49
P22646	P0CG50
P22646	P62983
P22646	P62984
P22682	P25911
P22682	P48025
P22682	Q9Z0R4
P22724	O35082
P22893	Q9QXJ2
P22907	P69566
P23116	P51480
P23116	Q64364
P23116	Q8JZQ9
P23188	P23188
P23198	Q64700
P23204	P28700
P23204	Q923E4
P23242	P11688
P23242	P28229
P23242	P28231
P23242	P52795
P23242	P52800
P23242	Q64727
P23242	Q8CBC4
P23359	Q9CQN4
P23589	P23589
P23611	P63166
P23611	P63280
P23708	P33242
P23772	Q61508
P23772	Q925J9
P23772	Q9JKD8
P23798	O88509
P23798	Q60848
P23798	Q9CQJ4
P23798	Q9QWH1
P23804	O88904
P23804	P02340
P23804	P0CG49
P23804	P0CG50
P23804	P10126
P23804	P47962
P23804	P62983
P23804	P62984
P23804	Q62108
P23804	Q8BSK8
P23804	Q8BWG8
P23804	Q9CXW4
P23804	Q9WVF7
P23812	P60898
P23812	P61216
P23812	Q07916
P23812	Q60954
P23812	Q8BZZ3
P23812	Q8R4I4
P23812	Q99M28
P23812	Q9Z2U2
P23818	O35382
P23818	P18762
P23818	P23819
P23819	O35382
P23819	Q6KAR6
P23906	P63280
P23927	Q8CIH5
P23950	P61458
P24161	P0CG49
P24161	P0CG50
P24161	P62983
P24161	P62984
P24161	Q8BWG8
P24472	P24472
P24472	Q61831
P24472	Q91Y86
P24472	Q9WTU6
P24610	P13405
P25118	Q60855
P25118	Q99MN1
P25118	Q9EQY0
P25119	P28798
P25206	P97310
P25206	Q52KC3
P25206	Q61881
P25233	B1AY10
P25233	D3YUX1
P25233	O08788
P25233	O35668
P25233	O55029
P25233	O70309
P25233	P02469
P25233	P08551
P25233	P13297
P25233	P15116
P25233	P25233
P25233	P39038
P25233	P41105
P25233	P55284
P25233	P56546
P25233	P58404
P25233	P60469
P25233	P68369
P25233	Q02819
P25233	Q0P5V2
P25233	Q0VBD2
P25233	Q3TV65
P25233	Q3U3N0
P25233	Q3UB74
P25233	Q3UJP5
P25233	Q3UYK3
P25233	Q5U4H9
P25233	Q61043
P25233	Q61191
P25233	Q61221
P25233	Q61501
P25233	Q62276
P25233	Q7TMY8
P25233	Q7TQI3
P25233	Q8BJM7
P25233	Q8BKT7
P25233	Q8BXG3
P25233	Q8BXL9
P25233	Q8C156
P25233	Q8CH18
P25233	Q8JZM4
P25233	Q8K2Y9
P25233	Q8R0L9
P25233	Q8R2V2
P25233	Q8R3H9
P25233	Q8R4C2
P25233	Q8R4T1
P25233	Q8VCI5
P25233	Q8VHR0
P25233	Q91YS8
P25233	Q91ZV3
P25233	Q99LJ7
P25233	Q9CQ19
P25233	Q9CXW3
P25233	Q9CZ13
P25233	Q9D7S9
P25233	Q9D8B3
P25233	Q9DCP9
P25233	Q9DCR4
P25233	Q9EPK5
P25233	Q9ESV0
P25233	Q9ET26
P25233	Q9JJX7
P25233	Q9JLK7
P25233	Q9QXL1
P25233	Q9QYH6
P25233	Q9R045
P25322	P30285
P25322	P63321
P25425	O35134
P25425	P25425
P25425	Q9CXE0
P25446	O89110
P25446	P26040
P25446	Q60953
P25446	Q9ERH7
P25799	O08908
P25799	P25799
P25799	P58929
P25799	Q04207
P25799	Q04863
P25799	Q8CE64
P25799	Q9DBR0
P25799	Q9EST8
P25799	Q9WTK5
P25801	E9PY16
P25801	F8WJ40
P25801	G3UWZ0
P25801	O88466
P25801	O89051
P25801	P11247
P25801	P15806
P25801	P17679
P25801	P20664
P25801	P26323
P25801	P32233
P25801	P47754
P25801	P51943
P25801	P52431
P25801	P61237
P25801	P61290
P25801	P62192
P25801	P62281
P25801	P70662
P25801	P81270
P25801	P83887
P25801	P97311
P25801	Q09200
P25801	Q1HFZ0
P25801	Q2YDW7
P25801	Q3UGU8
P25801	Q60605
P25801	Q60722
P25801	Q61818
P25801	Q673H1
P25801	Q6P4T0
P25801	Q6PAL8
P25801	Q6ZWZ7
P25801	Q7TS74
P25801	Q8BL74
P25801	Q8K3G9
P25801	Q8K411
P25801	Q8R2K4
P25801	Q8R2P8
P25801	Q8VDF2
P25801	Q91VR2
P25801	Q91YE2
P25801	Q921G6
P25801	Q99J95
P25801	Q99K90
P25801	Q99M04
P25801	Q9CS00
P25801	Q9CWW7
P25801	Q9DAX9
P25801	Q9DCJ5
P25801	Q9JJ28
P25801	Q9JKR6
P25801	Q9JLG8
P25801	Q9QZR5
P25801	Q9Z0H1
P25801	Q9Z1S0
P25801	Q9Z2V4
P25911	A0A0U1RQB6
P25911	F8VPR5
P25911	O35305
P25911	P26450
P25911	P49710
P25911	Q8CIH5
P25916	O35730
P25916	O88509
P25916	P25916
P25916	Q60848
P25916	Q9CQJ4
P25916	Q9JI44
P25916	Q9QWH1
P25918	P01882
P25962	P51637
P26039	O70161
P26039	P09055
P26039	P26039
P26040	P46662
P26043	P13597
P26043	P15379
P26043	P29533
P26043	Q6PDN3
P26231	O88351
P26231	P26231
P26231	Q02248
P26361	P0CG49
P26361	P0CG50
P26361	P26361
P26361	P62983
P26361	P62984
P26361	P70441
P26450	B2RWS6
P26450	P05622
P26450	P35569
P26450	P42337
P26450	Q62419
P26450	Q8BTI9
P26883	E9PZQ0
P26883	Q64729
P26955	P09055
P27005	P27005
P27005	P31725
P27040	P51865
P27040	Q9Z1W4
P27512	P35991
P27512	P39429
P27512	P70191
P27512	P70196
P27573	Q08460
P27577	P27577
P27577	P70338
P27661	P48678
P27661	Q80V62
P27661	Q9Z0X1
P27699	O09106
P27699	Q9WTX7
P27782	P30681
P27782	P56581
P27782	Q02248
P27782	Q61473
P27782	Q7TN08
P27782	Q9JM05
P27782	Q9QZR5
P27790	O35626
P27870	P61979
P27870	Q60631
P28028	P68510
P28028	Q61411
P28028	Q63932
P28033	P33242
P28229	P23242
P28230	Q8CBC4
P28231	P23242
P28231	Q8CBC4
P28301	P17879
P28301	P35991
P28357	O35317
P28357	P60898
P28357	Q9Z2U2
P28359	O35317
P28359	O35984
P28359	P41778
P28359	Q9Z2U2
P28481	O55196
P28481	P28481
P28574	P01108
P28574	Q99J95
P28574	Q9QWV9
P28650	P28650
P28652	P11798
P28652	Q9WV31
P28653	O55196
P28653	P98063
P28656	Q9WVS7
P28658	Q8BP00
P28700	E9QAE4
P28700	P22605
P28700	P59598
P28700	Q64127
P28700	Q80TS5
P28700	Q9Z0Y9
P28704	P48281
P28705	P37242
P28705	Q60644
P28705	Q925B0
P28705	Q9Z0Y9
P28738	Q9ESN9
P28741	O08788
P28741	O54774
P28741	Q61771
P28741	Q8VI40
P28776	O35718
P28776	P0CG49
P28776	P0CG50
P28776	P62983
P28776	P62984
P28867	P23242
P29037	O54714
P29037	P61216
P29037	Q61656
P29037	Q99PM3
P29341	Q8K3Y3
P29351	P25911
P29351	P70196
P29391	P35991
P29452	Q8K3Z0
P29477	P29477
P29595	P30561
P29699	O55196
P29699	Q9QUK6
P29752	P29752
P29754	Q9WVK0
P30115	O88351
P30204	Q8BUK6
P30282	Q64261
P30285	P25322
P30285	P46414
P30412	P30412
P30561	O08915
P30561	P53762
P30658	O35730
P30658	O88509
P30658	Q8CCI5
P30873	Q62108
P30873	Q91XM9
P30875	Q62108
P30999	Q8BN78
P31001	Q9Z2C5
P31240	P05622
P31245	Q60954
P31245	Q6PDQ2
P31245	Q8CFD5
P31245	Q8VH51
P31245	Q924Z4
P31245	Q9CPV7
P31245	Q9D738
P31245	Q9EP71
P31245	Q9ESG8
P31245	Q9JKB3
P31245	Q9WVB3
P31245	Q9Z2U2
P31266	Q01705
P31310	O35984
P31310	P41778
P31310	P62869
P31310	Q60954
P31311	G3X9M3
P31311	P60898
P31311	Q60954
P31311	Q61645
P31311	Q9Z2U2
P31315	Q61179
P31316	P50220
P31324	P05132
P31695	Q60591
P31725	P27005
P31725	P31725
P31750	P07901
P31750	P0CG49
P31750	P0CG50
P31750	P62983
P31750	P62984
P31750	Q8K4K2
P31938	P28028
P31938	Q8CFP6
P32020	Q9D828
P32043	O35317
P32043	P41778
P32043	P60898
P32114	Q6NZQ4
P32211	P11798
P32300	P32300
P32300	P42866
P32300	Q9ER80
P32442	P09084
P32442	P24610
P32443	P09084
P32443	P24610
P32443	Q9JI90
P32883	Q01279
P32883	Q9JHG7
P33175	O08788
P33175	O70585
P33175	Q61026
P33242	O70343
P33242	Q99ME7
P33435	P33435
P33609	P33611
P33896	P42225
P34056	O35740
P34056	Q3U4B1
P34056	Q91ZK0
P34152	E9QK04
P34152	P11627
P34152	P35235
P34152	P39688
P34152	P54763
P34152	P70211
P34152	P97333
P34152	Q60631
P34152	Q61140
P34152	Q64355
P34152	Q8CFN5
P34152	Q8VI36
P34152	Q91YD9
P34152	Q99JY9
P34884	P34884
P34902	P07750
P34902	P47811
P34914	P34914
P34971	P05132
P34971	Q01063
P35235	O35718
P35235	P15209
P35235	P16879
P35235	P28776
P35235	Q64281
P35279	Q61598
P35279	Q921C5
P35329	P84091
P35330	P26043
P35396	P28700
P35396	P28705
P35396	Q60974
P35396	Q8CGN4
P35436	Q62108
P35436	Q8R4I7
P35438	O35382
P35438	P35436
P35438	P62204
P35438	Q62108
P35438	Q8R4I7
P35438	Q924X6
P35505	P35505
P35545	Q62419
P35546	Q03145
P35546	Q60629
P35561	P35561
P35564	Q8VD37
P35569	P26450
P35569	Q03963
P35583	Q61221
P35585	P22892
P35639	P97351
P35639	Q924Z4
P35700	P35700
P35831	P98083
P35917	P35918
P35918	P16056
P35922	P26323
P35922	Q9JHG6
P35951	P35969
P35951	P97318
P35969	P22682
P35969	P49764
P35969	Q62077
P35991	P22366
P35991	P27512
P35991	P70315
P35991	Q60631
P35991	Q9ERL0
P36368	P36368
P36898	O35182
P37040	P47713
P37238	E9PY55
P37238	O88559
P37238	O88895
P37238	O88907
P37238	Q61026
P37238	Q923E4
P37242	P28700
P37889	P25118
P37889	Q62406
P38647	P11881
P39053	O08539
P39053	Q62420
P39053	Q7TQF7
P39053	Q9JJV2
P39054	E9PZQ0
P39054	E9Q401
P39054	O08539
P39054	P34152
P39054	Q60598
P39054	Q60631
P39054	Q7TQF7
P39428	Q9DC33
P39429	P20334
P39429	P25118
P39429	P39429
P39429	P47741
P39429	Q60803
P39429	Q62073
P39429	Q62406
P39429	Q6P1E1
P39429	Q6PFD9
P39429	Q80WM9
P39429	Q99J95
P39447	P28229
P39447	Q61146
P39447	Q64727
P39688	P22682
P39688	P26450
P39688	P49615
P39688	P49710
P39688	Q03137
P39688	Q60749
P39688	Q80YF9
P39688	Q9JIA7
P39688	Q9JJG6
P39689	O35450
P39689	Q9Z111
P40124	Q8CIH5
P40124	Q99N72
P40223	O54927
P40223	O54929
P40223	Q9R1K5
P40645	Q80W03
P40694	P35991
P40764	P13297
P40764	Q8VI67
P41047	P97814
P41105	P97864
P41133	O35864
P41133	P10085
P41133	P15806
P41133	P41139
P41133	Q61286
P41133	Q61909
P41136	P10085
P41136	P13405
P41136	P15806
P41136	P17433
P41136	P41136
P41136	Q60722
P41136	Q9EQW6
P41139	Q9EQW6
P41155	P09055
P41183	O88282
P41183	P35396
P41183	P41183
P41183	P97303
P41183	Q8CGN4
P41183	Q923E4
P41233	B2RY21
P41233	Q60644
P41731	Q6PCW7
P41778	O35437
P41778	P09631
P41778	Q8BG99
P41778	Q9DB42
P41778	Q9QX99
P42128	Q62141
P42225	P29351
P42225	P30561
P42225	Q61069
P42227	A0A0U1RQB6
P42227	F8VPR5
P42227	O54784
P42227	O70166
P42227	P23927
P42227	P42227
P42227	P70424
P42227	Q99JB6
P42227	Q9ERS2
P42228	P42225
P42228	Q8R1G6
P42230	P48356
P42230	Q3UHD9
P42232	P42232
P42337	P26450
P42337	P32883
P42337	P41241
P42337	Q61411
P42337	Q7TN89
P42567	P17427
P42586	O55144
P42859	P11881
P42859	P70677
P42859	Q02248
P43120	Q8R4I4
P43120	Q8VI67
P43136	O35626
P43136	P50220
P43136	Q8VI67
P43136	Q99K53
P43136	Q99PM3
P43136	Q9R164
P43241	P70396
P43241	Q6PCN7
P43241	Q9Z2U2
P43267	Q9R059
P43276	P13297
P43404	P24161
P43404	Q64010
P43431	O35228
P43432	Q9EQ14
P43488	P47741
P43883	Q9DBL9
P45481	O35643
P45481	P27577
P45481	Q01147
P45481	Q02248
P45481	Q04207
P45481	Q60749
P45481	Q60821
P45481	Q62419
P45481	Q8CJ53
P45481	Q8K0V4
P45481	Q99KY4
P45481	Q99LC8
P45481	Q9EPK5
P45481	Q9WVH3
P46096	P49769
P46097	O35526
P46097	P60879
P46099	Q8VI33
P46414	O35864
P46414	Q62120
P46414	Q9JIH2
P46460	Q5S006
P46460	Q61006
P46460	Q62108
P46467	Q9CR26
P46467	Q9DB34
P46471	P04925
P46638	C3VLD3
P46662	P18653
P46684	F8VPV3
P46935	O88866
P46935	P97765
P46935	Q60760
P46935	Q61168
P46935	Q8R0W6
P46935	Q8R182
P46935	Q9D7R2
P46935	Q9EQG5
P46935	Q9JLJ0
P46938	P30051
P46938	Q9EPK5
P47242	P13297
P47242	Q9JKD8
P47708	P63011
P47741	P39428
P47741	Q60803
P47754	P47757
P47802	E9PZQ0
P47809	P53349
P47811	O08605
P47811	P16951
P47811	P49138
P47811	P55012
P47811	Q9WUI1
P47915	Q9Z2A0
P47941	P42337
P48025	P11911
P48025	Q64693
P48036	Q08460
P48168	Q8BUV3
P48281	P70365
P48281	Q925T6
P48301	Q9EPK5
P48356	O35717
P48356	O35718
P48356	Q62077
P48356	Q62225
P48379	Q99MD8
P48432	Q80Z64
P48453	O35099
P48453	P35991
P48453	Q63810
P48722	Q99P72
P48725	Q9CZA6
P48754	P0CG49
P48754	P0CG50
P48754	P15806
P48754	P31245
P48754	P62983
P48754	P62984
P48754	P97929
P48754	Q61545
P48754	Q8K5B8
P48754	Q9JKN5
P48787	P48787
P48972	P81183
P48972	Q8BKT3
P48985	Q61909
P49025	Q8CFN5
P49070	E9PZQ0
P49070	P11798
P49138	P47811
P49138	Q8BTS0
P49138	Q9QWH1
P49312	O09000
P49312	O88907
P49312	Q8BWG8
P49312	Q9Z0P7
P49452	O08586
P49615	P61809
P49660	Q62108
P49660	Q91XM9
P49698	Q9WTN3
P49710	P06240
P49710	P25911
P49710	Q07279
P49717	P49717
P49717	P97311
P49718	P25206
P49766	P09055
P49769	P14211
P49769	P46096
P49769	Q02248
P49769	Q3TDQ1
P49769	Q9R0Q3
P49769	Q9Z1G4
P49817	O54724
P49817	P63001
P49817	Q09014
P50153	P29387
P50172	P50172
P50207	Q60954
P50220	Q91V10
P50220	Q9WUI0
P50220	Q9WUU6
P50247	P39428
P50284	P39429
P50431	P50431
P50481	P61372
P50481	P70662
P50538	Q60520
P50540	Q62141
P50540	Q91ZW3
P50580	P17225
P50636	O09000
P50636	O88907
P50636	Q9Z0P7
P51141	A2A5Z6
P51141	P51141
P51141	Q08639
P51141	Q0PHV7
P51141	Q5S006
P51141	Q7TN08
P51141	Q80Z96
P51141	Q8R4A3
P51141	Q91ZD4
P51141	Q9D0N8
P51162	Q9CQW5
P51432	P29351
P51448	P54254
P51448	Q9QYH6
P51450	Q61221
P51450	Q6PDQ2
P51450	Q99JB6
P51480	E9Q616
P51480	G5E893
P51480	G5E8K8
P51480	P10923
P51480	P11499
P51480	P17751
P51480	P51410
P51480	P62082
P51480	P68369
P51480	Q3UB74
P51480	Q5U3K5
P51480	Q61116
P51480	Q62511
P51480	Q6R891
P51480	Q8R050
P51480	Q8VCI5
P51637	Q6PE92
P51667	Q01853
P51682	P06332
P51807	P35329
P51807	P39688
P51807	P47713
P51807	Q01815
P51807	Q62406
P51807	Q8CIH5
P51807	Q9Z1T1
P51859	P70677
P51860	P28656
P51860	Q02395
P51860	Q78ZA7
P51860	Q9CZY2
P51860	Q9Z180
P51860	Q9Z204
P51865	Q64280
P51906	P53702
P51943	P11440
P51943	P97377
P51944	P24860
P52189	O54824
P52293	P70168
P52480	A2AVQ5
P52480	P05125
P52480	P70677
P52482	Q6PDX6
P52482	Q9Z1K6
P52483	O35445
P52483	Q6NXM2
P52483	Q6PDX6
P52483	Q9Z1K6
P52623	Q8CIH5
P52633	B2RWS6
P52633	P52633
P52633	Q2EMV9
P52734	Q60598
P52795	O55033
P52795	P49769
P52800	O55033
P52800	P52795
P52800	P54763
P52912	Q6PDM2
P52946	P13405
P52946	Q6ZWS8
P52955	Q8BX46
P53347	Q00560
P53349	Q8CF89
P53349	Q9ESN9
P53566	P35639
P53566	P97875
P53568	O70191
P53568	P97875
P53569	Q9Z0P7
P53690	Q61483
P53702	O08863
P53702	P51906
P53702	Q60989
P53702	Q62210
P53762	P30561
P53762	P62509
P53762	P97481
P53762	Q61045
P53762	Q61079
P53776	Q9CXV0
P53808	P24610
P53808	Q9CQR4
P53810	E9QK04
P53810	P70211
P54099	P02340
P54099	P09671
P54116	P54116
P54254	P51448
P54254	Q8CHK4
P54320	P37889
P54320	Q05793
P54731	P25446
P54731	Q01853
P54763	O08543
P54763	P54763
P54763	Q5FWH6
P54841	P01101
P54841	Q8C092
P54843	Q91ZW3
P55012	Q9Z1W9
P55258	O55042
P55284	B2RU80
P55284	P35918
P55284	P41241
P55284	Q02248
P55284	Q61288
P55284	Q62312
P55284	Q64729
P55937	P26450
P55937	Q9QZE7
P56280	P56280
P56371	Q9JLQ0
P56389	P56389
P56477	E9QAP1
P56477	Q60591
P56477	Q62406
P56480	Q99KR7
P56480	Q9Z2A0
P56546	O88904
P56546	P56546
P56546	P63280
P56546	Q60980
P56546	Q9QZR5
P56565	P07091
P56581	P01101
P56581	P05627
P56873	P56873
P56873	P80313
P56873	Q7TN02
P56873	Q9D0C1
P56931	P13405
P56931	P17679
P57716	P0CG49
P57716	P0CG50
P57716	P14211
P57716	P62983
P57716	P62984
P57759	Q8BTI9
P57780	P39447
P57780	Q3TN34
P58281	Q5XJY4
P58462	P58462
P58462	Q9WVB3
P58771	Q8CBW3
P58774	P05627
P58929	E9Q6D6
P58929	Q3U0V6
P59158	Q61098
P59178	Q9CQJ4
P59240	Q8BP00
P59240	Q9QVP9
P59240	Q9QY53
P59240	Q9R0X5
P59598	P22605
P59598	P28700
P59823	Q64487
P60202	P60202
P60334	Q58A65
P60335	Q80UX7
P60335	Q99N13
P60335	Q9DCP6
P60335	Q9JLT4
P60335	Q9QWG2
P60605	P60605
P60710	P62962
P60710	Q8C115
P60710	Q9JJV2
P60762	Q80Y84
P60766	F6VR53
P60766	O88643
P60766	Q91W92
P60766	Q9JM96
P60766	Q9Z0X0
P60843	Q61823
P60867	Q9CR42
P60879	P60879
P60879	Q155P7
P60879	Q9Z266
P60898	P97875
P61092	P61092
P61168	Q60613
P61168	Q8R550
P61202	P23812
P61202	P28656
P61372	O55203
P61372	P50481
P61372	P70662
P61372	Q9CYZ8
P61458	A0A0N4SUS4
P61458	A0A0N4SUT9
P61458	A0A0N4SVG7
P61458	B2RRD7
P61458	E9PXP1
P61458	O35134
P61458	P22361
P61458	P27889
P61458	P61458
P61458	Q3U109
P61458	Q6PDQ2
P61458	Q80XK2
P61458	Q8CFD5
P61458	Q8VHS6
P61458	Q923B3
P61458	Q924Z4
P61458	Q925B0
P61458	Q9CWU2
P61458	Q9WTN3
P61458	Q9WV72
P61458	Q9WVB3
P61588	P70335
P61809	P09803
P61809	P49615
P61965	P20263
P61969	P61969
P61969	Q9CYZ8
P61979	P25911
P61979	P39688
P61979	Q03526
P61982	Q08460
P61982	Q5S006
P62071	O35904
P62071	P42337
P62071	Q9JHG7
P62137	Q9Z108
P62204	Q08460
P62204	Q99104
P62204	Q9DCB4
P62254	P0CG50
P62259	Q5S006
P62259	Q8C2B3
P62259	Q8CHQ0
P62259	Q9ERR1
P62270	P70677
P62270	P97864
P62322	Q9CQQ8
P62325	Q60809
P62325	Q9D8X5
P62331	O70161
P62331	Q58A65
P62331	Q9DCD5
P62331	Q9ESN9
P62492	P11627
P62492	P59016
P62509	O70343
P62509	P62509
P62509	Q8BW74
P62509	Q91ZR3
P62627	P62627
P62631	P35991
P62696	P62696
P62702	Q9CQT7
P62737	P70677
P62754	Q8JZQ9
P62806	P68433
P62806	Q8CDM1
P62806	Q9D2U9
P62812	Q9JMA1
P62827	Q6ZQE4
P62830	P23804
P62838	Q9QZR0
P62869	P83940
P62881	P50153
P62960	P02340
P62960	Q8K3Y3
P62962	P52633
P62965	P62965
P62983	O35226
P62983	O88522
P62983	P02340
P62983	P22723
P62983	P31750
P62983	P53349
P62983	P70196
P62983	Q04207
P62983	Q60803
P62983	Q60855
P62983	Q61483
P62983	Q62172
P62983	Q62406
P62983	Q6A009
P62983	Q7TN99
P62983	Q99K90
P62984	O35226
P62984	O88522
P62984	P02340
P62984	P22723
P62984	P31750
P62984	P53349
P62984	P70196
P62984	Q04207
P62984	Q60803
P62984	Q60855
P62984	Q61483
P62984	Q62172
P62984	Q62406
P62984	Q6A009
P62984	Q7TN99
P62984	Q99K90
P63001	P08228
P63001	P60766
P63001	Q62108
P63001	Q8BTI9
P63001	Q9QUI0
P63002	P39428
P63002	Q62233
P63002	Q9QZ28
P63005	Q155P7
P63005	Q9ERR1
P63011	Q91V27
P63015	O35845
P63015	P0DOV1
P63015	P0DOV2
P63015	P48432
P63015	Q6P3E7
P63015	Q99PQ2
P63015	Q9WTP9
P63017	O88447
P63028	P09405
P63034	P15920
P63044	O09044
P63044	P46097
P63044	P70452
P63058	P28700
P63058	Q5RIM6
P63058	Q8BK32
P63073	P62754
P63073	Q7TMB8
P63082	Q9Z2A0
P63085	P63085
P63085	Q60793
P63085	Q61097
P63085	Q80WQ6
P63085	Q8CDB0
P63087	Q99MY0
P63087	Q9Z108
P63089	E9PZQ0
P63101	O54737
P63101	Q5S006
P63101	Q921I6
P63101	Q9QWV4
P63141	O55242
P63141	Q60598
P63157	Q99PM3
P63157	Q9CXU1
P63158	Q8VIM0
P63158	Q9QUN7
P63166	O08900
P63166	P23804
P63166	P55098
P63166	Q505F1
P63166	Q61221
P63166	Q9WTN3
P63168	Q9CZA6
P63248	P05132
P63260	Q9Z2A0
P63271	O55201
P63280	A4QPD3
P63280	O08900
P63280	P15806
P63280	P22366
P63280	P25446
P63280	Q6ZQE4
P63280	Q7TN29
P63280	Q9QYB2
P63318	Q0PHV7
P63318	Q7TN08
P63328	Q9JJW5
P63330	Q76MZ3
P67871	Q7TN08
P68033	P35991
P68033	Q9Z2A0
P68037	Q9WUB0
P68037	Q9Z1K6
P68040	O88351
P68040	Q8C5D8
P68254	P11688
P68254	P23242
P68254	Q5S006
P68254	Q921I6
P68369	P35991
P68369	Q80TQ2
P68433	P68433
P68433	P83917
P68510	O35626
P68510	Q5S006
P68510	Q921I6
P68510	Q9WVS6
P69566	Q8VI56
P70168	A3KGF7
P70168	P62827
P70168	P70168
P70175	Q80TG9
P70175	Q8R4I7
P70178	Q9JM73
P70191	P57080
P70191	Q6PDM2
P70191	Q80WM9
P70196	I7GPR1
P70196	O35305
P70196	O88522
P70196	P17879
P70196	P35235
P70196	P57080
P70196	Q62227
P70196	Q62406
P70196	Q8C0E5
P70196	Q9EQY0
P70205	Q60751
P70207	O35464
P70210	Q9EPK5
P70211	Q9ERC8
P70217	P43267
P70217	Q60954
P70218	O89100
P70218	Q60631
P70218	Q99M51
P70232	P18052
P70232	Q9JMB8
P70255	P10078
P70257	Q02111
P70271	Q8CDC7
P70271	Q9D032
P70278	A2CG63
P70278	P07901
P70278	Q2YDW7
P70278	Q9DCA5
P70281	Q62029
P70288	E9QAG8
P70288	O35381
P70288	Q99N13
P70290	Q80VW5
P70304	Q03145
P70315	P05480
P70315	P08103
P70315	Q99M51
P70318	Q61656
P70318	Q9D0E1
P70321	Q60954
P70321	Q8R0B5
P70321	Q8VD35
P70326	Q9Z277
P70335	P61588
P70338	O54714
P70338	P02340
P70338	P15806
P70338	P17433
P70338	Q04207
P70338	Q8BGJ9
P70338	Q9QWF0
P70340	A2BH40
P70340	Q62073
P70340	Q9EQQ0
P70340	Q9JKB1
P70340	Q9R0G7
P70340	Q9Z1L8
P70345	O08734
P70345	Q07813
P70347	P39428
P70347	P39429
P70362	Q01853
P70365	P10085
P70365	P33242
P70365	Q8CBD1
P70371	Q6ZQJ5
P70372	Q9JIF7
P70396	P70321
P70396	P97875
P70396	Q07279
P70396	Q8VI67
P70396	Q9QYH6
P70396	Q9WUU6
P70399	A2A5Z6
P70414	Q80Z64
P70428	Q3UHN9
P70429	P70429
P70429	Q8C7M3
P70429	Q9JJV2
P70434	O88522
P70434	P70196
P70434	Q60680
P70434	Q8C006
P70436	Q8CF60
P70436	Q8VI67
P70441	Q9WVC8
P70447	Q02067
P70452	O09044
P70452	Q155P7
P70452	Q60770
P70452	Q8CBW3
P70460	Q9JJV2
P70662	A2AVQ5
P70662	E9Q6F9
P70662	O88609
P70662	P25801
P70662	P53776
P70662	P61375
P70662	P61969
P70662	P63006
P70662	Q149D4
P70662	Q3U4B1
P70662	Q8BZL8
P70662	Q8C9M8
P70662	Q8K5B9
P70662	Q91YQ3
P70662	Q921F2
P70662	Q924W9
P70662	Q9CXV0
P70662	Q9CYZ8
P70662	Q9D032
P70662	Q9D0P5
P70662	Q9DB42
P70662	Q9JKU8
P70662	Q9WUH2
P70662	Q9Z0S2
P70663	P04925
P70670	P47713
P70671	P70671
P70671	Q925T6
P70677	P11103
P70677	P23927
P70677	P42859
P70677	P62270
P70677	Q6PGL7
P70677	Q80XU3
P70689	Q8CBC4
P70700	P58929
P79621	P15806
P79621	P31245
P79621	Q07279
P79621	Q3U4B1
P79621	Q61545
P79621	Q9D032
P79621	Q9JL60
P79621	Q9WUL8
P80313	P56873
P80313	P80313
P80318	P80318
P80560	Q60673
P81122	P09405
P81122	Q8BHZ4
P81122	Q8CGK3
P81122	Q923E4
P81269	Q06507
P81270	O88974
P81270	P48432
P83917	P35991
P83917	P68433
P83917	P83917
P83917	Q64127
P83917	Q64700
P83917	Q9QWF0
P83940	P62869
P84089	P84089
P84096	Q8BTI9
P84244	Q62280
P84244	Q80V81
P97287	O54918
P97287	Q9JM54
P97288	P05480
P97302	O09106
P97302	O54790
P97302	P97302
P97302	Q00547
P97302	Q60974
P97303	O88282
P97303	P41183
P97303	P97303
P97303	Q3UQ17
P97303	Q8CIH5
P97310	P25206
P97310	P49717
P97310	P97310
P97310	P97311
P97310	Q52KC3
P97310	Q61881
P97311	P58929
P97311	P97311
P97311	Q61881
P97311	Q8CGW9
P97311	Q8R4E9
P97318	P12023
P97318	P61092
P97318	Q03157
P97333	P34152
P97333	P35969
P97333	P70207
P97333	P97333
P97333	Q61140
P97334	Q8CF60
P97357	P29037
P97358	P15806
P97358	P29037
P97360	G3X940
P97360	Q8BRB7
P97360	Q8CHK4
P97366	P63001
P97367	O35317
P97367	O35984
P97367	P15806
P97367	P41778
P97367	P63015
P97367	Q99NE9
P97368	P97875
P97368	Q62424
P97368	Q99NE9
P97369	O70145
P97369	Q6NZM9
P97377	P51943
P97377	Q61457
P97378	P97378
P97378	Q60837
P97382	Q9JIP4
P97393	P12367
P97401	P97401
P97427	P97427
P97430	P28798
P97432	P14873
P97432	Q8CIH5
P97433	P68510
P97438	D3YVF0
P97438	P18762
P97440	Q9CQT7
P97443	P02340
P97447	P31266
P97447	P70196
P97447	Q9WTQ5
P97454	P70217
P97454	Q62073
P97454	Q9EQQ0
P97454	Q9R0G7
P97458	Q02248
P97465	P00520
P97465	P97465
P97465	Q99M51
P97469	P30561
P97470	Q8C0Y0
P97471	O55144
P97471	P58462
P97471	Q8BUN5
P97473	Q61990
P97474	Q8CHK4
P97479	Q91ZQ5
P97479	Q9ES64
P97479	Q9QYE9
P97480	O55144
P97480	P08775
P97480	P09632
P97480	P70178
P97480	Q62231
P97481	P40338
P97481	P62509
P97481	Q61539
P97484	P01901
P97489	Q6PGF3
P97489	Q8R1B8
P97489	Q9Z2U2
P97496	P35235
P97496	Q3TKT4
P97496	Q61466
P97496	Q9Z277
P97742	P10417
P97760	Q6PI63
P97762	Q99PT3
P97762	Q9DA19
P97764	P46935
P97765	P46935
P97767	Q62231
P97767	Q62232
P97767	Q6PDG5
P97767	Q91WA6
P97767	Q9WUB0
P97769	Q924Z4
P97784	O08785
P97784	O35973
P97784	O54943
P97784	Q2VPD4
P97784	Q8BFZ4
P97784	Q8C4V4
P97784	Q91WT9
P97784	Q9D103
P97784	Q9JMK2
P97784	Q9R1X4
P97784	Q9WTL8
P97792	P60710
P97801	G3X8R0
P97801	P27048
P97801	P97801
P97801	Q60992
P97814	P00520
P97814	P70315
P97864	P11103
P97864	P51859
P97864	P52480
P97864	P61290
P97864	P62270
P97864	P62737
P97864	Q60989
P97864	Q6PGL7
P97864	Q7TPV4
P97875	P61216
P97875	P97875
P97929	O35719
P97929	Q08297
P98078	O35625
P98078	P09055
P98078	P09581
P98078	P12023
P98078	P42567
P98078	Q60631
P98078	Q60838
P98078	Q60902
P98078	Q61062
P98078	Q62073
P98078	Q8C5D8
P98078	Q8R550
P98078	Q9CR95
P98083	P35831
P98083	Q60631
P98083	Q62312
P98083	Q64729
P98083	Q9JKF1
P98083	Q9QYY0
P98083	Q9Z179
P98156	P97318
P98192	Q8BWG8
P98192	Q9R1Z7
P99026	A2AVQ5
P99029	Q9Z0P7
Q00175	P42227
Q00288	P50220
Q00288	Q6ZPI0
Q00322	E9Q6D6
Q00322	P13405
Q00322	Q3THK3
Q00322	Q3U0V6
Q00322	Q924Z4
Q00417	Q7TN08
Q00420	Q00422
Q00422	Q00420
Q00560	O35718
Q00560	P97378
Q00560	Q00560
Q00609	Q00609
Q00612	P05125
Q00623	Q08460
Q00731	P35918
Q00731	Q00731
Q00780	Q00780
Q00899	Q8CG47
Q00977	Q8CBC4
Q00993	P33896
Q01063	P34971
Q01063	Q80Z38
Q01097	P11798
Q01097	P17426
Q01097	P35438
Q01097	Q62108
Q01097	Q80YE7
Q01097	Q8R4I7
Q01097	Q9JI91
Q01147	O08686
Q01147	O35845
Q01147	Q06507
Q01147	Q32M00
Q01147	Q60974
Q01279	P01132
Q01279	P22682
Q01279	Q8C253
Q01320	Q8BWG8
Q01320	Q9ERU9
Q01320	Q9Z2A0
Q01705	P31266
Q01705	Q01705
Q01705	Q8C863
Q01768	E9PZQ0
Q01768	O88351
Q01768	P09055
Q01768	P26450
Q01768	P47811
Q01768	Q99N72
Q01815	O54824
Q01822	P70662
Q01853	E9Q401
Q01853	P0CG49
Q01853	P0CG50
Q01853	P62983
Q01853	P62984
Q01853	Q01853
Q01853	Q3UZP4
Q01853	Q80UU1
Q01853	Q9CZ44
Q01853	Q9JI78
Q01887	Q61081
Q02067	P15806
Q02067	P70447
Q02067	Q61286
Q02067	Q64279
Q02248	E9QQ93
Q02248	P09803
Q02248	P26450
Q02248	P27782
Q02248	P42859
Q02248	P45481
Q02248	Q02248
Q02248	Q04207
Q02248	Q0PHV7
Q02248	Q7TN08
Q02248	Q811P8
Q02248	Q9DBG9
Q02248	Q9WVG6
Q02257	P26231
Q02384	Q60631
Q02384	Q8CIH5
Q02395	P70351
Q02395	Q921E6
Q02591	O09106
Q02591	O88895
Q02591	Q9JKD8
Q02650	P45481
Q02650	Q8BX09
Q02853	Q02853
Q02858	Q03160
Q02858	Q60631
Q02956	Q99NH2
Q03137	P00520
Q03137	P52800
Q03137	P54763
Q03137	Q03137
Q03137	Q03145
Q03137	Q60992
Q03137	Q91V57
Q03137	Q921Q7
Q03142	O35082
Q03146	P11416
Q03157	P12023
Q03160	P34152
Q03160	Q9JI18
Q03172	P63085
Q03267	O54714
Q03267	P63166
Q03267	P63280
Q03267	Q9Z1F9
Q03347	P46938
Q03347	Q99JB6
Q03347	Q9JKD8
Q03358	O55176
Q03358	P25233
Q03358	Q62504
Q03358	Q9QYH6
Q03385	E9Q5G7
Q03717	Q80ZD8
Q03719	O54824
Q03963	P35569
Q04207	A0A0N4SUS4
Q04207	A0A0N4SUT9
Q04207	A0A0N4SVG7
Q04207	B2RRD7
Q04207	B2RWS6
Q04207	E9PXP1
Q04207	O09106
Q04207	O54714
Q04207	O54910
Q04207	P15314
Q04207	P25799
Q04207	P45481
Q04207	Q02248
Q04207	Q04207
Q04207	Q06219
Q04207	Q3U109
Q04207	Q60778
Q04207	Q62227
Q04207	Q6PGF3
Q04207	Q80XK2
Q04207	Q8BXP5
Q04207	Q8R5C8
Q04207	Q924Z4
Q04207	Q9CWU2
Q04207	Q9CWW7
Q04207	Q9D504
Q04207	Q9WTK5
Q04207	Q9WTN3
Q04207	Q9Z1E3
Q04211	Q9D8X5
Q04735	D3YUJ3
Q04735	P61809
Q04735	Q8BGU5
Q04742	P17433
Q04742	P22361
Q04742	P41133
Q04742	P48281
Q04742	P70434
Q04742	P97367
Q04742	Q61169
Q04742	Q61179
Q04742	Q8R0B5
Q04742	Q8R4I4
Q04742	Q8VD35
Q04742	Q91VY5
Q04742	Q99PM3
Q04742	Q9QX99
Q04742	Q9WTP3
Q04742	Q9WUU6
Q04744	P50220
Q04744	Q8VCD5
Q04744	Q9ER75
Q04744	Q9QX99
Q04863	Q04863
Q04863	Q9Z1E3
Q04886	P63013
Q04886	Q06348
Q04886	Q08624
Q04887	P33242
Q04998	P27040
Q04998	Q04998
Q05144	O88643
Q05144	P29477
Q05769	Q02819
Q05769	Q05769
Q05769	Q9Z0J4
Q05793	P10493
Q05BA5	A2A468
Q05BA5	O35973
Q05BA5	O54915
Q05BA5	P10085
Q05BA5	P29351
Q05BA5	P70325
Q05BA5	Q05BA5
Q05BA5	Q8BKT3
Q05BA5	Q8CBD1
Q05BA5	Q8CFD5
Q05BA5	Q8R1B8
Q05BA5	Q8VDQ8
Q05BA5	Q921X6
Q05BA5	Q923E4
Q05BA5	Q924Z4
Q05BA5	Q9D0D5
Q05BA5	Q9WUU6
Q05BA5	Q9WVB3
Q05BA5	Q9Z148
Q05BA5	V9GX74
Q06219	Q04207
Q06219	Q8CFE3
Q06335	P04925
Q06335	P12023
Q06335	Q03157
Q06348	P0DOV1
Q06348	P0DOV2
Q06507	O35345
Q06507	O54784
Q06507	P01101
Q06507	P05627
Q06831	P23772
Q06890	P04925
Q06890	P23475
Q06890	Q06890
Q06985	Q69ZI1
Q06986	Q69ZI1
Q07113	P18242
Q07174	Q8CDD8
Q07230	A1L358
Q07230	Q6PD29
Q07230	Q8VE28
Q07243	Q924Z4
Q07243	Q9JI90
Q07243	Q9QZB6
Q07279	E9Q6D6
Q07279	E9QAP1
Q07279	O35973
Q07279	O54941
Q07279	P0CG49
Q07279	P0CG50
Q07279	P41230
Q07279	P62983
Q07279	P62984
Q07279	P63271
Q07279	P70271
Q07279	P70318
Q07279	Q02085
Q07279	Q07230
Q07279	Q3U0V6
Q07279	Q60862
Q07279	Q61103
Q07279	Q61187
Q07279	Q62240
Q07279	Q6IQX8
Q07279	Q6PDQ2
Q07279	Q7TPV4
Q07279	Q811S7
Q07279	Q8BHZ4
Q07279	Q8BKT3
Q07279	Q8BLR9
Q07279	Q8CFD5
Q07279	Q8CFI7
Q07279	Q8JZN2
Q07279	Q8VDQ8
Q07279	Q8VE42
Q07279	Q8VHI4
Q07279	Q91VY5
Q07279	Q91X20
Q07279	Q91YQ3
Q07279	Q922V4
Q07279	Q923E4
Q07279	Q99K53
Q07279	Q99MY8
Q07279	Q99NE9
Q07279	Q9CPV7
Q07279	Q9CQ39
Q07279	Q9D071
Q07279	Q9D0D5
Q07279	Q9D738
Q07279	Q9D7M8
Q07279	Q9D902
Q07279	Q9JHD1
Q07279	Q9JI90
Q07279	Q9JIB4
Q07279	Q9QXN3
Q07279	Q9R164
Q07279	Q9WV74
Q07279	Q9WVB3
Q07279	Q9Z148
Q07279	Q9Z2U2
Q07424	Q64317
Q07424	Q8R4I4
Q07440	O08734
Q07440	P70444
Q07802	Q8K4J2
Q07813	P10417
Q07813	Q9EQY0
Q07813	Q9ERH6
Q07832	Q8K1R7
Q07832	Q9Z1N5
Q07916	P42227
Q07916	Q8BJI4
Q08024	G3X9W7
Q08297	Q8K396
Q08369	P97471
Q08369	Q8BUN5
Q08369	Q925J9
Q08460	O88952
Q08460	P27573
Q08460	P61982
Q08460	P62204
Q08460	P63260
Q08460	P84075
Q08460	Q00623
Q08460	Q8CAE3
Q08501	P42230
Q08509	P62484
Q08509	Q08509
Q08509	Q8BKX1
Q08624	O35317
Q08624	P25425
Q08624	P41778
Q08624	Q8BX22
Q08639	Q8R0K9
Q08775	P13405
Q08775	Q08024
Q08775	Q64700
Q08775	Q6NZM9
Q08775	Q9D030
Q08874	E9PUZ5
Q08874	F8VPR5
Q08874	O54714
Q08874	P63015
Q08874	Q02248
Q09014	P97369
Q09014	Q8CBW3
Q09163	Q62406
Q09XV5	O35344
Q09XV5	Q61164
Q0PHV7	P30999
Q0PHV7	Q0PHV7
Q0PHV7	Q7TN08
Q0PHV7	Q91ZD4
Q0PHV7	Q9DC28
Q0QWG9	P05480
Q0QWG9	P62962
Q0QWG9	Q61625
Q0QWG9	Q9JJV2
Q0VGT2	O88907
Q0VGT2	P61957
Q155P7	P13405
Q155P7	P60879
Q155P7	P70452
Q155P7	Q64700
Q155P7	Q64701
Q155P7	Q9CZA6
Q18PE0	Q18PE0
Q18PE0	Q61006
Q1H9T6	Q8VIM5
Q1PSW8	Q9Z179
Q2EMV9	P06745
Q2TBA3	Q2TBA3
Q2VPD4	B2RWS6
Q2WF71	Q811D0
Q31093	Q31093
Q31099	P28078
Q31099	Q31621
Q31125	P11835
Q31125	P25118
Q31142	Q31142
Q31163	P14439
Q31163	Q31163
Q31184	P14434
Q31615	Q31615
Q32MD9	P00520
Q3LHH8	E9Q6I0
Q3TBT3	Q91VN6
Q3TBT3	Q9WUN2
Q3TCJ1	O70191
Q3TCJ1	P0CG50
Q3TCJ1	P15066
Q3TCJ1	P46737
Q3TCJ1	Q06507
Q3TE40	O88708
Q3TE40	P25206
Q3TE40	P49717
Q3TE40	P97310
Q3TE40	Q52KC3
Q3TE40	Q60862
Q3TE40	Q9WUV0
Q3TE40	Q9Z1N2
Q3THE2	P0CG49
Q3THE2	P0CG50
Q3THE2	P62983
Q3THE2	P62984
Q3THG9	Q62406
Q3TKT4	P13405
Q3TKT4	P97496
Q3TKT4	Q6P1E1
Q3TKT4	Q6P9Z1
Q3TKT4	Q8VEK3
Q3TKT4	Q9Z277
Q3TN34	P57780
Q3TNS5	Q5EE38
Q3TTA7	P13379
Q3TTA7	P22366
Q3TVC7	Q9JKN5
Q3TVI8	Q60680
Q3TXX3	Q9WV55
Q3U0V2	Q9QWL7
Q3U1F9	P41241
Q3U1N2	Q3UQ14
Q3U1N2	Q8CGW9
Q3U1N2	Q9JM73
Q3U4B1	Q6PDQ2
Q3U4B1	Q6PGF3
Q3U4B1	Q8R3P9
Q3U4B1	Q99NE9
Q3U4B1	Q9CXV0
Q3U4B1	Q9WVB3
Q3U5D9	P54843
Q3U7R1	P14142
Q3U7R1	P49615
Q3UA06	P15209
Q3UA06	Q3UA06
Q3UA06	Q4G5Y1
Q3UA06	Q6PDQ2
Q3UA06	Q9D6I7
Q3UA06	Q9D6X5
Q3UA06	Q9DCX1
Q3UDK1	P39428
Q3UDK1	P70196
Q3UHC7	P97318
Q3UHD9	P70211
Q3UHD9	Q8K1S3
Q3UHD9	Q925T6
Q3UHF7	Q9WUL8
Q3UIW5	Q6PDN3
Q3UJB0	Q8BUN5
Q3UJF1	Q99PE2
Q3UJF1	Q9WU42
Q3UKC1	P98083
Q3UKC1	Q60769
Q3ULA2	O54918
Q3ULA2	P42859
Q3ULA2	Q02248
Q3ULA2	Q9WTX5
Q3ULM2	P30561
Q3ULM2	Q61079
Q3UMR5	Q3UMR5
Q3UMR5	Q810S1
Q3UMU9	P51859
Q3UND0	Q3UND0
Q3UND0	Q9JL25
Q3UNW5	Q61539
Q3UP36	P06800
Q3UQ14	A0A087WPU8
Q3UQ14	Q6P3E7
Q3UQ14	Q8CFI7
Q3UQ14	Q8VHS6
Q3UQ14	Q920Q8
Q3UQ14	Q924A2
Q3UQ14	Q924Z4
Q3UQ14	Q9R0X0
Q3UQ14	Q9WVB3
Q3UQ14	Q9Z2U2
Q3UQ17	Q3UQ17
Q3URD3	P39429
Q3URD3	Q8BH43
Q3URK3	Q60520
Q3UVX5	P04925
Q3UYC8	Q8R3Z5
Q3UZ64	Q8K120
Q3V0Q6	Q9WTX7
Q3V157	Q3V157
Q4JIM5	P54763
Q4KL25	Q99PJ1
Q4VAC9	O35305
Q4VGL6	Q3UJB9
Q4ZGD8	P14873
Q4ZGD8	Q9QYR6
Q501J6	P46938
Q505B8	B5KM66
Q505F1	P63280
Q505F1	Q60953
Q505F1	Q8CBD1
Q505F1	Q9JHD1
Q52KC3	Q61881
Q571K4	O88597
Q571K4	P0CG49
Q571K4	P0CG50
Q571K4	P62983
Q571K4	P62984
Q58A65	P62331
Q58FA4	Q58FA4
Q58FA4	Q61221
Q5DU14	P26450
Q5DU14	P28660
Q5DW34	Q07279
Q5EBH1	O88904
Q5EBH1	P23804
Q5EBH1	Q5EBH1
Q5EBH1	Q61411
Q5EBH1	Q9JI11
Q5EE38	Q8K2X3
Q5EE38	Q91WC1
Q5F289	Q8R317
Q5FW52	P48678
Q5FW96	Q5FW96
Q5FWH6	P54763
Q5HZG6	O70172
Q5MJS3	Q8CID3
Q5NCY0	Q8BLG0
Q5PR73	Q8BTI9
Q5RIM6	O88907
Q5RIM6	P63280
Q5RIM6	Q60520
Q5RJI5	P98083
Q5RL51	Q9CR09
Q5S006	P31324
Q5S006	P60766
Q5S006	P61982
Q5S006	P62259
Q5S006	P63101
Q5S006	P68254
Q5S006	P68510
Q5S006	Q5S006
Q5S006	Q8K1M6
Q5S006	Q91YQ1
Q5S006	Q9CQV8
Q5S006	Q9ES28
Q5SNZ0	P31750
Q5SSZ7	Q5SSZ7
Q5SSZ7	Q8BFU0
Q5SUF2	P35235
Q5SUF2	P35991
Q5SUG4	P51637
Q5SUQ9	Q80V81
Q5SV77	Q80WJ1
Q5SW45	Q2MV57
Q5SW45	Q3UK10
Q5SW45	Q8K3E5
Q5SWT9	P56546
Q5SWU0	P56546
Q5SXC4	Q8BL80
Q5SXI5	Q62315
Q5U413	A0A5E3
Q5U4C1	P0DM65
Q5U5Q9	P0CG49
Q5U5Q9	P0CG50
Q5U5Q9	P62983
Q5U5Q9	P62984
Q5U5Q9	P63280
Q5UE59	Q8CJ40
Q60520	P02340
Q60520	P48432
Q60520	P50540
Q60520	Q1EHW4
Q60592	Q61235
Q60598	P33434
Q60598	Q08460
Q60598	Q8K1I7
Q60598	Q91YD9
Q60598	Q9JKY5
Q60629	P35546
Q60631	B9EKI5
Q60631	P04925
Q60631	P54763
Q60631	P98083
Q60631	Q52KG5
Q60631	Q60992
Q60631	Q62245
Q60631	Q91XC0
Q60631	Q9EP98
Q60631	Q9QYY0
Q60641	O70343
Q60644	B2RY21
Q60644	O88559
Q60662	Q9D3V5
Q60662	Q9DBC7
Q60664	A3KGF7
Q60668	Q9WUL8
Q60676	P63330
Q60680	B7ZNY0
Q60680	O88351
Q60680	O88522
Q60680	P02535
Q60680	P45481
Q60680	P70434
Q60680	Q3UKC1
Q60680	Q6KAU8
Q60680	Q8BP22
Q60722	P20067
Q60722	P41133
Q60722	P41136
Q60722	P70662
Q60722	Q60867
Q60749	P39688
Q60749	P60764
Q60749	Q60631
Q60749	Q60749
Q60749	Q8VH51
Q60749	Q91W39
Q60749	Q99M51
Q60749	Q9D902
Q60749	Q9R226
Q60751	Q60760
Q60760	P05532
Q60760	P46935
Q60760	Q99N57
Q60769	P39429
Q60769	Q60769
Q60769	Q60855
Q60769	Q6PGF3
Q60769	Q9CYZ8
Q60769	Q9D032
Q60770	O09044
Q60770	P63044
Q60770	P70452
Q60771	P07141
Q60771	Q9DCK3
Q60775	Q9JM73
Q60778	Q04207
Q60778	Q9Z1K6
Q60787	O54957
Q60795	Q3ULA2
Q60795	Q8BWG8
Q60795	Q924Z4
Q60795	Q9Z2X8
Q60803	O35305
Q60803	P20334
Q60803	P47741
Q60803	Q8VCF0
Q60809	Q04211
Q60809	Q8VEG6
Q60823	Q8K4K2
Q60825	O70433
Q60825	P07901
Q60825	P70441
Q60825	Q60592
Q60825	Q80YW5
Q60825	Q91XB7
Q60825	Q9JHL1
Q60837	P97378
Q60838	Q0PHV7
Q60838	Q60838
Q60838	Q80Z96
Q60838	Q8CIH5
Q60838	Q8R3R8
Q60838	Q91ZD4
Q60841	Q924X6
Q60848	O88508
Q60848	P30658
Q60855	P25118
Q60855	P33896
Q60855	Q07174
Q60855	Q3U0V2
Q60855	Q8C863
Q60855	Q99J83
Q60855	Q9QZL0
Q60862	O88708
Q60862	P49717
Q60862	P97310
Q60862	P97311
Q60862	Q52KC3
Q60862	Q60862
Q60862	Q61881
Q60862	Q8R2X8
Q60862	Q9JK30
Q60862	Q9WUV0
Q60865	P05125
Q60867	Q9WUI0
Q60875	Q61097
Q60876	P63073
Q60876	Q8BMB3
Q60898	Q03145
Q60898	Q9CZA6
Q60899	P15806
Q60902	Q9Z0R4
Q60925	P97875
Q60925	Q8BW74
Q60925	Q9JIB4
Q60925	Q9JLC6
Q60929	P70257
Q60930	O08734
Q60932	P11881
Q60943	Q7TNI7
Q60952	Q8BH43
Q60953	O35625
Q60953	Q07231
Q60953	Q505F1
Q60953	Q60953
Q60953	Q6PGF3
Q60953	Q80UW8
Q60953	Q8VCD5
Q60953	Q9D0D5
Q60953	Q9D902
Q60954	O35317
Q60954	O35984
Q60954	O70477
Q60954	P09021
Q60954	P09631
Q60954	P09632
Q60954	P10284
Q60954	P31245
Q60954	P31310
Q60954	P50207
Q60954	P70217
Q60954	Q62424
Q60954	Q99NE9
Q60954	Q9QX99
Q60960	P62827
Q60960	Q06507
Q60973	O09106
Q60974	Q01147
Q60974	Q02650
Q60974	Q923E4
Q60979	Q60953
Q60989	P63001
Q60989	Q62406
Q60994	Q9DCM2
Q60I23	Q6PDQ2
Q61003	P27870
Q61003	Q60787
Q61006	P46460
Q61006	P51141
Q61006	Q18PE0
Q61010	Q01705
Q61026	E9PUR6
Q61026	P10085
Q61026	P19091
Q61026	P19785
Q61026	P28738
Q61026	Q61768
Q61026	Q8CBD1
Q61026	Q9WVG6
Q61039	Q99N72
Q61053	Q8CBW3
Q61062	O35625
Q61062	Q0PHV7
Q61062	Q7TN08
Q61062	Q80Z96
Q61062	Q8R4A3
Q61062	Q91ZD4
Q61066	P70414
Q61066	Q80Z64
Q61074	P35991
Q61084	P70196
Q61084	Q9WVS7
Q61085	Q9ESG2
Q61088	Q62108
Q61088	Q80U87
Q61088	Q811D0
Q61088	Q91XM9
Q61090	Q62108
Q61090	Q811D0
Q61090	Q91XM9
Q61091	Q61091
Q61091	Q8BH60
Q61097	P31938
Q61097	P63101
Q61097	Q60875
Q61115	P24860
Q61127	Q6PDQ2
Q61140	P05480
Q61140	P34152
Q61140	P39688
Q61140	Q9QXJ2
Q61140	Q9QY53
Q61146	P39447
Q61147	Q9JHI9
Q61160	O35732
Q61160	P25446
Q61160	Q5S006
Q61160	Q60855
Q61160	Q8C0J2
Q61164	Q09XV5
Q61164	Q8BN78
Q61165	P25118
Q61169	P0DOV1
Q61169	P0DOV2
Q61169	P50220
Q61169	Q925J9
Q61179	O35664
Q61179	P25425
Q61179	P40645
Q61179	Q9QXJ2
Q61179	Q9WUI0
Q61187	Q61187
Q61188	Q02395
Q61188	Q62315
Q61188	Q80U70
Q61188	Q9CWR8
Q61188	Q9WUL8
Q61193	P08556
Q61193	P32883
Q61205	P63005
Q61206	O35685
Q61207	P12367
Q61210	P53564
Q61210	Q61210
Q61214	Q61214
Q61214	Q923E4
Q61214	Q9JHG6
Q61216	Q61216
Q61221	O55144
Q61221	P01108
Q61221	P40338
Q61221	P53762
Q61221	P63166
Q61221	Q6NY15
Q61233	P47811
Q61233	Q61233
Q61233	Q99N72
Q61233	Q9DAW9
Q61234	Q60631
Q61234	Q9JJV9
Q61249	O70583
Q61249	P63330
Q61285	Q61285
Q61286	P20067
Q61286	P41136
Q61286	Q64279
Q61288	Q62312
Q61315	Q60838
Q61315	Q9WV60
Q61321	O08575
Q61321	O70546
Q61327	O55042
Q61337	Q64373
Q61357	Q62448
Q61411	P26450
Q61411	Q99N57
Q61412	P63015
Q61457	P97377
Q61457	Q99N72
Q61466	B1AXD8
Q61466	P02340
Q61469	Q61469
Q61474	Q61474
Q61474	Q91YI6
Q61483	Q9WVQ1
Q61491	E9PZQ0
Q61491	P25118
Q61501	A0A087WPU8
Q61501	O09106
Q61501	O89090
Q61501	P13405
Q61501	P25233
Q61501	Q9CPR8
Q61502	A2BH40
Q61502	Q64163
Q61502	Q6ZPV5
Q61508	P16297
Q61526	P70424
Q61527	Q62108
Q61532	P49138
Q61539	P53762
Q61539	Q61066
Q61539	Q9R190
Q61545	G3X8Y3
Q61545	O35134
Q61545	O35973
Q61545	P20263
Q61545	P22227
Q61545	P51450
Q61545	Q02395
Q61545	Q62240
Q61545	Q62315
Q61545	Q6NZI9
Q61545	Q6P3E7
Q61545	Q6P9Y7
Q61545	Q6PDQ2
Q61545	Q6PGB8
Q61545	Q6PGF3
Q61545	Q80X44
Q61545	Q811S7
Q61545	Q8BP86
Q61545	Q8BY02
Q61545	Q8C7B8
Q61545	Q8CFD5
Q61545	Q8CFI7
Q61545	Q8K119
Q61545	Q8VCG9
Q61545	Q8VDQ8
Q61545	Q8VE28
Q61545	Q8VE42
Q61545	Q8VIG1
Q61545	Q91ZU1
Q61545	Q921X6
Q61545	Q924Z4
Q61545	Q99K53
Q61545	Q99LJ2
Q61545	Q99LL5
Q61545	Q99MY8
Q61545	Q99PE2
Q61545	Q9CPV7
Q61545	Q9D071
Q61545	Q9D504
Q61545	Q9D6K9
Q61545	Q9DCD2
Q61545	Q9EP71
Q61545	Q9QXN3
Q61545	Q9R0X0
Q61545	Q9R164
Q61545	Q9WTN3
Q61545	Q9WVB3
Q61545	Q9Z1B8
Q61545	Q9Z1L3
Q61545	Q9Z2D6
Q61545	Q9Z2U2
Q61545	V9GX74
Q61553	Q9QY40
Q61572	Q8BTM8
Q61598	P35279
Q61599	P60764
Q61602	B1AUF1
Q61625	Q4ACU6
Q61625	Q80Z38
Q61625	Q8BH60
Q61627	Q8BH60
Q61644	P10637
Q61644	Q61644
Q61644	Q99JB8
Q61644	Q9WVE8
Q61645	Q61645
Q61645	Q8R1B8
Q61656	O88351
Q61656	P35991
Q61656	Q3TKT4
Q61660	P48379
Q61666	P24610
Q61666	P47239
Q61666	P84244
Q61666	Q8BLH7
Q61686	Q61686
Q61686	Q62318
Q61686	Q64700
Q61687	Q9Z2D6
Q61699	P09411
Q61699	P18760
Q61699	P68369
Q61699	Q02053
Q61699	Q61205
Q61699	Q9D0M5
Q61699	Q9QYC0
Q61735	O88643
Q61735	P97797
Q61738	Q6A028
Q61738	Q8C2K1
Q61751	Q62318
Q61751	Q8VIM5
Q61751	Q9CYZ8
Q61768	O35685
Q61771	P28741
Q61771	Q8VI40
Q61781	Q3U0V2
Q61810	P04202
Q61817	O88351
Q61823	P60843
Q61827	P97302
Q61827	Q07279
Q61827	Q60795
Q61827	Q9QZB6
Q61830	P35991
Q61831	Q9ESN9
Q61845	Q9DAK2
Q61878	Q505D9
Q61881	P46414
Q61909	P20067
Q61909	P41139
Q61909	P70660
Q61909	Q60867
Q61909	Q62282
Q61937	P09405
Q61937	P62843
Q61937	P62960
Q61937	Q61858
Q61937	Q6ZWU9
Q61937	Q9CPP0
Q61983	P70441
Q61983	Q60592
Q61990	P26450
Q61990	Q8VHX6
Q62018	Q04683
Q62048	O08528
Q62073	P39429
Q62073	P70196
Q62073	Q60665
Q62073	Q99K90
Q62074	Q9Z101
Q62077	P35546
Q62077	P48356
Q62077	Q62468
Q62083	P20444
Q62083	P54763
Q62083	Q62083
Q62093	P08775
Q62093	Q8R409
Q62093	Q99J95
Q62093	Q9ESU6
Q62101	P62835
Q62108	O35382
Q62108	P11798
Q62108	P12023
Q62108	P23804
Q62108	P35436
Q62108	P35438
Q62108	P46460
Q62108	P63001
Q62108	P63085
Q62108	P70175
Q62108	Q01097
Q62108	Q01098
Q62108	Q03391
Q62108	Q61423
Q62108	Q80TG9
Q62108	Q8BKX1
Q62108	Q8R550
Q62108	Q924X6
Q62108	Q925I8
Q62120	P14753
Q62120	P20491
Q62120	P26955
Q62120	Q62120
Q62120	Q91ZM2
Q62132	P63085
Q62141	P42128
Q62141	P50538
Q62145	P35279
Q62151	P63158
Q62158	Q8CIH5
Q62165	Q05793
Q62165	Q62165
Q62172	Q8C863
Q62179	Q62108
Q62179	Q9Z0G0
Q62191	Q91VN6
Q62210	P39429
Q62219	O55144
Q62219	Q68FF6
Q62219	Q8C115
Q62219	Q99N72
Q62227	A0A0A6YY04
Q62227	P70196
Q62227	Q923E4
Q62227	Q9WUU6
Q62231	Q6PDG5
Q62231	Q9QYB2
Q62233	P63002
Q62233	P70288
Q62233	Q62441
Q62240	Q8CDC7
Q62245	P98083
Q62261	Q8CIH5
Q62276	Q99N72
Q62282	Q8BZL8
Q62282	Q924W9
Q62296	Q80V24
Q62296	Q99NC0
Q62296	Q9EPK5
Q62296	Q9JKD8
Q62312	P98083
Q62312	Q64729
Q62312	Q8C253
Q62315	P70351
Q62315	Q61188
Q62315	Q80U70
Q62315	Q921E6
Q62318	P12813
Q62318	P83917
Q62318	Q61686
Q62318	Q8BIQ3
Q62318	Q9DCC5
Q62318	Q9JL10
Q62348	Q62348
Q62348	Q9QZE7
Q62386	Q60943
Q62386	Q8K4C2
Q62393	Q62393
Q62406	P22366
Q62406	P37889
Q62406	P70196
Q62418	P52734
Q62418	Q5NBX1
Q62419	O08908
Q62419	P35545
Q62419	Q9QUN3
Q62419	Q9WU78
Q62420	O35626
Q62420	Q62420
Q62420	Q9WVS6
Q62421	Q8K4B0
Q62424	P97367
Q62424	P97368
Q62424	P97454
Q62424	Q60954
Q62432	P97471
Q62432	Q9R0G7
Q62432	Q9Z1L8
Q62440	Q62440
Q62440	Q9JHE6
Q62441	Q9QZ28
Q62448	P26450
Q62468	Q9QZ83
Q62504	F8VPM9
Q62523	Q03173
Q63844	Q60793
Q63870	Q63870
Q63932	O08605
Q63932	Q8CDB0
Q63932	Q99M51
Q63934	Q07916
Q63934	Q9WUI0
Q63953	Q62120
Q63961	P09055
Q63961	P11688
Q63961	Q61288
Q63961	Q62312
Q63961	Q64729
Q63ZW7	E9PUM9
Q63ZW7	E9Q5N7
Q63ZW7	O88932
Q63ZW7	P35436
Q63ZW7	Q01097
Q63ZW7	Q01098
Q63ZW7	Q03391
Q63ZW7	Q66T02
Q63ZW7	Q69ZK9
Q63ZW7	Q8K371
Q63ZW7	Q8VHG2
Q63ZW7	Q9D4H4
Q64010	P00520
Q64010	Q60631
Q64028	P23798
Q64028	P49138
Q64028	Q64028
Q64028	Q8K214
Q64028	Q9QWH1
Q640L3	Q64096
Q640N1	P58929
Q640N1	Q07279
Q640N3	Q9Z0R4
Q64104	O88895
Q64104	Q9Z2V6
Q64127	P11416
Q64127	P19785
Q64127	P28700
Q64127	P48281
Q64127	P83917
Q64127	Q00175
Q64127	Q61686
Q64127	Q9JL10
Q64131	Q9JKD8
Q64143	P42337
Q64143	Q8BTI9
Q64151	Q62108
Q64151	Q9Z0G0
Q64151	Q9Z2H7
Q64163	P62259
Q64163	Q61502
Q64249	E9PY55
Q64249	Q8BK32
Q64261	P42227
Q64279	P15806
Q64279	Q61039
Q64279	Q61286
Q64279	Q64279
Q64281	P29351
Q64287	O55144
Q64288	Q64288
Q64288	Q9R224
Q64288	Q9WTZ8
Q64317	P35582
Q64317	P40764
Q64317	P70321
Q64317	Q8VI67
Q64317	Q9JKD8
Q64317	Q9WUI0
Q64318	O88712
Q64318	P56546
Q64321	Q61029
Q64321	Q8CIH5
Q64329	Q64329
Q64337	P0CG50
Q64337	Q61084
Q64337	Q64337
Q64337	Q9WVS7
Q64337	Q9Z2X8
Q64339	Q9WTV6
Q64345	P11798
Q64355	P25911
Q64364	E9Q616
Q64364	G5E893
Q64364	G5E8K8
Q64364	P10923
Q64364	P11499
Q64364	P17751
Q64364	P51410
Q64364	P62082
Q64364	P68369
Q64364	Q3UB74
Q64364	Q5U3K5
Q64364	Q61116
Q64364	Q62511
Q64364	Q6R891
Q64364	Q8R050
Q64364	Q8VCI5
Q64368	O08788
Q64368	O88485
Q64368	P63168
Q64368	Q64368
Q64369	Q61990
Q64373	O54918
Q64373	P63028
Q64373	Q61337
Q64378	P27671
Q64389	P01872
Q64444	O88343
Q64487	P59823
Q64511	Q9WVE0
Q64512	O88665
Q64512	Q64512
Q64519	O88351
Q64669	Q64669
Q64700	Q155P7
Q64701	O55144
Q64701	Q155P7
Q64702	Q64702
Q64705	P42225
Q64705	Q6PDN3
Q64727	P26039
Q64727	P26231
Q64727	Q61210
Q64729	P98083
Q64729	Q7TN08
Q66JV6	P49717
Q66JV6	Q52KC3
Q68FD7	Q8QZS3
Q68FF6	O70172
Q68FF6	Q60680
Q68FF6	Q6P8X1
Q69ZI1	P61092
Q69ZI1	Q9QXN0
Q69ZI1	Q9Z2F7
Q69ZK0	Q8CBW3
Q6A078	O08788
Q6A078	P28741
Q6A078	P48725
Q6A078	Q61043
Q6A078	Q7TSH4
Q6A078	Q8BP00
Q6A078	Q8CG48
Q6A078	Q9CU62
Q6A078	Q9JI70
Q6A078	Q9R0L6
Q6AXB7	P42669
Q6AXH7	Q80U70
Q6B9Z0	Q3U4N7
Q6DIC0	Q9Z277
Q6DID7	P17553
Q6DID7	P22725
Q6F5E0	P09055
Q6IMB1	P25976
Q6IQX7	Q9WVS6
Q6J1H4	Q6J1H4
Q6K1E7	Q80WJ1
Q6KAR6	P35438
Q6NS57	Q80W82
Q6NS65	Q99JA4
Q6NVF9	P11798
Q6NXH3	P11798
Q6NXM2	P39428
Q6NY15	Q61221
Q6NZJ6	P23116
Q6NZJ6	P60843
Q6NZJ6	P63073
Q6NZJ6	Q8JZQ9
Q6NZJ6	Q9QZD9
Q6NZN1	Q9QYY0
Q6NZQ4	P32114
Q6NZQ4	P63015
Q6NZQ4	P70399
Q6NZQ4	Q00288
Q6NZQ4	Q02650
Q6NZQ4	Q99L02
Q6P1E1	P39429
Q6P1G0	P35235
Q6P3E7	B2RR24
Q6P549	Q9R1Z8
Q6P5D4	P63085
Q6P5E6	Q8CBC4
Q6P6L5	Q6PDN3
Q6P8Z1	O88196
Q6P8Z1	Q99KW9
Q6P8Z1	Q9CYS6
Q6P9R2	P55012
Q6P9R2	Q924N4
Q6P9Z1	B1AXD8
Q6P9Z1	P10085
Q6P9Z1	Q3TKT4
Q6P9Z1	Q9Z277
Q6PA06	O88848
Q6PAL8	P35279
Q6PB44	O89100
Q6PCW7	P28653
Q6PCW7	P29699
Q6PCW7	P62137
Q6PCW7	Q9CY24
Q6PD03	Q9CQT7
Q6PD21	Q6PD21
Q6PD29	A1L358
Q6PD29	Q8BI67
Q6PDG5	Q3TKT4
Q6PDM1	Q80TJ1
Q6PDM1	Q8R3H9
Q6PDM1	Q9CQJ2
Q6PDM1	Q9D1P2
Q6PDM2	P70318
Q6PDM2	Q8R409
Q6PDQ2	Q61127
Q6PDQ2	Q80V81
Q6PDX6	Q62141
Q6PDZ2	P29037
Q6PE92	P51637
Q6PFR5	Q6PFR5
Q6PFR5	Q8BL97
Q6PFR5	Q9D1X0
Q6PFX7	P26450
Q6PFX7	P28660
Q6PGF3	Q921F2
Q6PHU5	P11152
Q6PHU5	P15209
Q6PHU5	Q8CJ26
Q6PI63	Q99NE9
Q6PIC6	Q9Z1L4
Q6PIE5	O35157
Q6PIP8	Q6PIP8
Q6PIR9	Q6PIR9
Q6PJA7	I6L978
Q6PR54	Q61066
Q6Q477	Q9JJV9
Q6Q899	P22682
Q6QI06	Q9JLN9
Q6R3M4	P0CG50
Q6R5P0	Q6R5P0
Q6R5P0	Q9JLF7
Q6R891	O54828
Q6R891	P42866
Q6R891	P62881
Q6SJ95	Q5HZG4
Q6SR47	Q6SR48
Q6T264	Q6P3E7
Q6T264	Q9WVB3
Q6VN19	P62827
Q6VUP9	Q6VUP9
Q6W4W7	P60766
Q6W4W7	P63001
Q6W4W7	P83917
Q6W4W7	Q61686
Q6W4W7	Q9DCC5
Q6W4W7	Q9QUI0
Q6WKZ7	P16092
Q6WKZ7	P98078
Q6XZL8	Q9ERL0
Q6XZL8	Q9QWV9
Q6Y7W8	Q60760
Q6YIY0	P42227
Q6ZPF3	P15379
Q6ZPV5	O35846
Q6ZPV5	O88895
Q6ZPV5	P42227
Q6ZPV5	P97496
Q6ZPV5	Q61501
Q6ZPV5	Q8CHK4
Q6ZPV5	Q8R0K9
Q6ZQ08	P09055
Q6ZQ08	P60322
Q6ZQ38	Q9QXJ2
Q6ZQ88	P22091
Q6ZQJ5	O35144
Q6ZQJ5	P70371
Q6ZWQ0	Q8BJS4
Q6ZWR6	Q6ZWR6
Q6ZWR6	Q9JJF2
Q6ZWS8	P52946
Q70FJ1	P12367
Q70FJ1	Q9QZE7
Q70IV5	A2ASS6
Q70KF4	Q70KF4
Q70KF4	Q91WZ8
Q76KF0	P00520
Q76MZ3	O88351
Q78DX7	P29351
Q78PY7	Q80WJ7
Q78T54	Q99L60
Q78YP7	Q78YP7
Q78ZA7	Q9WVS7
Q7M6U3	Q7M6U3
Q7M6U3	Q8BT07
Q7TMH0	P47811
Q7TMK6	O08908
Q7TMY8	P42227
Q7TN08	P30999
Q7TN08	Q0PHV7
Q7TN08	Q60722
Q7TN08	Q60838
Q7TN08	Q7TN08
Q7TN08	Q80Z96
Q7TN08	Q9WV60
Q7TN99	P0CG49
Q7TN99	P0CG50
Q7TN99	P62983
Q7TN99	P62984
Q7TN99	Q923S6
Q7TNC4	E9PZQ0
Q7TNF4	Q8CJ40
Q7TNH6	Q9QY53
Q7TNI7	Q8K4C2
Q7TNK1	Q9D032
Q7TNP2	Q8K1S3
Q7TPD6	Q8R509
Q7TPV4	P12813
Q7TQF1	P55821
Q7TQF7	O08529
Q7TQF7	P39053
Q7TQF7	P39054
Q7TQF7	Q8BZ98
Q7TS55	O35714
Q7TSC1	Q8CBW3
Q7TSD4	Q8C878
Q7TSG1	E9PV87
Q7TSH3	Q9WVS7
Q7TSH4	P42227
Q7TSH4	P62204
Q7TSH4	Q9CZA6
Q7TSI0	Q8BI67
Q7TSI1	Q03526
Q7TSY8	Q80VJ8
Q7TSZ8	Q80Z64
Q7TSZ8	Q8BX22
Q80SY4	P47811
Q80T14	Q925T6
Q80TG9	Q62108
Q80TG9	Q811D0
Q80TH2	P70424
Q80TQ2	Q8C863
Q80TQ2	Q9Z2F6
Q80TQ2	Q9Z2V5
Q80TS3	Q8BLU0
Q80TV8	Q922J3
Q80TV8	Q9Z0H8
Q80U63	Q3TVW5
Q80U63	Q9Z2B5
Q80U70	Q3UXZ9
Q80U70	Q9Z1E3
Q80U72	Q149L7
Q80UE6	P69744
Q80UE6	Q9Z1W9
Q80UF7	P35991
Q80UF7	Q3TTA7
Q80UF7	Q9WUN2
Q80UG2	O35464
Q80UI5	Q9QYY0
Q80UK0	Q60680
Q80UK0	Q80TJ1
Q80UL9	P97792
Q80UP3	P13405
Q80US8	B2RS19
Q80US8	Q8C4Y1
Q80UU1	Q01853
Q80UY2	P35991
Q80V62	P0CG50
Q80V81	O35127
Q80V81	P13609
Q80V81	P68040
Q80V81	Q3TEA0
Q80V81	Q60605
Q80V81	Q62011
Q80V81	Q62318
Q80V81	Q6PDQ2
Q80V81	Q9CQ00
Q80V81	Q9D6J6
Q80V81	Q9DBH5
Q80V81	Q9Z1P6
Q80V91	Q80V91
Q80VC8	Q8VI56
Q80VC8	Q9JI18
Q80VH0	P39428
Q80VH0	P42227
Q80VJ8	Q8BJS4
Q80VJ8	Q9D666
Q80VP1	P0CG49
Q80VP1	P0CG50
Q80VP1	P62983
Q80VP1	P62984
Q80VP1	Q9Z0R4
Q80VW5	Q8C031
Q80VW5	Q9R0X5
Q80VX2	Q9ES57
Q80W80	A0A0A0MQA2
Q80W82	A0A0A0MQA2
Q80WE4	Q60680
Q80WJ1	Q5SV77
Q80WJ1	Q6K1E7
Q80WJ1	Q9R109
Q80WJ7	Q78PY7
Q80WQ6	P01132
Q80X44	O88597
Q80X90	Q6PDN3
Q80XA6	Q9QWY8
Q80XB4	A2AUC9
Q80XB4	O88990
Q80XB4	Q8VHX6
Q80XU3	P97864
Q80Y14	P70392
Q80Y84	P60762
Q80YE4	Q9Z1W9
Q80YE7	Q01097
Q80YV3	Q8R4I1
Q80YV3	Q9JHD2
Q80Z37	P0DOV1
Q80Z37	P0DOV2
Q80Z64	P20263
Q80Z64	P48432
Q80Z64	P63085
Q80Z64	P70414
Q80Z64	Q61066
Q80Z64	Q63844
Q80Z64	Q6PR54
Q80Z64	Q8BX22
Q80Z64	Q99LI5
Q80Z96	Q0PHV7
Q80Z96	Q60838
Q80ZD8	Q03717
Q80ZE3	Q6Q899
Q80ZI1	B9EKI3
Q80ZI6	P39428
Q810A7	Q9Z2A0
Q810S1	Q810S1
Q810U4	Q62108
Q810U4	Q811D0
Q811D0	Q62108
Q811D0	Q80TG9
Q811L5	P39428
Q811S7	P58929
Q811S7	Q91X45
Q811S7	Q9JL60
Q8BFZ4	O54943
Q8BFZ4	P97784
Q8BFZ4	Q9R194
Q8BFZ9	P49769
Q8BG13	P61979
Q8BG26	O35526
Q8BG26	Q61768
Q8BG26	Q9ERD7
Q8BG40	Q9WV86
Q8BG51	P39428
Q8BGC0	Q62093
Q8BGD9	Q9QZD9
Q8BGJ0	Q80W03
Q8BGJ0	Q8BGJ0
Q8BGJ9	O35658
Q8BGJ9	P70338
Q8BGT0	O70496
Q8BGT1	Q80TS3
Q8BGV8	Q8K1M6
Q8BGW0	Q60631
Q8BH06	Q60943
Q8BH06	Q8K4C5
Q8BH07	O88848
Q8BH16	P62204
Q8BH43	Q3URD3
Q8BH43	Q8CBW3
Q8BH60	O88597
Q8BH75	B9EKS2
Q8BH75	O54941
Q8BH75	P02088
Q8BH75	Q3U0K8
Q8BH75	Q5RIM6
Q8BH75	Q6PGN3
Q8BH75	Q80U30
Q8BH75	Q8BGB7
Q8BH75	Q8BIH0
Q8BH75	Q8BK32
Q8BH75	Q921L5
Q8BH75	Q99P72
Q8BH75	Q9JM93
Q8BHC1	Q8CGB3
Q8BHD0	Q8CGB3
Q8BHL5	Q8BUR4
Q8BID6	Q9CQT7
Q8BIF2	Q61221
Q8BIJ7	P42225
Q8BIZ6	B2RWS6
Q8BJS4	A2A8U2
Q8BJS4	P39428
Q8BJS4	Q6ZWQ0
Q8BJW7	Q8VDF2
Q8BJW7	Q91ZJ0
Q8BK32	O88907
Q8BK32	P11416
Q8BK32	P63280
Q8BK32	Q60520
Q8BKC5	P70315
Q8BKC5	Q61210
Q8BKH7	P31750
Q8BKT8	P27870
Q8BKX1	O08808
Q8BL48	Q61210
Q8BL66	Q62406
Q8BL66	Q69Z37
Q8BL97	P61979
Q8BL97	Q6PFR5
Q8BLC3	P49582
Q8BLR7	Q8BLR7
Q8BM54	Q3THE2
Q8BM65	P26450
Q8BM65	P28660
Q8BMB3	Q8BMB3
Q8BMG1	Q9JKK8
Q8BMT5	P04925
Q8BN78	P30999
Q8BN78	Q8BN78
Q8BNW9	Q9R0M6
Q8BNX1	P56818
Q8BP00	O89019
Q8BP00	Q8CG73
Q8BP22	Q60680
Q8BP27	Q8K3D3
Q8BP47	Q6NZM9
Q8BP71	P39688
Q8BP71	Q6PGF3
Q8BP71	Q8BP71
Q8BP92	E9PZQ0
Q8BP92	P47811
Q8BP92	Q7TNL3
Q8BP92	Q9QXJ2
Q8BPQ7	Q9R0M6
Q8BPU7	Q8BUR4
Q8BPU7	Q8C3J5
Q8BQ30	P39428
Q8BQ46	Q9DBC7
Q8BQC3	P29391
Q8BR65	Q60520
Q8BR65	Q62141
Q8BR65	Q8BR65
Q8BRG6	P39087
Q8BRH4	Q9JL19
Q8BRW2	Q8BRW2
Q8BSI9	Q8BSI9
Q8BSK8	Q8JZQ9
Q8BSQ9	Q3TKT4
Q8BSY0	Q91V41
Q8BT07	Q61187
Q8BT07	Q7M6U3
Q8BT07	Q9WU78
Q8BTI9	P60766
Q8BTI9	P63001
Q8BTI9	Q61411
Q8BTI9	Q91Z61
Q8BTM8	Q8CIH5
Q8BTX4	P35991
Q8BTZ7	O88351
Q8BU11	Q6PDN3
Q8BU11	Q8CIH5
Q8BUN3	Q60591
Q8BUN5	A5D6P2
Q8BUN5	G3XA13
Q8BUN5	O35625
Q8BUN5	P08121
Q8BUN5	P10085
Q8BUN5	P48281
Q8BUN5	P51141
Q8BUN5	Q01149
Q8BUN5	Q3U962
Q8BUN5	Q80TH2
Q8BUN5	Q8BTS0
Q8BUR4	Q8R105
Q8BUV3	Q9QUR7
Q8BVF7	P49769
Q8BVF7	P57716
Q8BVM4	P54369
Q8BVM4	Q9R109
Q8BVM9	Q99N13
Q8BVR6	Q80V81
Q8BVZ5	P14719
Q8BW74	Q8R1B8
Q8BW74	Q9WTL8
Q8BW93	P06684
Q8BWF2	P10417
Q8BX22	O70230
Q8BX22	P20263
Q8BX22	Q7TSZ8
Q8BX22	Q9R190
Q8BX65	Q62406
Q8BXF8	Q9DAD6
Q8BXS2	Q8BXS2
Q8BXV2	P39429
Q8BY78	Q62231
Q8BYP3	Q9Z207
Q8BYZ7	Q8BUR4
Q8BZ98	O08539
Q8BZ98	Q7TQF7
Q8BZQ7	A2AM57
Q8C031	Q80VW5
Q8C050	P11416
Q8C052	O35718
Q8C0C0	Q8BUR4
Q8C0D7	P12849
Q8C0D7	P22605
Q8C0D7	P42225
Q8C0D7	Q9DBC7
Q8C0J2	Q8C0J2
Q8C0J2	Q9ESK9
Q8C0V1	O70576
Q8C0V1	P70371
Q8C0V1	Q9D666
Q8C115	P60710
Q8C115	Q62219
Q8C115	Q8C115
Q8C180	Q62074
Q8C196	Q8K2C6
Q8C1B1	Q80VC9
Q8C253	A2A468
Q8C253	O88907
Q8C253	Q05BA5
Q8C253	Q64693
Q8C253	Q8C253
Q8C253	Q8CGB3
Q8C253	Q9QXA1
Q8C253	Q9Z0P7
Q8C2B3	P62259
Q8C2B3	Q60929
Q8C2B3	Q64104
Q8C2B3	Q8CFN5
Q8C2G0	P39688
Q8C2K5	A2AVQ5
Q8C3I8	P09055
Q8C3J5	Q99N72
Q8C3V4	A0A087WSP5
Q8C3V4	P42227
Q8C3V4	Q8C3V4
Q8C3W2	Q9QYH6
Q8C4V4	O54943
Q8C4V4	P97784
Q8C4V4	Q9R194
Q8C4Y1	B2RS19
Q8C4Y1	P03966
Q8C4Y1	P50540
Q8C4Y1	Q8C4Y1
Q8C551	Q08297
Q8C5D8	P08152
Q8C5D8	P25799
Q8C5D8	P68040
Q8C5D8	P98078
Q8C5D8	Q8CEJ2
Q8C5W4	Q99N13
Q8C669	P15307
Q8C6B2	Q9QUI0
Q8C6E0	Q9WUL7
Q8C796	O09106
Q8C7M3	Q7TME0
Q8C863	O35732
Q8C863	O89091
Q8C863	P47806
Q8C863	Q01705
Q8C863	Q3UKC1
Q8C863	Q80TQ2
Q8C886	P39428
Q8C9T5	P39688
Q8C9X3	P56546
Q8CA92	Q8K119
Q8CA92	Q9JK91
Q8CB77	Q64732
Q8CBC4	P28229
Q8CBC4	Q6P5E6
Q8CBD1	P11416
Q8CBD1	Q505F1
Q8CBI8	P62204
Q8CBW3	B1AZP2
Q8CBW3	P11798
Q8CBW3	P70452
Q8CBW3	Q02384
Q8CBW3	Q08509
Q8CBW3	Q9Z207
Q8CCE9	O35381
Q8CCE9	P58929
Q8CCE9	Q07279
Q8CCI5	O35730
Q8CCI5	P30658
Q8CCI5	Q9CQJ4
Q8CCS6	Q6PDN3
Q8CCV5	Q8CCV5
Q8CD76	Q61768
Q8CD76	Q8CJ40
Q8CD76	Q9EPL2
Q8CDB0	P39429
Q8CDB0	P63085
Q8CDB0	Q9WUI1
Q8CDD8	Q8CDD8
Q8CDG1	Q99MV1
Q8CDG1	Q9JMB7
Q8CDG3	Q62406
Q8CDI2	Q9JJ66
Q8CDM1	Q8CDM1
Q8CE90	Q91Y86
Q8CF60	Q8R0T2
Q8CF89	P53349
Q8CF89	Q62073
Q8CF89	Q91YI4
Q8CFA1	Q8K4B2
Q8CFC2	Q62141
Q8CFD5	Q3U4B1
Q8CFD5	Q9D032
Q8CFD5	Q9EPK5
Q8CFE3	P22091
Q8CFE3	Q06219
Q8CFI2	P0CG50
Q8CFN5	Q05BA5
Q8CFN5	Q61026
Q8CFN5	Q9Z1Y4
Q8CFP6	P63085
Q8CFU8	Q91VR7
Q8CG19	P63001
Q8CG48	Q8BH43
Q8CG73	P59240
Q8CG79	P35569
Q8CG79	Q9EQ32
Q8CGB3	Q8BHC1
Q8CGE9	P04627
Q8CGE9	Q63932
Q8CGE9	Q6PFD5
Q8CGN5	Q9DBL9
Q8CGW9	A0A087WPU8
Q8CGW9	Q920Q8
Q8CGW9	Q99LJ2
Q8CH18	P47811
Q8CH72	O88907
Q8CH72	P01108
Q8CH72	Q8C5D8
Q8CH72	Q8CJG1
Q8CH72	Q9JM05
Q8CHE4	Q99MP8
Q8CHG3	Q8BH43
Q8CHG7	Q02248
Q8CHH9	Q9QXJ2
Q8CHK4	P54254
Q8CHT1	Q03137
Q8CHW5	P35276
Q8CHW5	P35283
Q8CHW5	P35290
Q8CHW5	P61027
Q8CHW5	P63011
Q8CHW5	Q8VHP8
Q8CHW5	Q8VHQ4
Q8CHW5	Q923S9
Q8CI15	Q99JW2
Q8CIE6	Q99N72
Q8CIG8	P25322
Q8CIG8	Q9CY57
Q8CIH5	P25911
Q8CIH5	P39688
Q8CIH5	Q62158
Q8CII8	O88448
Q8CII8	Q91W40
Q8CII8	Q9DBS5
Q8CIN4	P42859
Q8CIS0	O08908
Q8CIS0	P39428
Q8CIS0	Q62073
Q8CIW6	P26361
Q8CIW6	P70441
Q8CIW6	Q9WVC8
Q8CJ26	Q6PHU5
Q8CJ40	P63085
Q8CJ40	Q91YS4
Q8CJ40	Q9DAX9
Q8CJG0	Q4VGL6
Q8JZL0	Q8VIM5
Q8JZQ9	P60843
Q8JZQ9	P63073
Q8K0E1	O35305
Q8K1I7	P70315
Q8K1I7	Q91YD9
Q8K1I7	Q99M51
Q8K1I7	Q9JHG7
Q8K1M3	Q8K1M3
Q8K1M6	Q8K1M6
Q8K1S3	Q7TNP2
Q8K1S3	Q8K1S3
Q8K1Z8	B2RS19
Q8K1Z8	Q8C4Y1
Q8K209	P08121
Q8K214	O88513
Q8K214	Q8K214
Q8K221	Q60680
Q8K284	Q80W03
Q8K2C6	Q8C196
Q8K2C9	Q3UJD6
Q8K2T8	Q9Z2A0
Q8K2V6	P35979
Q8K2V6	P52482
Q8K2V6	P62827
Q8K2V6	Q7TMY8
Q8K2V6	Q9JIH2
Q8K368	P0CG50
Q8K368	Q80V62
Q8K382	Q62420
Q8K382	Q9Z0R4
Q8K3D3	Q8BP27
Q8K3F6	P14824
Q8K3F6	Q8CGY8
Q8K3G9	Q91VH1
Q8K3G9	Q9QXJ2
Q8K3K8	Q9WUN2
Q8K3V1	Q9CQP2
Q8K3X6	P39428
Q8K3Y3	P23249
Q8K3Y3	P32067
Q8K3Y3	Q45KJ6
Q8K3Y3	Q8VHK9
Q8K3Y3	Q9JIK5
Q8K3Y3	Q9JKB3
Q8K400	O09044
Q8K400	P70452
Q8K425	Q8K425
Q8K443	Q9CZW5
Q8K450	Q9JLI7
Q8K4B0	Q62233
Q8K4B0	Q62421
Q8K4B2	P70196
Q8K4C5	Q60943
Q8K4G5	Q62108
Q8K4K2	Q06507
Q8K4K4	P28033
Q8K4Q0	Q9JLN9
Q8K4S1	E9Q401
Q8K4V6	P15209
Q8K4V6	P35235
Q8K5B8	O35317
Q8K5B8	O35984
Q8K5B8	P41778
Q8K5B8	P50220
Q8K5B8	P63015
Q8K5B8	Q6ZPI0
Q8K5B8	Q9Z205
Q8MHR8	P01899
Q8MHR8	Q8MHR8
Q8N7N6	P70191
Q8N7N6	P70196
Q8N7N6	Q9R0T8
Q8QZS3	Q68FD7
Q8QZX2	Q60680
Q8R081	Q6PDN3
Q8R086	O35305
Q8R0B5	O55144
Q8R0B5	Q8CGW9
Q8R0B5	Q91X45
Q8R0B5	Q9WUI0
Q8R0C3	P26361
Q8R0H9	Q8CBC4
Q8R0T2	O88643
Q8R0T2	Q8BI67
Q8R0W1	O08785
Q8R0W6	P46935
Q8R104	P47738
Q8R104	P58281
Q8R145	Q8R145
Q8R182	P46935
Q8R1P4	Q99J83
Q8R1P4	Q9CQY1
Q8R1P4	Q9D906
Q8R2M7	E9PZQ0
Q8R326	Q9CZX2
Q8R332	P39428
Q8R332	P63085
Q8R3P2	Q01705
Q8R3P2	Q80V91
Q8R3Q0	O55196
Q8R409	Q62093
Q8R409	Q6PDM2
Q8R418	P97473
Q8R435	O54824
Q8R4A3	O09106
Q8R4A3	O35927
Q8R4A3	P30999
Q8R4A3	P51141
Q8R4A3	P63318
Q8R4A3	P67871
Q8R4A3	Q0PHV7
Q8R4A3	Q60737
Q8R4A3	Q60838
Q8R4A3	Q64729
Q8R4A3	Q7TN08
Q8R4A3	Q80Z96
Q8R4A3	Q8R4A3
Q8R4A3	Q91ZD4
Q8R4A3	Q9WV60
Q8R4E9	O88513
Q8R4E9	Q60862
Q8R4E9	Q6PDN3
Q8R4F1	Q99PH1
Q8R4G0	Q8C031
Q8R4I1	Q8BU36
Q8R4I1	Q8VE65
Q8R4I4	P62340
Q8R4I4	Q8R4I4
Q8R4I7	Q62108
Q8R4I7	Q91XM9
Q8R4K2	P0CG49
Q8R4K2	P0CG50
Q8R4K2	P22366
Q8R4K2	P62983
Q8R4K2	P62984
Q8R4K2	Q8K4B2
Q8R4T1	P25233
Q8R4X3	P25911
Q8R4X3	P25918
Q8R509	Q7TPD6
Q8R527	Q91W92
Q8R527	Q9JM96
Q8R550	P39054
Q8R550	Q60631
Q8R550	Q8CIH5
Q8R550	Q9QUN3
Q8R550	Q9WU78
Q8R5A3	P26039
Q8R5B8	Q9QYY0
Q8R5C8	P63085
Q8R5H6	P26450
Q8R5H6	Q925I8
Q8R5J9	O88848
Q8R5M8	Q8R5M8
Q8VBU8	Q9QUN3
Q8VBX6	O35054
Q8VCB2	P11416
Q8VCB2	P28700
Q8VCC8	E9Q9K8
Q8VCD5	Q04207
Q8VCF0	Q60803
Q8VCF0	Q8R4B8
Q8VCI5	P51480
Q8VCL5	Q99104
Q8VCN6	Q2YFS2
Q8VCN6	Q2YFS3
Q8VCQ3	O88597
Q8VCQ3	Q8CDJ3
Q8VCR8	Q8CFN5
Q8VCY6	P39428
Q8VD04	A3KBF5
Q8VD04	P53349
Q8VD35	O55144
Q8VD35	Q8CGW9
Q8VD35	Q91X45
Q8VD35	Q9WUI0
Q8VD37	P35564
Q8VD62	O55196
Q8VDD9	P35569
Q8VDD9	P81122
Q8VDK3	Q9EST8
Q8VDL9	O88712
Q8VDN2	P11881
Q8VDP3	Q91VJ4
Q8VDQ8	Q91X45
Q8VDQ8	Q9D032
Q8VDQ8	Q9JJ66
Q8VDQ8	Q9QZL0
Q8VDQ8	Q9R1K5
Q8VDV8	Q99N72
Q8VDZ4	O08858
Q8VE28	A2A5Z6
Q8VE28	P51141
Q8VE28	Q60838
Q8VE28	Q61062
Q8VE28	Q6PD29
Q8VE28	Q6PGF3
Q8VE47	Q9CQT7
Q8VE62	P11798
Q8VEE4	P49717
Q8VEE4	P97310
Q8VEE4	P97311
Q8VEE4	Q60862
Q8VEE4	Q61881
Q8VEE4	Q66JV6
Q8VEF1	Q8BSK8
Q8VEG6	Q6ZQ08
Q8VEG6	Q8K0V4
Q8VEG6	Q9JKY0
Q8VEK3	P61979
Q8VEK3	Q3TKT4
Q8VH31	O09061
Q8VH51	P63001
Q8VHG2	Q63ZW7
Q8VHH8	Q9JIP3
Q8VHP8	P83940
Q8VHQ2	P48356
Q8VHR5	P12813
Q8VHS6	Q6PDK0
Q8VHS6	Q80W03
Q8VHY0	Q925T6
Q8VI36	P05480
Q8VI36	P70196
Q8VI36	Q64010
Q8VI36	Q64727
Q8VI40	P28741
Q8VI40	Q61771
Q8VI47	Q8VI47
Q8VI56	Q9ERE7
Q8VI67	Q9JJF3
Q8VIM0	P63158
Q8VIM0	Q9Z1R2
Q8VIM5	P10085
Q8VIM5	Q8BLR9
Q8WTY4	Q9CQM9
Q91V17	Q7TMM9
Q91V27	Q99104
Q91V27	Q99P58
Q91V27	Q9ERI2
Q91V35	Q91V35
Q91V57	Q03137
Q91V79	Q6PCW7
Q91V89	P62806
Q91V89	Q8R0S4
Q91V92	Q8CFN5
Q91VE6	P97864
Q91VJ1	Q91VJ1
Q91VJ1	Q9EPB4
Q91VJ2	O54943
Q91VJ4	Q8VDP3
Q91VK1	O88351
Q91VM5	Q6PDN3
Q91VN0	O35625
Q91VN1	E9Q6F9
Q91VN1	Q149D4
Q91VN1	Q8C9M8
Q91VN6	Q62191
Q91VN7	B2RS19
Q91VN7	Q8C4Y1
Q91VR8	Q8BH43
Q91VW5	Q8BH43
Q91VZ6	Q7TN29
Q91WA3	Q02591
Q91WA6	P39429
Q91WC1	O89023
Q91WK7	P25911
Q91WK7	Q03526
Q91WZ8	O70585
Q91WZ8	Q70KF4
Q91WZ8	Q8BH43
Q91X20	P70323
Q91X20	Q8BX09
Q91X43	O08641
Q91XB0	Q91XB0
Q91XH6	O70404
Q91XL2	O08919
Q91XL2	Q91XL2
Q91XL2	Q9QZS3
Q91XM9	Q62108
Q91XU0	Q91XU0
Q91Y44	Q91Y44
Q91Y44	Q99J95
Q91Y86	P16951
Q91Y86	P47713
Q91YD5	P48026
Q91YD9	P05622
Q91YD9	P09055
Q91YE8	Q9CQV8
Q91YI4	Q01063
Q91YI4	Q7TMA4
Q91YQ5	Q9Z2A0
Q91YS4	Q8CJ40
Q91YU6	P39429
Q91YV0	P48985
Q91Z31	Q6PDN3
Q91Z31	Q9WVE0
Q91Z61	Q8BTI9
Q91ZD1	P13297
Q91ZD1	P47242
Q91ZD4	Q60838
Q91ZD4	Q7TN08
Q91ZE9	P10417
Q91ZE9	P70345
Q91ZE9	P97287
Q91ZE9	Q07440
Q91ZE9	Q64373
Q91ZE9	Q9D0M5
Q91ZK0	Q91X20
Q91ZK0	Q91ZK0
Q91ZK4	P80206
Q91ZM2	Q62120
Q91ZM9	P35546
Q91ZP3	Q8K120
Q91ZR3	P62509
Q91ZW3	P17918
Q91ZW3	Q01147
Q91ZW3	Q91YE5
Q91ZX7	P97318
Q91ZX7	Q62108
Q91ZX7	Q8C142
Q91ZX7	Q9ERE9
Q91ZX7	Q9WVI9
Q91ZZ2	Q60631
Q920A7	E9PZQ0
Q920A9	P39429
Q920D3	P39688
Q920D3	Q9CQI9
Q920G9	Q64163
Q920Q2	E9QJU6
Q920Q2	P0CG50
Q920Q2	P17918
Q920Q2	Q6R3M4
Q920Q2	Q9JJN0
Q920Q2	Q9QUG2
Q920Q8	Q61210
Q921C5	P35279
Q921C5	Q9JL25
Q921D8	Q921D8
Q921E6	O09106
Q921E6	Q61188
Q921E6	Q62315
Q921F2	Q921F2
Q921G9	P28229
Q921I1	O55196
Q921I6	O70456
Q921I6	P61982
Q921I6	P62259
Q921I6	Q9CQV8
Q921K2	P27790
Q921L5	P39429
Q921M4	Q9Z2W1
Q922J3	O08808
Q922Q8	P22366
Q922U2	Q8K0Y2
Q922X9	A2APF3
Q922Y0	Q923E4
Q922Y1	Q01853
Q922Y1	Q9JI78
Q923E4	B2RR24
Q923E4	O08785
Q923E4	O35253
Q923E4	P22361
Q923E4	P22605
Q923E4	P35569
Q923E4	P37238
Q923E4	Q5SWU9
Q923E4	Q61214
Q923E4	Q64221
Q923E4	Q922Y0
Q923E4	Q9CSN1
Q923E4	Q9R1Y5
Q923E4	Q9WTN3
Q923J1	A2A432
Q923J1	P60710
Q923J1	Q3U1J4
Q923J1	Q8VDD5
Q923J1	Q923J1
Q923S6	Q7TN99
Q923Z4	P15806
Q924A0	P39428
Q924A0	Q9R1Y5
Q924M7	Q9CR42
Q924N4	Q9Z1W9
Q924S6	O88907
Q924S6	Q924S6
Q924T7	P39428
Q924W6	P83917
Q924W6	Q61686
Q924W6	Q924W6
Q924W6	Q9DCC5
Q924X6	P35438
Q924X6	P97318
Q924X6	Q60841
Q924X6	Q62108
Q924X6	Q9ERE9
Q924X6	Q9WVI9
Q924X9	P12367
Q924Z4	B2RR24
Q924Z4	Q3U4B1
Q924Z4	Q6T264
Q924Z4	Q80W03
Q924Z4	Q8CDC7
Q924Z4	Q9EPK5
Q925B0	O54784
Q925E0	Q9JI18
Q925F4	Q01853
Q925H0	E9PUZ5
Q925H0	Q62083
Q925H1	Q9QZS2
Q925I8	Q62108
Q925T4	O88907
Q925T4	Q8C5D8
Q925T4	Q8CGW9
Q925T4	Q99M51
Q925T4	Q9JM05
Q925T6	P23819
Q925T6	P48281
Q925T6	P54763
Q93092	Q93092
Q96DY5	Q3UQ17
Q99104	Q9Z0J4
Q99J45	Q99J45
Q99J45	Q9QWV4
Q99J83	Q61160
Q99J83	Q6VNB8
Q99J83	Q8C0J2
Q99J83	Q9CQY1
Q99J95	P01108
Q99J95	P08775
Q99J95	P39429
Q99J95	Q62093
Q99JB0	Q8BMI0
Q99JB6	Q60591
Q99JB8	Q99JB8
Q99JG3	Q60680
Q99JI6	Q5EBH1
Q99JP0	Q02111
Q99JR8	B1AXD8
Q99JX1	P61216
Q99JX7	P14873
Q99JX7	Q9QYR6
Q99JY1	P26450
Q99JY1	Q9EQ32
Q99JY9	Q60598
Q99JZ7	Q60631
Q99JZ7	Q8CIH5
Q99K43	P47713
Q99K43	P97797
Q99K48	A2AVQ5
Q99K48	P63001
Q99K53	Q9JL60
Q99K90	E9Q2B2
Q99K90	E9Q9Y2
Q99K90	P0CG49
Q99K90	P0CG50
Q99K90	P62983
Q99K90	P62984
Q99K90	Q5RIM6
Q99K90	Q62073
Q99K90	Q8BK32
Q99KE3	P35546
Q99KF9	Q9D8T7
Q99KJ0	Q9WUD1
Q99KK1	Q8R5J9
Q99KK2	Q99KK2
Q99KR7	O35658
Q99KR7	P11881
Q99KX1	P42227
Q99KY4	P97378
Q99KY4	Q8CI32
Q99LC4	I6L991
Q99LC8	Q01338
Q99LC8	Q925K6
Q99LC9	Q8BUN5
Q99LF8	Q8K3Y3
Q99LI5	Q61066
Q99LI5	Q80Z64
Q99LI8	P60879
Q99LI8	Q61187
Q99LQ1	G5E829
Q99LU0	Q8BH43
Q99LW6	Q6PDN3
Q99LX0	P68040
Q99M28	Q9QY14
Q99M51	B9EKI5
Q99M51	O88643
Q99M51	P00520
Q99M51	P97465
Q99M51	P97820
Q99M51	Q62245
Q99M51	Q9EQ32
Q99M87	P39428
Q99MD9	P15864
Q99ME3	A2CG49
Q99ME3	P0CG49
Q99ME3	P0CG50
Q99ME3	P62983
Q99ME3	P62984
Q99ME6	Q6ZWR6
Q99ME6	Q921T2
Q99MH6	P51141
Q99MH6	Q60838
Q99MH6	Q61062
Q99MI6	P10417
Q99MJ6	Q60825
Q99MJ6	Q61983
Q99MK8	Q6R891
Q99MK9	Q3UIW5
Q99ML1	Q07440
Q99ML9	O35625
Q99ML9	P25118
Q99MR1	Q60760
Q99MS3	Q9JIY5
Q99MW6	P14873
Q99MW6	Q9QYR6
Q99N13	P60335
Q99N13	Q61686
Q99N13	Q63943
Q99N50	Q99P58
Q99N50	Q9ERI2
Q99N57	P28028
Q99N57	P32883
Q99N57	P70336
Q99N57	Q9JM13
Q99N69	Q62406
Q99N72	Q61039
Q99NE5	P63011
Q99NE5	Q9CZV8
Q99NE9	P97875
Q99NE9	Q8BG99
Q99NH0	Q62406
Q99P87	Q99P87
Q99P91	P47713
Q99PF4	Q99PJ1
Q99PF4	Q9ES64
Q99PJ2	Q61210
Q99PM3	P62340
Q99PM3	Q8BP86
Q99PM3	Q8R4I4
Q99PM3	Q99PM3
Q99PM9	P39688
Q99PM9	Q60631
Q99PT1	P60764
Q99PV5	O08785
Q99PV5	O54943
Q99PV5	P28033
Q99PV5	P53566
Q99PV5	P97784
Q99PV5	Q3ULA2
Q99PV5	Q99PV5
Q99PV5	Q9JMK2
Q99PV5	Q9R194
Q99PV5	Q9WV60
Q99PW8	A2AVQ5
Q9CPR7	P39428
Q9CPR8	Q61501
Q9CPU7	Q9DCH4
Q9CPV7	Q3U4B1
Q9CPV7	Q9D032
Q9CPX4	P09528
Q9CPX4	P63017
Q9CPX4	Q9CPX4
Q9CPX6	Q9CQY1
Q9CQ20	O70583
Q9CQ22	O88653
Q9CQ71	P49717
Q9CQ71	P97310
Q9CQ71	Q60862
Q9CQ71	Q66JV6
Q9CQ73	P23242
Q9CQB4	Q9DBC7
Q9CQD1	Q60680
Q9CQE0	E9PZQ0
Q9CQI9	Q3TVI8
Q9CQI9	Q920D3
Q9CQI9	Q9R0X0
Q9CQJ4	P23798
Q9CQJ4	P25916
Q9CQJ4	Q8CCI5
Q9CQJ4	Q9QWH1
Q9CQJ4	Q9QXV1
Q9CQM9	Q8WTY4
Q9CQQ4	P56546
Q9CQQ4	P97454
Q9CQS8	P25118
Q9CQT7	O89086
Q9CQT7	P01887
Q9CQT7	P0CG49
Q9CQT7	P14869
Q9CQT7	P17918
Q9CQT7	P18572
Q9CQT7	P55264
Q9CQT7	P58544
Q9CQT7	P67778
Q9CQT7	P68040
Q9CQT7	P84244
Q9CQT7	Q5SSN7
Q9CQT7	Q8JZQ1
Q9CQT7	Q8K1X4
Q9CQT7	Q8K2E5
Q9CQT7	Q8QZY1
Q9CQT7	Q9CQE7
Q9CQT7	Q9CQT7
Q9CQT7	Q9CY58
Q9CQT7	Q9CZU6
Q9CQT7	Q9D6H5
Q9CQT7	Q9JL62
Q9CQV6	P35546
Q9CQY1	Q99J83
Q9CQY1	Q9CPX6
Q9CR09	Q8CFN5
Q9CR14	A0A140LI02
Q9CR14	Q8VDW4
Q9CR25	Q5NCQ5
Q9CR42	A2ASS6
Q9CR42	O70194
Q9CR42	O89001
Q9CR42	P04247
Q9CR42	P07744
Q9CR42	P09405
Q9CR42	P09528
Q9CR42	P15306
Q9CR42	P15375
Q9CR42	P16858
Q9CR42	P29754
Q9CR42	P31001
Q9CR42	P47963
Q9CR42	P51637
Q9CR42	P59325
Q9CR42	Q3V5L4
Q9CR42	Q4U4S6
Q9CR42	Q61545
Q9CR42	Q6PAI4
Q9CR42	Q7TPR4
Q9CR42	Q8CI08
Q9CR42	Q99N20
Q9CR42	Q9CWY3
Q9CR42	Q9QZ47
Q9CR78	Q9CR78
Q9CRA8	Q8BTI9
Q9CRT8	Q60823
Q9CRT8	Q9Z1T1
Q9CS74	Q9CQJ2
Q9CS74	Q9R000
Q9CSN1	O35613
Q9CSN1	Q99ME6
Q9CTN4	Q8K1C9
Q9CU62	Q61687
Q9CU62	Q9Z2D6
Q9CU65	Q80Z64
Q9CUN6	G5E8L8
Q9CUN6	O35182
Q9CUN6	Q8K4K2
Q9CVB6	P70315
Q9CVD2	P0CG49
Q9CVD2	P0CG50
Q9CVD2	P62983
Q9CVD2	P62984
Q9CVD2	Q01853
Q9CW03	P50540
Q9CW03	Q80US8
Q9CW03	Q8K1Z8
Q9CW03	Q91VN7
Q9CW03	Q9CU62
Q9CW03	Q9Z2D6
Q9CW46	P39688
Q9CW46	P57780
Q9CW46	Q64727
Q9CW46	Q8BHD7
Q9CW46	Q9JI91
Q9CWH4	Q8BRM6
Q9CWR0	Q9ES83
Q9CWR8	Q61188
Q9CWU2	Q6PDK0
Q9CWW7	Q8R0T2
Q9CWY4	Q9CX53
Q9CX30	P97428
Q9CX30	Q8BH43
Q9CX84	Q9Z0G0
Q9CX84	Q9Z2H7
Q9CXV0	E9Q6F9
Q9CXV0	Q149D4
Q9CXV0	Q8C9M8
Q9CXW3	P14069
Q9CXW3	P50114
Q9CXW4	P23804
Q9CY57	Q8CIG8
Q9CY57	Q9JIF0
Q9CY99	A1L358
Q9CYZ8	Q8BZL8
Q9CYZ8	Q8R3P9
Q9CYZ8	Q924W9
Q9CYZ8	Q924Z4
Q9CYZ8	Q9CXV0
Q9CYZ8	Q9CYZ8
Q9CYZ8	Q9D032
Q9CYZ8	Q9D0P5
Q9CYZ8	Q9JKU8
Q9CYZ8	Q9WUH2
Q9CYZ8	Q9Z247
Q9CZ44	Q01853
Q9CZ62	P62204
Q9CZA6	E9Q6R7
Q9CZA6	P11983
Q9CZA6	P63005
Q9CZA6	P63168
Q9CZA6	Q155P7
Q9CZA6	Q60898
Q9CZE3	P67778
Q9CZK6	E9Q6F9
Q9CZK6	Q149D4
Q9CZK6	Q8BI67
Q9CZK6	Q8C9M8
Q9CZL0	Q8CIH5
Q9CZL5	Q9CZL5
Q9CZT4	Q6PDK0
Q9CZT4	Q91X45
Q9CZV8	Q99NE5
Q9CZW5	Q8K443
Q9CZW5	Q9Z2A0
Q9CZY3	P61089
Q9D030	Q08775
Q9D032	E9Q569
Q9D032	O55203
Q9D032	Q6PGF3
Q9D032	Q8BHZ4
Q9D032	Q8BV16
Q9D032	Q8C7B8
Q9D032	Q8R3P9
Q9D032	Q8VCD7
Q9D032	Q924Z4
Q9D032	Q99LL5
Q9D032	Q9CXV0
Q9D032	Q9EP71
Q9D032	Q9WVB3
Q9D074	Q61187
Q9D0B1	Q8BZ34
Q9D0D5	Q8CDC7
Q9D0D5	Q921F2
Q9D0F1	Q8CIH5
Q9D0I4	O70404
Q9D0K2	P12849
Q9D0L6	Q80V81
Q9D0M5	Q9D0M5
Q9D0P5	Q924Z4
Q9D0P5	Q9CXV0
Q9D0P7	Q99M51
Q9D0S9	E9PZQ0
Q9D195	Q9D122
Q9D195	Q9D1K4
Q9D1K4	Q9D122
Q9D1K4	Q9D1K4
Q9D1P2	Q6PDM1
Q9D1P2	Q922L6
Q9D1P4	P07901
Q9D1P4	Q60676
Q9D1R6	Q8BMZ5
Q9D1T0	P12023
Q9D1X0	Q6PFR5
Q9D2C7	P52633
Q9D2H6	P58929
Q9D2H6	Q99PM3
Q9D2H6	Q9D2H6
Q9D2M8	P61089
Q9D2N4	Q91WZ8
Q9D2R6	E9PZQ0
Q9D2U9	P62806
Q9D2V6	O70433
Q9D2V6	P07901
Q9D2V6	P11499
Q9D2V6	P70441
Q9D2V6	Q60592
Q9D2V6	Q80YW5
Q9D2V6	Q99MJ6
Q9D2V6	Q9DC04
Q9D2V6	Q9JHL1
Q9D2V6	Q9JIL4
Q9D2W5	P63085
Q9D2Y4	Q9QZL0
Q9D3J5	Q9WUL8
Q9D3R3	Q9D3R3
Q9D4G2	O35914
Q9D4Z5	P11416
Q9D566	Q9D566
Q9D666	Q80VJ8
Q9D6K5	P27038
Q9D6K9	Q9EPK5
Q9D6W8	Q9CZA6
Q9D6W8	Q9D9Z1
Q9D721	Q99N72
Q9D738	Q8VIM5
Q9D7G9	Q9D7G9
Q9D7R2	P46935
Q9D7W5	Q8C1S0
Q9D7W5	Q9CQI9
Q9D7W5	Q9D8C6
Q9D7W5	Q9R0X0
Q9D828	O54863
Q9D828	P35545
Q9D828	P70304
Q9D828	Q80V53
Q9D828	Q8CCJ4
Q9D828	Q9CQB2
Q9D828	Q9CWS1
Q9D828	Q9D0F1
Q9D828	Q9D828
Q9D828	Q9Z1A1
Q9D882	P49070
Q9D882	P51942
Q9D882	Q8BWY7
Q9D882	Q8R5J9
Q9D882	Q99N03
Q9D882	Q9JJC8
Q9D892	Q9ES28
Q9D8B7	Q62083
Q9D8C6	Q9CQI9
Q9D8F3	P47713
Q9D8L5	Q9D8L5
Q9D8M7	Q9JKU8
Q9D8Q6	P70196
Q9D8U8	Q91YD9
Q9D8Y7	O89110
Q9D8Z6	Q80V81
Q9D902	O88351
Q9D902	P70278
Q9D902	Q921F2
Q9D902	Q9D0D5
Q9D903	Q8K3Y3
Q9D906	Q8R1P4
Q9D906	Q9CQY1
Q9D967	Q9D967
Q9DA19	P97346
Q9DA19	P97762
Q9DAC0	P19091
Q9DAD6	Q8BXF8
Q9DAI4	Q9D0D5
Q9DAR7	Q9DAR7
Q9DAX9	Q8CJ40
Q9DB15	Q80V81
Q9DB75	E9PZQ0
Q9DBB1	P63085
Q9DBC7	O54918
Q9DBC7	P05132
Q9DBD5	P12813
Q9DBG3	O70161
Q9DBG5	Q8BH43
Q9DBG9	Q02248
Q9DBH5	O55196
Q9DBR0	P25322
Q9DBR7	P0C605
Q9DBS2	Q9DBS2
Q9DBS8	P97760
Q9DBS8	Q9D902
Q9DBS8	Q9DBS8
Q9DBU5	Q6PDN3
Q9DBY1	P57716
Q9DBY1	P70315
Q9DBZ1	P39429
Q9DBZ2	P39428
Q9DC04	Q60825
Q9DC28	Q7TN08
Q9DC33	P39428
Q9DC40	Q9CQJ2
Q9DCC4	Q9DCC4
Q9DCD5	P62331
Q9DCH4	Q9JLN9
Q9DCP9	Q9D902
Q9DCV7	P08730
Q9DCV7	Q9QWL7
Q9DCW2	Q9D6S9
Q9DD03	Q60631
Q9DD03	Q8CHW5
Q9DD05	Q9DD05
Q9EP71	P39428
Q9EP71	Q3U4B1
Q9EP73	Q00609
Q9EP73	Q02242
Q9EP73	Q9EP73
Q9EPB4	Q9EPB4
Q9EPC1	O55222
Q9EPJ9	Q5S006
Q9EPK5	O35625
Q9EPK5	Q9EPK5
Q9EPK5	Q9WVB3
Q9EPL0	O55196
Q9EPL2	Q8CD76
Q9EPR5	Q9Z0W1
Q9EQ14	P43432
Q9EQ32	P22366
Q9EQ32	Q60631
Q9EQ32	Q99JY1
Q9EQ32	Q99M51
Q9EQ32	Q9EQ32
Q9EQ32	Q9Z0R4
Q9EQ61	P97452
Q9EQC5	Q8BRM2
Q9EQG5	P46935
Q9EQH3	Q5S006
Q9EQH3	Q6PHU5
Q9EQJ9	P18762
Q9EQQ9	O89090
Q9EQQ9	P62806
Q9EQS3	P47713
Q9EQU3	O55143
Q9EQW6	Q3TKT4
Q9EQY0	P25118
Q9EQY0	P70196
Q9EQZ7	P63011
Q9ER00	Q9QXJ2
Q9ER42	Q64317
Q9ER42	Q8BZ34
Q9ER80	P42866
Q9ERA0	Q3UNW5
Q9ERA6	O35286
Q9ERB0	Q9D0I4
Q9ERC8	O09118
Q9ERD7	P47757
Q9ERD8	Q62406
Q9ERE3	Q9ERE3
Q9ERE7	O88572
Q9ERE7	Q8VI56
Q9ERE7	Q91VN0
Q9ERG0	P09803
Q9ERH7	P25446
Q9ERI2	Q80T23
Q9ERI2	Q91V27
Q9ERK4	G5E829
Q9ERK7	O70174
Q9ERK7	P49582
Q9ERR1	P08551
Q9ERR1	P61982
Q9ERR1	P62259
Q9ERR1	P63005
Q9ERR1	P63101
Q9ERR1	P68254
Q9ERR1	Q9CQV8
Q9ERR1	Q9QXJ2
Q9ERR7	O55196
Q9ERS2	P42227
Q9ERU9	P63141
Q9ERU9	Q62077
Q9ERU9	Q9DBC7
Q9ERU9	Q9WVS6
Q9ERZ6	Q9DBR0
Q9ES18	Q924Z4
Q9ES28	Q68FF6
Q9ES28	Q9ES46
Q9ES28	Q9JLQ2
Q9ES46	O55222
Q9ES46	Q9ES28
Q9ES52	P98083
Q9ES52	Q60631
Q9ES52	Q8CIH5
Q9ES64	Q8BTY2
Q9ES64	Q99PF4
Q9ES64	Q99PJ1
Q9ES89	Q9ES89
Q9ES97	Q8BWG8
Q9ESG2	Q9ESG2
Q9ESJ1	O88898
Q9ESJ1	P49615
Q9ESK9	P42225
Q9ESK9	Q8C0J2
Q9ESN9	P28738
Q9ESN9	P31938
Q9ESN9	P47809
Q9ESN9	P53349
Q9ESN9	P62331
Q9ESN9	Q61831
Q9ESN9	Q91Y86
Q9ESN9	Q9ERE9
Q9ESN9	Q9ESN9
Q9ESN9	Q9QUK6
Q9EST3	Q8BUN5
Q9EST8	B1AXD8
Q9ESZ8	Q8C5D8
Q9ET78	Q9QZC1
Q9JHD1	B2RWS6
Q9JHD1	Q01705
Q9JHD2	Q01705
Q9JHD2	Q04207
Q9JHD2	Q8R4I1
Q9JHE6	Q9D032
Q9JHF9	Q9QUK6
Q9JHG6	P35922
Q9JHG6	Q61214
Q9JHG7	P35969
Q9JHG7	P70658
Q9JHG7	Q61411
Q9JHG7	Q99MK8
Q9JHI9	P12023
Q9JHL1	O08586
Q9JHL1	P05622
Q9JHU4	Q9WVS7
Q9JI13	O88351
Q9JI13	Q08024
Q9JI18	P11835
Q9JI18	P69566
Q9JI18	Q80VC8
Q9JI18	Q9ERE9
Q9JI18	Q9WVI9
Q9JI19	Q91YD9
Q9JI78	P0CG50
Q9JI78	P25444
Q9JI78	P52293
Q9JI78	P54728
Q9JI78	Q01853
Q9JI78	Q9R049
Q9JI90	B2RR24
Q9JIA7	P39688
Q9JIB0	Q61820
Q9JIB4	Q8VD76
Q9JID9	Q61851
Q9JID9	Q6BCN6
Q9JIE6	P16872
Q9JIE6	Q8CII9
Q9JIF0	O35182
Q9JIF0	O35625
Q9JIF0	Q8BG60
Q9JIF0	Q9CY57
Q9JIF7	E9Q401
Q9JIF7	P47811
Q9JIK5	P70318
Q9JIL4	Q60825
Q9JIL4	Q61983
Q9JIP6	Q62108
Q9JIQ3	Q60989
Q9JIW5	Q62073
Q9JIY0	O35309
Q9JIY0	Q9D8C4
Q9JIY0	Q9JIY0
Q9JIY2	P09803
Q9JIY2	Q60598
Q9JIY2	Q9JIY2
Q9JIY5	Q60989
Q9JIY5	Q99MS3
Q9JJ11	O35615
Q9JJ28	P28652
Q9JJ28	Q6PHZ2
Q9JJ66	P0CG49
Q9JJ66	P0CG50
Q9JJ66	P62983
Q9JJ66	P62984
Q9JJ94	Q9QXJ2
Q9JJA2	Q99N72
Q9JJF2	Q5SS91
Q9JJF2	Q9JJF2
Q9JJG5	Q924Z4
Q9JJK2	Q9WVS7
Q9JJN0	P17918
Q9JJN0	Q920Q2
Q9JJN6	Q02248
Q9JJP2	Q6PGF3
Q9JJP2	Q9JJP2
Q9JJU6	P32883
Q9JJV2	Q8R5H6
Q9JJV9	Q9Z0J4
Q9JJW5	O88990
Q9JJW5	Q9JI91
Q9JK30	P49717
Q9JK30	Q61881
Q9JK30	Q66JV6
Q9JK30	Q9WUV0
Q9JK37	Q9JI91
Q9JK38	E9PZQ0
Q9JK42	E9PZQ0
Q9JK42	O08908
Q9JK92	Q9JLV1
Q9JKD8	P41183
Q9JKD8	Q03347
Q9JKF1	P11798
Q9JKF1	P39428
Q9JKF1	P98083
Q9JKF1	Q91YD9
Q9JKF6	P04925
Q9JKK8	Q8BMG1
Q9JKN5	P41136
Q9JKN5	P41139
Q9JKN5	Q99PM3
Q9JKN5	Q9D0D5
Q9JKN5	Q9D6J1
Q9JKN6	Q8K310
Q9JKN6	Q91Z31
Q9JKW0	O88848
Q9JKX8	Q6P8Y7
Q9JKX8	Q9Z2C6
Q9JKY5	Q60598
Q9JKY5	Q61210
Q9JL10	Q8VDQ8
Q9JL10	Q8VH51
Q9JL10	Q91ZU1
Q9JL10	Q923B3
Q9JL10	Q924Z4
Q9JL10	Q9D6K9
Q9JL60	Q9CPV7
Q9JLB0	O70318
Q9JLB0	Q99N28
Q9JLC6	Q9JHE6
Q9JLC6	Q9JLC6
Q9JLI2	Q6PCW7
Q9JLI7	Q5S003
Q9JLJ0	P46935
Q9JLJ0	Q60591
Q9JLN9	Q6QI06
Q9JLN9	Q8K4Q0
Q9JLN9	Q9DCH4
Q9JLN9	Q9DCJ1
Q9JLQ0	P22682
Q9JLQ0	Q60631
Q9JLQ0	Q9JLQ0
Q9JLQ2	Q91YD9
Q9JLQ2	Q9ES28
Q9JLY0	P05532
Q9JLY0	P48356
Q9JM13	O35551
Q9JM52	Q8CBW3
Q9JM54	P97287
Q9JM55	P48281
Q9JM73	Q3U1N2
Q9JM76	P70315
Q9JM93	O88848
Q9JMB1	P80316
Q9JMB7	Q80VL1
Q9JMB8	P70232
Q9JMF3	Q6A078
Q9JMG9	Q6PDN3
Q9JMH6	P49817
Q9JMH9	Q61210
Q9JMK2	O08785
Q9JMK2	O35973
Q9JMK2	O54943
Q9JMK2	Q3ULA2
Q9JMK2	Q9JMK2
Q9JMK2	Q9WTL8
Q9QUG2	Q920Q2
Q9QUG3	P04925
Q9QUI0	O08808
Q9QUI0	O88643
Q9QUI0	P46414
Q9QUI0	Q8C6B2
Q9QUI0	Q9Z207
Q9QUJ0	O54885
Q9QUJ0	Q9R007
Q9QUK6	P22366
Q9QUK6	P63158
Q9QUK6	Q3U0V2
Q9QUK6	Q60855
Q9QUK6	Q9JHF9
Q9QUM4	O88890
Q9QUM4	P39688
Q9QUN3	P35991
Q9QUN3	P70218
Q9QUN9	Q62406
Q9QUQ5	P55284
Q9QUR7	P02340
Q9QUR7	Q3UVX5
Q9QUR7	Q8BUV3
Q9QVP9	Q9QWY8
Q9QWH1	O35730
Q9QWH1	P23798
Q9QWH1	P25916
Q9QWH1	P49138
Q9QWH1	Q64028
Q9QWH1	Q80Z37
Q9QWH1	Q8CIH5
Q9QWH1	Q9CQJ4
Q9QWI6	Q61140
Q9QWI6	Q61166
Q9QWI6	Q8R001
Q9QWL7	Q3U0V2
Q9QWL7	Q9DCV7
Q9QWV4	Q99J45
Q9QWV4	Q9CXW3
Q9QWV4	Q9D0M5
Q9QWV9	Q91Y44
Q9QWY8	A0A0A0MQA6
Q9QWY8	E9PVY8
Q9QWY8	Q60875
Q9QWY8	Q80UK0
Q9QWY8	Q8CGB3
Q9QWY8	Q91WZ8
Q9QX11	Q9QXJ2
Q9QX47	P25118
Q9QX47	Q8BWG8
Q9QX96	Q9Z0W1
Q9QXA1	Q8C253
Q9QXA3	Q99JP6
Q9QXA7	Q60680
Q9QXF8	Q9QXF8
Q9QXG9	P70371
Q9QXI7	Q9Z2A0
Q9QXJ2	Q499E6
Q9QXJ2	Q61179
Q9QXJ2	Q9JJ94
Q9QXS1	P31001
Q9QXT5	P28301
Q9QXT5	P58022
Q9QXT5	P97873
Q9QXT5	Q924C6
Q9QXV1	O35730
Q9QXV1	P25916
Q9QXV3	Q99PM3
Q9QXV8	Q8CIH5
Q9QXY6	Q9QXY6
Q9QXZ0	Q61210
Q9QY01	Q8C180
Q9QY14	Q8BX22
Q9QY24	P70671
Q9QY24	Q9WUN2
Q9QY40	Q61553
Q9QY53	O89019
Q9QY53	P59240
Q9QY53	Q61140
Q9QY53	Q8BP00
Q9QY93	Q9QY93
Q9QYB1	P70181
Q9QYB2	Q62231
Q9QYE6	Q99N72
Q9QYE9	Q9WTI7
Q9QYH6	O55176
Q9QYH6	P25233
Q9QYH6	P51448
Q9QYH6	P70396
Q9QYH6	P70436
Q9QYH6	Q03358
Q9QYH6	Q80U04
Q9QYH6	Q9QYH6
Q9QYH9	P50284
Q9QYH9	Q71F55
Q9QYK7	P46935
Q9QYY0	Q60631
Q9QYY0	Q62077
Q9QYY9	Q9QYY9
Q9QZ06	Q61730
Q9QZ08	O88351
Q9QZ09	Q9WUL8
Q9QZ28	Q8R4I4
Q9QZ28	Q9WTP9
Q9QZ41	P25206
Q9QZ41	P49717
Q9QZ41	P97310
Q9QZ41	Q60862
Q9QZ41	Q61881
Q9QZ41	Q66JV6
Q9QZ41	Q9WUV0
Q9QZ41	Q9Z1N2
Q9QZ84	Q8CBW3
Q9QZB6	Q8R1B8
Q9QZD9	Q6NZJ6
Q9QZD9	Q8JZQ9
Q9QZE2	P14234
Q9QZE7	Q99P25
Q9QZE7	Q9D666
Q9QZH6	P70196
Q9QZJ6	A0A0A0MQ83
Q9QZJ6	O55196
Q9QZJ6	P18608
Q9QZJ6	Q08879
Q9QZJ6	Q61554
Q9QZJ6	Q61555
Q9QZJ6	Q8CIZ8
Q9QZJ6	Q9QXX0
Q9QZJ6	Q9R062
Q9QZK7	P35546
Q9QZL0	Q60855
Q9QZL0	Q9D2Y4
Q9QZM2	Q9QZM2
Q9QZM4	O89110
Q9QZQ8	Q6ZWS8
Q9QZR0	P52482
Q9QZR0	P52483
Q9QZR0	P68037
Q9QZR5	O54927
Q9QZR5	P06876
Q9QZS2	Q9QZS2
Q9QZZ4	O89019
Q9R000	P07901
Q9R002	P13405
Q9R049	Q01853
Q9R059	P43267
Q9R059	P56546
Q9R0G7	P70340
Q9R0I7	Q8BTI9
Q9R0I7	Q8CBW3
Q9R0I7	Q9DBC7
Q9R0L9	Q8BWG8
Q9R0M5	Q9R0M5
Q9R0N3	Q6PDN3
Q9R0N4	O35681
Q9R0N4	Q9R0N4
Q9R0N4	Q9R0N8
Q9R0N4	Q9R0N9
Q9R0N8	O35681
Q9R0N8	Q9R0N8
Q9R0N9	O35681
Q9R0N9	Q9R0N4
Q9R0N9	Q9R0N8
Q9R0N9	Q9R0N9
Q9R0Q1	Q99P58
Q9R0Q1	Q9ERI2
Q9R0Q3	P57716
Q9R0Q3	Q9CQR7
Q9R0X5	Q6A078
Q9R0X5	Q80VW5
Q9R109	Q80WJ1
Q9R109	Q8BVM4
Q9R111	Q62108
Q9R164	Q9JL60
Q9R171	Q61625
Q9R190	P12813
Q9R194	O08785
Q9R194	O35973
Q9R194	O54943
Q9R194	Q8BFZ4
Q9R194	Q8C4V4
Q9R194	Q9WTL8
Q9R1C7	Q8CBW3
Q9R1E0	P0DJI6
Q9R1E0	P51450
Q9R1E0	P53566
Q9R1E0	Q60987
Q9R1E0	Q6NZM9
Q9R1K5	Q8VDQ8
Q9R1L5	Q61235
Q9R1P4	Q91X58
Q9R1P4	Q9JII7
Q9R1Q7	P27870
Q9R1S0	Q3UK10
Q9R1S0	Q5SW45
Q9R1V7	E9PZQ0
Q9R1V7	P04925
Q9R1X4	O35973
Q9R1X4	Q91WA1
Q9R1X4	Q9R1X4
Q9R1Y5	Q923E4
Q9R1Y5	Q924A0
Q9R1Z7	E9Q7L2
Q9R1Z7	P28653
Q9R1Z7	Q8K4Z2
Q9R1Z7	Q9R1Z7
Q9R1Z8	Q8BH43
Q9R269	P20152
Q9R269	P31750
Q9TP17	P14434
Q9TP17	Q9TP17
Q9WTJ4	Q9WVS7
Q9WTK0	B2RWS6
Q9WTK0	Q8BTS0
Q9WTK5	Q04207
Q9WTK5	Q04863
Q9WTK5	Q9EST8
Q9WTK7	O54957
Q9WTK7	P06240
Q9WTK7	Q3TAA7
Q9WTK7	Q62077
Q9WTL2	Q9CXU1
Q9WTL8	O08785
Q9WTL8	O54943
Q9WTL8	P11103
Q9WTL8	P45481
Q9WTL8	P62137
Q9WTL8	P97481
Q9WTL8	P97784
Q9WTL8	P98083
Q9WTL8	Q61221
Q9WTL8	Q923E4
Q9WTL8	Q9JI90
Q9WTL8	Q9R194
Q9WTM5	P60122
Q9WTM5	Q9WTM5
Q9WTN3	Q8VHJ7
Q9WTP9	P58929
Q9WTP9	Q99PM3
Q9WTR2	O35099
Q9WTU0	P15806
Q9WTU0	P58462
Q9WTU0	Q6T264
Q9WTU0	Q80W03
Q9WTU3	P14873
Q9WTU6	P47811
Q9WTU6	Q9ESN9
Q9WTV7	O55203
Q9WTX6	Q9WTX5
Q9WTX7	Q3V0Q6
Q9WTZ9	Q9JIQ3
Q9WU01	P39688
Q9WU01	Q60631
Q9WU01	Q60749
Q9WU22	Q61625
Q9WU28	Q9Z2A0
Q9WU42	Q8C2B3
Q9WU78	O08992
Q9WU78	P11798
Q9WU78	Q60631
Q9WU78	Q62420
Q9WU78	Q8CIH5
Q9WU78	Q9QXJ2
Q9WUA3	P35991
Q9WUA5	Q9WV60
Q9WUD1	P31750
Q9WUD1	Q61083
Q9WUD1	Q8R368
Q9WUF3	P63166
Q9WUG7	O88848
Q9WUH2	E9Q6F9
Q9WUH2	Q149D4
Q9WUH2	Q3U4B1
Q9WUH2	Q8C9M8
Q9WUH2	Q9D032
Q9WUH2	Q9D0P5
Q9WUH7	Q62108
Q9WUI0	Q6PGF3
Q9WUI0	Q9D0D5
Q9WUI0	Q9WVB3
Q9WUI1	O08605
Q9WUI1	P16951
Q9WUI1	P47811
Q9WUJ5	P70441
Q9WUJ5	Q60592
Q9WUJ5	Q9JIL4
Q9WUL5	Q02242
Q9WUL8	Q8VH51
Q9WUL8	Q920Q8
Q9WUL8	Q921X6
Q9WUL8	Q923E4
Q9WUL8	Q924Z4
Q9WUL8	Q9CPV7
Q9WUL8	Q9EP71
Q9WUL8	Q9WVB3
Q9WUN2	P70347
Q9WUQ2	Q3U4B1
Q9WUQ2	Q3UA06
Q9WUU8	Q60769
Q9WUV0	P25206
Q9WUV0	P49717
Q9WUV0	P97310
Q9WUV0	Q61881
Q9WUV0	Q66JV6
Q9WUV0	Q9WUV0
Q9WV06	P41133
Q9WV31	Q62108
Q9WV55	P25118
Q9WV55	Q9QXM1
Q9WV60	P05132
Q9WV60	Q02248
Q9WV60	Q3ULA2
Q9WV60	Q811T9
Q9WV60	Q9QXZ0
Q9WV72	Q9D032
Q9WV80	O88351
Q9WVA3	P56387
Q9WVB3	B2RWS6
Q9WVB3	Q8BI67
Q9WVC8	P26361
Q9WVC8	P70441
Q9WVC8	Q8CIW6
Q9WVE0	Q62193
Q9WVE0	Q64511
Q9WVE0	Q91Z31
Q9WVE8	Q8CBW3
Q9WVE8	Q99JB8
Q9WVE8	Q9WVE8
Q9WVG6	O35625
Q9WVG6	Q61026
Q9WVG6	Q8CFN5
Q9WVG6	Q9WVG6
Q9WVH4	P0DJI6
Q9WVI9	A2ARV4
Q9WVI9	Q8VI56
Q9WVK0	P25118
Q9WVK0	P29754
Q9WVM3	P42337
Q9WVP6	Q8R1W2
Q9WVQ1	P27038
Q9WVS0	Q4VGL6
Q9WVS6	P68510
Q9WVS6	Q3U133
Q9WVS6	Q62420
Q9WVS6	Q6IQX7
Q9WVS6	Q9ERU9
Q9WVS7	Q02248
Q9WVS7	Q9Z101
Q9Z0G0	A2ARV4
Q9Z0G0	P97333
Q9Z0G7	Q6PGF3
Q9Z0G7	Q9Z0G7
Q9Z0H0	P49717
Q9Z0H0	P97310
Q9Z0H0	Q52KC3
Q9Z0H0	Q61881
Q9Z0H0	Q66JV6
Q9Z0H0	Q9Z1N2
Q9Z0H3	P97496
Q9Z0H7	Q9Z0H7
Q9Z0J4	A2AKD7
Q9Z0P7	A2A468
Q9Z0P7	O08709
Q9Z0P7	O09000
Q9Z0P7	O55128
Q9Z0P7	O88653
Q9Z0P7	O88907
Q9Z0P7	O88974
Q9Z0P7	P16110
Q9Z0P7	P17095
Q9Z0P7	P49312
Q9Z0P7	P50636
Q9Z0P7	P53569
Q9Z0P7	Q05BA5
Q9Z0P7	Q6IQX8
Q9Z0P7	Q8C253
Q9Z0P7	Q924S6
Q9Z0P7	Q9QZQ8
Q9Z0P7	Q9Z0P7
Q9Z0R4	A6X8Z5
Q9Z0R4	E9QAN8
Q9Z0R4	P39053
Q9Z0R4	P39054
Q9Z0R4	P42567
Q9Z0R4	P98078
Q9Z0R4	Q6P549
Q9Z0S2	P58929
Q9Z0S2	Q8K4J6
Q9Z0S2	Q9CYZ8
Q9Z0S2	Q9D032
Q9Z0S3	Q9Z0S3
Q9Z0S6	P56857
Q9Z0S9	P35279
Q9Z0V2	Q99PW8
Q9Z0X4	P05132
Q9Z0X4	P31750
Q9Z0Y9	Q8VHJ7
Q9Z0Y9	Q99K53
Q9Z0Y9	Q9R164
Q9Z0Z7	P25911
Q9Z0Z7	P28033
Q9Z103	Q8R3Z5
Q9Z104	P39428
Q9Z111	P17918
Q9Z138	Q9DCP9
Q9Z139	Q9QYH6
Q9Z148	O88508
Q9Z148	O88509
Q9Z148	P25118
Q9Z148	Q5DW34
Q9Z148	Q61026
Q9Z175	Q9QXT5
Q9Z179	P98083
Q9Z180	O35381
Q9Z1A1	Q60591
Q9Z1B5	Q7TSY8
Q9Z1D1	Q9JL25
Q9Z1D1	Q9QWV4
Q9Z1E3	O88895
Q9Z1E3	P02340
Q9Z1E3	P62806
Q9Z1E3	Q04207
Q9Z1E3	Q04863
Q9Z1F9	O08900
Q9Z1G3	P62331
Q9Z1G4	P49769
Q9Z1J1	P39428
Q9Z1K6	Q60778
Q9Z1N2	O88708
Q9Z1N2	P49717
Q9Z1N2	P97310
Q9Z1N2	P97311
Q9Z1N2	Q60862
Q9Z1N2	Q61881
Q9Z1N2	Q9WUV0
Q9Z1N5	Q60680
Q9Z1Q5	P70181
Q9Z1R2	O35305
Q9Z1R2	P11798
Q9Z1R2	P70196
Q9Z1R2	Q9DC51
Q9Z1S8	P25911
Q9Z1S8	P29351
Q9Z1S8	Q60631
Q9Z1T1	P28741
Q9Z1T1	P35991
Q9Z1T2	F6VAN0
Q9Z1W9	P47811
Q9Z1W9	Q61699
Q9Z1W9	Q924N4
Q9Z1W9	Q9ESF1
Q9Z1X9	P25206
Q9Z1X9	P97311
Q9Z1X9	Q61881
Q9Z1X9	Q66JV6
Q9Z1X9	Q9Z1N2
Q9Z1Y4	Q8CFN5
Q9Z1Z2	Q64729
Q9Z205	Q9WTP9
Q9Z206	Q6RHR9
Q9Z218	P04925
Q9Z223	Q9Z223
Q9Z261	Q80UE6
Q9Z277	P17918
Q9Z277	P42582
Q9Z277	P48281
Q9Z277	Q08369
Q9Z277	Q91ZW3
Q9Z2B9	P63085
Q9Z2C5	P31001
Q9Z2D6	Q9CU62
Q9Z2D6	Q9CW03
Q9Z2D7	Q6A4J8
Q9Z2D8	P14404
Q9Z2F6	Q80TQ2
Q9Z2F7	Q69ZI1
Q9Z2H7	Q62179
Q9Z2H7	Q64151
Q9Z2I2	E9Q401
Q9Z2I2	Q64729
Q9Z2K1	Q3U0V2
Q9Z2L7	Q8BH43
Q9Z2R9	P42337
Q9Z2S7	P09092
Q9Z2S7	P09632
Q9Z2S7	P15806
Q9Z2U2	Q9JKN5
Q9Z2V4	Q62120
Q9Z2V5	P68369
Q9Z2V6	Q63943
Q9Z2W1	Q3UUJ4
Q9Z2X8	O88351
Q9Z2X8	Q60795
Q9Z2X8	Q64337
Q9Z2X8	Q9Z2X8
Q9Z320	Q9DCV7
Q9Z351	P14824
V9GX74	B2RR24
