"","Leading.proteins","Phospho..STY..Probabilities","WT_NT.1.1","WT_NT.2.1","WT_NT.3.1","WT_NT.4.1","WT_NT.5.1","COUNT.WT","WT_EGCG.2.1","WT_EGCG.3.1","WT_EGCG.4.1","WT_EGCG.5.1","COUNT.WT_EGCG","WT_EGCG_EE.1.1","WT_EGCG_EE.2.1","WT_EGCG_EE.3.1","WT_EGCG_EE.4.1","WT_EGCG_EE.5.1","COUNT.WT_EGCG_EE","WT_EE.1.1","WT_EE.2.1","WT_EE.3.1","WT_EE.5.1","COUNT.WT_EE","TS_NT.1.1","TS_NT.2.1","TS_NT.3.1","TS_NT.4.1","COUNT.TS","TS_EGCG.2.1","TS_EGCG.3.1","TS_EGCG.4.1","TS_EGCG.5.1","COUNT.TS.EGCG","TS_EGCG_EE.1.1","TS_EGCG_EE.2.1","TS_EGCG_EE.3.1","TS_EGCG_EE.4.1","TS_EGCG_EE.5.1","COUNT.TS_EGCG","TS_EE.1.1","TS_EE.2.1","TS_EE.3.1","TS_EE.4.1","TS_EE.5.1","COUNT.TS.EE"
"16","A2A690","DSAYIS(0.022)S(0.146)S(0.83)PLGS(0.001)HQVFDFR",NA,NA,NA,NA,NA,0,550920,663640,NA,NA,2,NA,NA,NA,NA,NA,0,NA,NA,727150,2723400,2,1417300,NA,7246400,813940,3,4419800,NA,NA,NA,1,NA,NA,NA,NA,NA,0,NA,NA,1987000,NA,1906600,2
"62","A2AJI0","EPAAPAS(1)PAPSPVPSPTPAQPQK",1906900,NA,NA,1494700,NA,2,NA,NA,2480500,2020800,2,1211200,NA,2682700,1897000,1937000,4,2123900,4050200,NA,1875900,3,686170,2956400,NA,1984300,3,3200400,NA,NA,1836400,2,NA,NA,NA,NA,889540,1,NA,2024500,NA,NA,NA,1
"73","A2ALS5","SENSSTQS(1)S(1)PEMPTTK",790730,NA,NA,672040,NA,2,201300,NA,NA,NA,1,NA,NA,NA,NA,NA,0,NA,181760,NA,NA,1,NA,246300,NA,169490,2,NA,NA,NA,NA,0,757290,NA,NA,NA,NA,1,603220,NA,NA,NA,NA,1
"106","A2ARS0","AGALMARPNS(1)PQSSGSGR",NA,NA,NA,857440,NA,1,NA,NA,1134500,NA,1,NA,1150200,NA,NA,1305400,2,NA,NA,NA,1347100,1,578730,NA,2521000,NA,2,2427300,NA,NA,NA,1,NA,1711100,NA,NA,NA,1,640620,1461500,1168500,719190,NA,4
"147","B1AZP2","AMGDEDS(0.032)DES(0.969)GGGS(0.992)PKPS(0.007)PK",192760,NA,NA,126680,NA,2,197090,NA,NA,NA,1,54905,NA,NA,NA,NA,1,NA,NA,NA,NA,0,212070,136290,NA,40222,3,NA,NA,NA,NA,0,NA,251510,NA,NA,NA,1,124040,NA,NA,NA,NA,1
"159","B2RUJ5","LHHYDERS(0.374)DGES(0.617)DS(0.009)PEK",NA,NA,NA,2181000,NA,1,NA,NA,NA,NA,0,1054800,NA,5442100,NA,NA,2,NA,NA,3660400,NA,1,NA,NA,279690,2377100,2,NA,2825900,NA,NA,1,3106600,NA,NA,NA,NA,1,NA,NA,NA,NA,NA,0
"164","B2RUJ5","S(0.981)NS(0.019)QENVEASHPSQDGK",NA,NA,2683800,NA,NA,1,2265900,138560,NA,NA,2,260900,6403500,983790,NA,NA,3,715700,NA,NA,NA,1,1366100,2463200,NA,1089500,3,NA,NA,NA,NA,0,NA,NA,NA,NA,NA,0,NA,NA,NA,NA,NA,0
"199","E9PUL5","AELAPETTETPVETPETVQATDLS(0.002)LNPEEGS(0.015)KAS(0.141)PS(0.141)PS(0.141)PS(0.56)EAR",NA,NA,30395000,4806000,NA,2,NA,NA,NA,NA,0,NA,NA,NA,NA,NA,0,NA,NA,NA,NA,0,NA,2367600,34679000,NA,2,NA,NA,NA,NA,0,NA,NA,NA,NA,NA,0,NA,NA,21464000,NA,NA,1
"251","G3X9K3","TTIPHALLTWRPT(0.003)S(0.003)GEAEPPS(0.96)PS(0.032)AVS(0.001)EK",NA,NA,NA,NA,2010600,1,NA,NA,NA,NA,0,3036300,NA,NA,2039900,3457700,3,NA,NA,NA,2802500,1,1270200,NA,4416800,NA,2,4434600,2214100,3650200,NA,3,NA,NA,3523000,NA,NA,1,NA,NA,NA,NA,864370,1
"262","G5E829","SATS(0.001)S(0.984)S(0.015)PGS(0.998)PLHS(0.002)LETSL",650860,NA,NA,NA,NA,1,NA,NA,NA,NA,0,NA,NA,NA,NA,1898800,1,269340,NA,NA,496910,2,2432700,NA,19233000,1051200,3,5938900,NA,NA,NA,1,NA,NA,NA,NA,1542800,1,231300,NA,828910,NA,2407100,3
"302","O08599","S(0.005)S(0.005)AS(0.001)FSTTAVS(0.989)AR",NA,NA,NA,NA,NA,0,NA,1079000,1529600,NA,2,1094000,NA,1936500,NA,2066400,3,NA,NA,1611400,3240500,2,4800600,NA,6746400,2578800,3,NA,NA,NA,NA,0,NA,5168200,NA,NA,NA,1,1182300,NA,3536400,NA,NA,2
"306","O08648","PHS(1)PVTAIHR",412660,NA,NA,NA,NA,1,NA,NA,NA,NA,0,847360,NA,NA,NA,NA,1,NA,NA,NA,NA,0,1475800,NA,NA,825890,2,NA,NA,NA,NA,0,NA,981400,NA,NA,NA,1,NA,NA,NA,NA,NA,0
"319","O09044","ATWGDGGDNS(0.989)PS(0.011)NVVSK",NA,NA,NA,NA,NA,0,929180,493010,3240000,1502500,4,494420,NA,2256700,NA,1744700,3,NA,NA,NA,1713700,1,752640,NA,NA,2023600,2,2149200,1752100,NA,NA,2,NA,NA,2679000,NA,NA,1,NA,621030,1632900,1105700,NA,3
"366","O35691","ESRQES(1)DPEDDDVK",1928100,NA,NA,1557800,NA,2,2463500,NA,NA,NA,1,NA,NA,NA,NA,NA,0,1497400,3583600,NA,NA,2,NA,2278700,NA,662470,2,2969000,NA,NA,NA,1,NA,NA,NA,NA,NA,0,NA,1508200,NA,NA,NA,1
"374","O35927","SYSTSSPINIVVSSAGLS(1)PIR",NA,NA,NA,NA,NA,0,186290,NA,NA,NA,1,NA,NA,NA,588460,600070,2,NA,NA,NA,1281800,1,199120,NA,1257500,202970,3,745760,NA,NA,NA,1,NA,NA,NA,NA,NA,0,NA,NA,NA,NA,311380,1
"375","O35927","TSTAPS(0.98)S(0.02)PGVDSVPLQR",NA,NA,13613000,15877000,NA,2,NA,NA,17775000,NA,1,NA,NA,5228500,15032000,13411000,3,5608500,12429000,7600200,18637000,4,11686000,NA,27378000,3289400,3,28838000,3502400,14187000,10937000,4,NA,NA,NA,NA,NA,0,NA,17604000,NA,NA,8500200,2
"382","O35927","VT(0.001)S(0.004)PPT(0.034)VQS(0.04)T(0.043)IS(0.149)S(0.162)S(0.205)PIHQLS(0.106)S(0.114)T(0.123)IGT(0.018)Y(0.01)AT(0.037)LS(0.722)PT(0.233)K",NA,NA,NA,NA,NA,0,NA,NA,3575300,NA,1,NA,NA,NA,NA,NA,0,NA,NA,NA,NA,0,NA,NA,4849000,685930,2,2961100,897000,2914800,NA,3,NA,NA,NA,NA,NA,0,NA,1360100,NA,NA,871150,2
"395","O54774","NAEAVKS(1)PEK",137050,9044500,138000,94979,NA,4,NA,NA,NA,NA,0,NA,18922000,NA,NA,NA,1,NA,NA,NA,NA,0,51491,NA,NA,102730,2,NA,NA,NA,NA,0,161610,NA,NA,NA,NA,1,97441,731110,NA,NA,NA,2
"397","O54781","ENAEKDEDDVEQELANLDPTWVES(1)PK",NA,NA,NA,NA,NA,0,NA,NA,NA,NA,0,NA,NA,NA,NA,1258900,1,NA,NA,NA,NA,0,NA,NA,2344500,1041600,2,761970,NA,1356100,NA,2,NA,NA,1773100,NA,NA,1,NA,NA,NA,NA,NA,0
"462","O70166","SPSDLSPES(0.002)PVLS(0.023)S(0.975)PPK",NA,1665500,1553100,2657400,NA,3,NA,NA,NA,NA,0,1383100,NA,NA,NA,NA,1,NA,NA,NA,2254700,1,2265800,3540900,NA,NA,2,NA,NA,NA,NA,0,4730500,NA,NA,NA,NA,1,1748700,NA,NA,2730300,3364500,3
"486","O88343","NLT(0.001)S(0.937)S(0.053)S(0.009)LNDISDKPEK",8220200,NA,NA,NA,NA,1,NA,10783000,NA,NA,1,NA,NA,21731000,NA,21819000,2,17664000,33295000,NA,NA,2,6624900,NA,NA,19738000,2,NA,NA,23555000,NA,1,NA,NA,NA,25794000,NA,1,NA,23424000,NA,14228000,4387000,3
"512","O88487","SVSTPS(0.003)EAGS(0.311)QDS(0.686)GDGAVGSR",865170,NA,NA,966170,NA,2,683490,NA,1258600,NA,2,NA,NA,NA,NA,NA,0,NA,1575200,NA,NA,1,NA,919940,NA,681440,2,NA,NA,NA,NA,0,864760,NA,NA,NA,NA,1,NA,NA,NA,NA,NA,0
"526","O88703","TAAPSPDRRDS(0.868)AS(0.131)PGAAS(0.001)GLDPLDSAR",NA,NA,NA,NA,NA,0,NA,NA,NA,4169500,1,4366600,NA,6060600,5911800,NA,3,5188800,NA,NA,NA,1,NA,4991000,NA,4839300,2,NA,NA,NA,4394400,1,NA,NA,NA,4941900,NA,1,NA,NA,6818000,NA,NA,1
"548","O88737","SRGEHSSTLPASTPSYTSGT(0.001)S(0.001)PT(0.001)S(0.001)LS(0.01)S(0.01)LEEDS(0.041)DS(0.581)S(0.178)PS(0.178)RR",3963300,NA,6679300,2651100,NA,3,9477500,8734500,NA,4808500,3,NA,NA,3683100,NA,NA,1,NA,10864000,NA,NA,1,NA,NA,7080200,3653200,2,13427000,6175100,NA,5450200,3,8608300,NA,NA,NA,NA,1,NA,NA,NA,NA,NA,0
"560","O88737","HDAT(0.001)AS(0.909)S(0.053)S(0.015)T(0.015)T(0.006)AAATAR",NA,NA,313360,NA,NA,1,426960,NA,NA,NA,1,229530,NA,NA,NA,NA,1,230910,367610,NA,NA,2,304990,415740,NA,240560,3,412370,NA,NA,NA,1,NA,432680,NA,NA,NA,1,NA,261780,NA,NA,NA,1
"567","O88737","SLSDPKPLS(0.248)PT(0.034)AEES(0.718)AK",2914000,NA,5291300,NA,NA,2,4963800,NA,NA,NA,1,NA,NA,NA,NA,NA,0,5174600,NA,NA,2160500,2,2479300,NA,3470600,NA,2,5588300,NA,4286000,NA,2,NA,NA,NA,NA,1072600,1,NA,1948600,3481200,NA,NA,2
"593","O88737","SQQQLHSPALS(1)PAHS(1)PAK",752290,NA,NA,NA,NA,1,NA,NA,NA,NA,0,NA,NA,NA,NA,NA,0,NA,NA,NA,1321900,1,681880,NA,3207900,NA,2,1564500,NA,NA,NA,1,NA,2409200,NA,NA,NA,1,1154000,851940,NA,NA,NA,2
"597","O88746","AADRLPNLAS(0.998)PS(0.002)AEGPPRPSPGTAPR",4604100,NA,2359500,NA,NA,2,NA,4449300,NA,3262700,2,3883400,NA,9089400,9137800,NA,3,3853300,NA,8532400,NA,2,7893900,NA,15485000,NA,2,NA,4988500,NA,NA,1,NA,NA,5371500,NA,NA,1,6785900,NA,NA,5877700,NA,2
"619","O88935","GSHSQS(0.981)S(0.017)S(0.002)PGALTLGR",NA,NA,NA,NA,4662400,1,NA,2277700,NA,1816700,2,NA,4126000,2778300,NA,NA,2,NA,NA,NA,NA,0,2071200,NA,10928000,NA,2,NA,1517900,NA,1804500,2,NA,NA,NA,NA,NA,0,NA,NA,3987900,NA,NA,1
"646","O89084","S(0.001)LS(0.999)LSLPGPR",NA,NA,NA,NA,NA,0,877040,NA,NA,NA,1,NA,NA,514860,NA,616530,2,568640,931050,NA,1353100,3,921280,341760,NA,NA,2,NA,NA,NA,NA,0,NA,NA,NA,1098200,NA,1,NA,NA,752850,777150,NA,2
"669","P06837","AGSAETESAAKAT(0.994)T(0.006)DNS(0.882)PS(0.116)S(0.002)K",693250,NA,672140,NA,NA,2,NA,NA,NA,NA,0,204330,1832400,NA,NA,NA,2,468760,NA,NA,NA,1,511760,445870,66447,434130,4,6525200,341450,NA,NA,2,NA,703650,NA,NA,NA,1,891840,202670,NA,NA,NA,2
"683","P08551","KEES(1)AGEEQVAK",13537000,NA,49893000,NA,27802000,3,NA,NA,NA,NA,0,3308700,NA,NA,NA,NA,1,NA,55528000,NA,NA,1,NA,NA,59777000,8183600,2,95279000,41143000,NA,NA,2,NA,NA,NA,NA,7566000,1,NA,20409000,NA,9971700,5199400,3
"718","P0C913","DTTEDS(0.999)IT(0.001)EDDK",3258700,NA,NA,4501200,3143000,3,3830200,1943000,4815900,4414100,4,3730300,4244500,4056300,3335600,2688600,5,4719500,4647100,2787100,4688900,4,NA,5345700,2936500,3428500,3,6088600,NA,3808300,3650800,3,NA,NA,NA,NA,3862400,1,2645100,3698000,7667300,NA,5601800,4
"725","P10637","ESPPQPPADDGAEEPGS(0.016)ET(0.368)S(0.616)DAK",1328200,NA,NA,1361700,NA,2,NA,NA,NA,NA,0,NA,NA,NA,NA,NA,0,NA,NA,NA,NA,0,NA,1433300,NA,1370100,2,2146200,NA,NA,NA,1,NA,NA,NA,NA,NA,0,NA,NA,NA,NA,NA,0
"758","P11881","RDS(1)VLAASR",1527300,NA,NA,1375900,NA,2,NA,NA,NA,NA,0,820340,NA,NA,NA,NA,1,NA,NA,NA,NA,0,2571200,1435300,NA,819590,3,NA,NA,NA,NA,0,NA,2108800,NA,NA,NA,1,1467500,648720,NA,NA,NA,2
"777","P13595","GPVETKS(1)EPPESEAK",623590,NA,697000,NA,NA,2,455390,NA,478270,NA,2,NA,NA,1293600,574840,NA,2,NA,NA,NA,400360,1,NA,NA,870680,725930,2,656290,NA,275270,211760,3,NA,NA,NA,NA,354820,1,NA,522130,NA,NA,721130,2
"843","P14873","KES(1)KEETPEVTK",2048500,NA,186400,328620,246770,4,NA,168980,NA,NA,1,730800,21602000,NA,208250,431210,4,NA,NA,145100,754790,2,577410,296390,158260,536370,4,262480,NA,191160,43105,3,NA,NA,NA,NA,276250,1,270360,NA,NA,157090,217900,3
"1022","P20357","GLS(0.694)S(0.306)VPEVAEVEPTTK",NA,NA,NA,NA,NA,0,NA,NA,NA,NA,0,NA,NA,NA,NA,NA,0,NA,NA,NA,NA,0,NA,1615400,3995600,NA,2,NA,NA,NA,NA,0,NA,NA,1754300,NA,NA,1,NA,NA,NA,NA,NA,0
"1032","P20357","LAS(0.999)VS(0.001)ADAEVAR",2533300,NA,NA,955120,NA,2,NA,NA,NA,NA,0,1616800,NA,NA,NA,NA,1,1185800,NA,NA,NA,1,5353200,NA,NA,5636500,2,NA,NA,NA,NA,0,4038400,NA,NA,NA,NA,1,533690,NA,3154400,NA,NA,2
"1096","P25444","S(1)PYQEFTDHLVK",830530,NA,896520,NA,NA,2,NA,1070300,NA,NA,1,NA,NA,849180,NA,NA,1,841950,1371600,1151800,NA,3,854310,180010,NA,NA,2,1186100,949480,1702500,602750,4,640210,NA,NA,NA,NA,1,NA,NA,815310,NA,NA,1
"1105","P26645","AEDGAAPS(0.049)PS(0.044)S(0.812)ET(0.095)PK",4341700,NA,NA,6055600,414250,3,5200600,NA,NA,365970,2,NA,254250,NA,NA,NA,1,NA,7412900,NA,601060,2,2737500,649800,2239100,NA,3,NA,NA,NA,290580,1,NA,3188600,NA,NA,NA,1,NA,NA,NA,NA,NA,0
"1108","P26645","EAAEAEPAEPSSPAAEAEGAS(0.915)AS(0.134)S(0.262)T(0.262)S(0.262)S(0.165)PK",3469800,NA,NA,2799100,NA,2,NA,NA,NA,NA,0,NA,NA,5029800,NA,NA,1,NA,NA,NA,4347400,1,1946800,NA,NA,2912100,2,3640500,NA,NA,NA,1,NA,NA,NA,NA,NA,0,1705500,NA,3559200,NA,1610900,3
"1133","P28028","S(0.752)S(0.124)S(0.124)APNVHINTIEPVNIDEK",NA,NA,NA,NA,NA,0,NA,NA,NA,NA,0,NA,NA,NA,NA,NA,0,4379300,NA,NA,NA,1,NA,553220,6684700,NA,2,NA,NA,NA,NA,0,NA,NA,NA,NA,NA,0,NA,NA,NA,NA,NA,0
"1142","P28652","ES(0.012)S(0.988)DSTNTTIEDEDAK",NA,26353000,NA,NA,NA,1,NA,NA,NA,33176000,1,NA,85851000,NA,703250,NA,2,NA,70771000,46973000,NA,2,NA,1304900,62214000,NA,2,NA,32732000,NA,NA,1,NA,NA,NA,NA,40300000,1,NA,57082000,NA,45449000,43420000,3
"1159","P28738","PIRPGHYPAS(0.057)S(0.932)PT(0.012)AVHAVR",NA,NA,NA,1009900,NA,1,NA,NA,NA,NA,0,1826600,NA,3128700,NA,NA,2,2687500,NA,NA,1014300,2,2312300,NA,2391900,2130700,3,NA,NA,NA,NA,0,775420,NA,NA,NA,NA,1,638200,NA,2188200,NA,NA,2
"1273","P46061","ILDPNSGEPAPVLSSPT(0.002)PT(0.005)DLS(0.013)T(0.038)FLS(0.11)FPS(0.832)PEK",399880,NA,1394600,NA,NA,2,NA,NA,NA,1052800,1,1932800,NA,NA,NA,479340,2,NA,769860,475720,NA,2,465770,NA,2216700,1207600,3,2243000,2909300,4660300,NA,3,NA,NA,1439600,NA,NA,1,NA,NA,2759300,NA,NA,1
"1281","P46660","LSGPGGS(0.413)GS(0.587)FR",NA,NA,NA,NA,NA,0,NA,NA,NA,NA,0,NA,5123100,NA,NA,NA,1,NA,NA,NA,NA,0,NA,1711600,NA,1494600,2,NA,NA,NA,NA,0,NA,NA,NA,NA,3043900,1,NA,NA,NA,NA,NA,0
"1286","P46938","AHS(0.03)S(0.086)PAS(0.883)LQLGAVSPGTLTASGVVSGPAAAPAAQHLR",NA,NA,NA,NA,NA,0,NA,NA,NA,NA,0,NA,NA,NA,NA,NA,0,NA,NA,NA,NA,0,2325500,NA,9303400,NA,2,5394700,NA,NA,1364500,2,NA,NA,NA,NA,NA,0,NA,NA,NA,NA,NA,0
"1297","P47809","LRT(0.008)HS(0.992)IESSGK",3601300,NA,NA,172040,NA,2,NA,NA,NA,NA,0,137870,NA,NA,NA,NA,1,163080,NA,NA,NA,1,383010,NA,NA,67202,2,NA,NA,NA,NA,0,184010,NA,NA,NA,NA,1,132910,NA,NA,NA,NA,1
"1370","P54071","AGY(1)LRAVS(0.788)S(0.211)LCRAS(0.136)GS(0.865)AR",NA,520220,881740,NA,NA,2,NA,NA,NA,NA,0,NA,1582900,NA,NA,NA,1,1419100,977750,NA,NA,2,1087800,883740,NA,NA,2,NA,2853300,782920,NA,2,NA,NA,NA,NA,NA,0,NA,NA,NA,NA,NA,0
"1423","P58871","GEGVS(0.01)QVGPGT(0.793)PPAPES(0.4)PRKPIS(0.796)GVQGNDPGIS(0.001)LPQR",NA,NA,NA,NA,NA,0,5797000,NA,5730600,NA,2,NA,3674400,NA,NA,NA,1,NA,NA,NA,NA,0,NA,NA,12742000,6473500,2,NA,NA,NA,NA,0,NA,NA,NA,NA,NA,0,5092800,NA,NA,NA,NA,1
"1454","P59281","EDT(0.002)S(0.001)S(0.013)CS(0.984)PPGVLLEK",NA,1825400,NA,NA,NA,1,NA,NA,NA,1977600,1,NA,NA,NA,NA,1477600,1,1606800,2307800,NA,NA,2,NA,921770,NA,1236200,2,NA,NA,NA,NA,0,NA,NA,NA,1801400,NA,1,NA,NA,NA,1171700,NA,1
"1496","P61264","S(1)AKDS(1)DDEEEVVHVDR",1947400,NA,NA,1441300,NA,2,NA,NA,1137400,NA,1,NA,NA,NA,NA,439350,1,NA,NA,NA,14613000,1,NA,374900,NA,1666500,2,NA,NA,NA,NA,0,1732500,NA,NA,NA,NA,1,1127700,479290,NA,NA,NA,2
"1522","P62806","RIS(1)GLIYEETR",NA,NA,NA,NA,NA,0,NA,1693000,NA,NA,1,1114200,NA,NA,NA,NA,1,NA,NA,NA,1201200,1,327450,NA,NA,661630,2,NA,NA,NA,NA,0,NA,NA,1120700,NA,NA,1,NA,NA,1380200,NA,NA,1
"1620","P70399","STPFIVPS(0.901)S(0.096)PT(0.003)EQGGR",NA,NA,NA,2735900,NA,1,NA,NA,6029300,NA,1,2231000,NA,NA,NA,NA,1,NA,NA,NA,NA,0,NA,2638700,NA,2325600,2,NA,NA,NA,3487100,1,NA,NA,NA,NA,NA,0,NA,NA,NA,NA,2289200,1
"1639","P70429","VQRPEDAS(0.002)GGS(0.052)S(0.936)PS(0.009)GT(0.001)SK",353000,NA,151830,622440,NA,3,NA,NA,NA,NA,0,110930,NA,NA,NA,NA,1,NA,NA,NA,NA,0,473320,NA,NA,432900,2,NA,NA,NA,NA,0,598260,NA,NA,NA,NA,1,673170,NA,NA,NA,NA,1
"1784","Q01097","LS(0.01)S(0.99)IESDV",NA,NA,NA,1228400,NA,1,NA,NA,NA,NA,0,NA,NA,NA,NA,NA,0,999240,NA,NA,NA,1,1041900,NA,NA,1113400,2,NA,NA,NA,NA,0,NA,NA,NA,NA,NA,0,NA,791740,NA,NA,NA,1
"1815","Q03141","VRPNS(0.001)DLS(0.012)NS(0.923)T(0.101)GQS(0.963)PHHK",507320,NA,NA,720660,NA,2,NA,NA,NA,NA,0,NA,NA,NA,NA,NA,0,NA,NA,NA,NA,0,NA,546870,NA,2632400,2,NA,NA,NA,NA,0,NA,778890,NA,NA,NA,1,684220,NA,NA,NA,NA,1
"1875","Q09XV5","AVLQS(0.95)MS(0.05)GRDGNITGIQQFSKK",NA,NA,NA,NA,NA,0,NA,NA,NA,NA,0,930700,NA,NA,NA,NA,1,NA,NA,NA,NA,0,2334000,NA,NA,511360,2,NA,NA,NA,NA,0,NA,NA,NA,NA,885950,1,NA,NA,NA,680880,NA,1
"1886","Q0KL01","LGSLTPEIVST(0.001)PSS(0.999)PEEEDK",9605900,3697000,NA,8900600,8030500,4,13238000,NA,NA,893320,2,9310600,NA,NA,12120000,NA,2,NA,NA,16252000,14120000,2,NA,5711200,17758000,12848000,3,NA,12917000,NA,NA,1,NA,NA,15039000,NA,NA,1,NA,NA,13272000,NA,12298000,2
"1893","Q0KL02","TRPGAVS(0.999)PLNS(0.001)PLSTTFPSPFGK",NA,NA,NA,NA,NA,0,NA,NA,NA,NA,0,NA,NA,NA,NA,NA,0,NA,NA,NA,886090,1,690370,NA,2700500,NA,2,1166200,NA,1041400,NA,2,NA,NA,NA,NA,NA,0,96821,594210,NA,302200,NA,3
"1976","Q3THK3","GT(0.454)S(0.539)RPGT(0.016)PS(0.282)AEAAS(0.053)T(0.134)S(0.161)S(0.283)T(0.078)LR",NA,NA,NA,NA,1434800,1,1932500,1036100,NA,NA,2,NA,NA,1459500,1986400,NA,2,NA,2071100,NA,NA,1,NA,1092200,1620200,NA,2,NA,1135900,1236400,938960,3,NA,NA,NA,NA,970150,1,NA,NA,2285400,NA,NA,1
"1984","Q3THK7","TLNMT(0.036)T(0.279)S(0.686)PEEK",9551600,6405800,NA,NA,NA,2,NA,14561000,NA,NA,1,NA,NA,NA,6471600,NA,1,NA,NA,12045000,NA,1,9091300,NA,16491000,9436800,3,24603000,NA,NA,NA,1,13483000,NA,NA,NA,NA,1,NA,13143000,NA,16099000,8506000,3
"2030","Q3U1F9","RPS(0.988)EEPEPDY(0.011)EAIQT(0.001)LNREDEK",NA,NA,NA,NA,NA,0,NA,NA,NA,NA,0,NA,NA,NA,NA,NA,0,1861200,NA,NA,NA,1,2342200,NA,4222600,2146300,3,NA,NA,NA,NA,0,NA,NA,NA,NA,NA,0,NA,NA,NA,NA,NA,0
"2058","Q3UGY8","DGAES(0.01)S(0.221)RDS(0.769)MEINEADFR",1174000,NA,NA,NA,NA,1,1596100,NA,NA,NA,1,1052000,NA,NA,NA,NA,1,NA,NA,NA,NA,0,1266000,NA,NA,1033600,2,NA,NA,NA,NA,0,NA,NA,NA,NA,NA,0,NA,NA,NA,NA,NA,0
"2066","Q3UH68","GS(0.001)S(0.008)DGRGS(0.985)DS(0.006)ESDLPHR",2064200,NA,1828700,NA,NA,2,4893800,NA,NA,1708600,2,NA,2513000,2638900,NA,NA,2,3906300,4208700,NA,2059200,3,2035100,NA,2982300,2514700,3,NA,2361100,NA,NA,1,2819600,NA,NA,NA,NA,1,NA,NA,NA,NA,NA,0
"2092","Q3UHD9","RPLLS(0.014)S(0.014)PS(0.972)WGGPEPEGR",NA,NA,NA,448430,NA,1,NA,NA,NA,NA,0,NA,NA,1365200,NA,NA,1,NA,NA,NA,NA,0,2061000,NA,3268700,1342500,3,1184200,NA,NA,NA,1,NA,NA,1510800,NA,NA,1,NA,NA,NA,NA,NA,0
"2093","Q3UHD9","RRS(0.002)S(0.984)AAS(0.014)LGR",167780,NA,NA,180330,NA,2,NA,NA,NA,NA,0,181290,NA,NA,NA,NA,1,254630,NA,NA,NA,1,207900,NA,NA,145700,2,43894,NA,NA,NA,1,208550,NA,NA,NA,NA,1,245090,NA,NA,NA,NA,1
"2103","Q3UHF7","S(0.155)PS(0.842)LGS(0.003)EDLPLAADPDK",NA,NA,NA,NA,NA,0,NA,NA,NA,NA,0,NA,NA,866620,NA,NA,1,NA,NA,1349900,NA,1,NA,488880,NA,1610500,2,NA,NA,NA,NA,0,NA,NA,NA,NA,NA,0,NA,NA,NA,NA,NA,0
"2131","Q3UHL1","SDDIAS(1)ADR",4679700,NA,2507500,2150100,NA,3,NA,608150,NA,NA,1,1631400,NA,4030300,NA,NA,2,724230,NA,NA,NA,1,2653400,2470400,NA,1984600,3,4931900,455670,NA,NA,2,NA,NA,NA,NA,NA,0,NA,2566100,NA,NA,NA,1
"2178","Q3UNH4","RERPGSTGEGDLVS(1)LR",NA,NA,NA,NA,2294300,1,NA,NA,NA,NA,0,NA,NA,NA,NA,NA,0,NA,NA,1819100,NA,1,2106700,NA,3042200,NA,2,NA,NA,NA,NA,0,NA,NA,NA,NA,NA,0,NA,NA,NA,NA,NA,0
"2205","Q3UTJ2","RGS(0.137)LPDNS(0.863)ILHR",NA,NA,NA,NA,NA,0,NA,NA,NA,NA,0,1143300,NA,3390000,NA,NA,2,1473300,NA,4560100,NA,2,3378900,NA,NA,2246500,2,NA,NA,NA,NA,0,2939100,NA,NA,NA,NA,1,NA,NA,NA,NA,NA,0
"2212","Q3UTQ8","LLDRS(0.996)PS(0.004)R",NA,NA,713600,12264000,98690,3,14130000,NA,NA,NA,1,NA,NA,NA,88696,279580,2,NA,NA,NA,96576,1,23515000,8395800,NA,2883900,3,1279400,NA,295370,NA,2,NA,NA,NA,NA,NA,0,9444700,676150,NA,190180,NA,3
"2267","Q4KMM3","DTIQQVS(1)QR",702430,NA,NA,NA,NA,1,NA,NA,NA,NA,0,NA,NA,NA,1513300,890880,2,663560,NA,848600,1543700,3,2249100,NA,3151700,NA,2,NA,NA,NA,NA,0,NA,1854700,NA,NA,NA,1,NA,1919700,NA,NA,498820,2
"2295","Q4VGL6","VIS(0.999)PPPFAPSPT(0.001)LPPAFHPEEFLDEDLK",NA,NA,NA,NA,NA,0,NA,NA,NA,NA,0,NA,NA,NA,NA,NA,0,NA,NA,NA,699450,1,NA,NA,1604700,428850,2,1121400,NA,2364100,NA,2,NA,NA,NA,1041300,NA,1,NA,NA,NA,NA,NA,0
"2307","Q52KI8","AASPS(0.024)PQS(0.976)VR",2255700,NA,NA,NA,NA,1,NA,3119100,NA,NA,1,NA,5227000,3515400,NA,NA,2,10214000,5156900,NA,NA,2,NA,3302100,NA,3598400,2,8518000,NA,NA,NA,1,NA,NA,NA,NA,NA,0,NA,NA,NA,300830,2039400,2
"2312","Q52KI8","HRPS(0.999)S(0.998)PAT(0.003)PPPK",335310,1587700,56855,197930,NA,4,NA,NA,NA,NA,0,189420,6886700,51076,NA,NA,3,442950,128970,NA,NA,2,212180,NA,NA,230210,2,NA,NA,NA,NA,0,1097800,NA,NA,NA,NA,1,231020,90148,NA,NA,NA,2
"2327","Q52KI8","SRVS(1)VS(1)PGR",5932700,NA,NA,2438100,NA,2,3996900,NA,NA,NA,1,1260300,7205300,765020,NA,81136,4,NA,NA,NA,NA,0,2157300,NA,NA,1184200,2,NA,NA,NA,NA,0,NA,NA,NA,NA,NA,0,3610400,NA,NA,NA,NA,1
"2328","Q52KI8","SRVS(1)VS(1)PGR",5932700,NA,NA,2438100,NA,2,3996900,NA,NA,NA,1,1260300,7205300,765020,NA,81136,4,NA,NA,NA,NA,0,2157300,NA,NA,1184200,2,NA,NA,NA,NA,0,NA,NA,NA,NA,NA,0,3610400,NA,NA,NA,NA,1
"2334","Q569Z6","FSGEEGEIEDDES(0.935)GT(0.065)ENREEK",NA,NA,9202700,NA,9171600,2,10839000,10035000,NA,10644000,3,3271600,NA,11341000,7737400,12606000,4,10537000,20151000,14170000,12094000,4,NA,7669100,12133000,NA,2,NA,12868000,12896000,11565000,3,NA,NA,NA,NA,NA,0,NA,NA,10351000,NA,4972700,2
"2460","Q5SP85","HVLSGS(1)PEHFQK",3054000,NA,7173400,NA,NA,2,6669900,7028800,8002800,4100900,4,4338500,NA,8776900,NA,7368200,3,5632600,10662000,9823500,6386400,4,4289900,5139500,NA,NA,2,11058000,7095000,6784700,5359700,4,4590300,NA,NA,NA,NA,1,5063600,NA,6688200,6402700,4979400,4
"2474","Q5SSM3","GSPGSIQGTPCPGTQLGPQPAAS(0.04)PS(0.024)QLPADQS(0.686)PHT(0.249)LR",NA,NA,NA,1593000,NA,1,NA,NA,NA,1295700,1,NA,NA,2516900,NA,1876200,2,NA,NA,2555200,NA,1,2894200,699000,NA,NA,2,NA,1907100,NA,NA,1,NA,NA,NA,3059600,NA,1,NA,NA,1829500,NA,NA,1
"2576","Q60875","LQDS(0.248)S(0.748)DPDT(0.002)GS(0.004)EEEVS(0.897)S(0.09)RLS(0.009)PPHS(0.003)PR",NA,NA,NA,8791200,NA,1,NA,NA,15780000,NA,1,NA,NA,12917000,NA,NA,1,14488000,NA,3777900,NA,2,NA,NA,16494000,11120000,2,NA,NA,15521000,NA,1,NA,NA,NA,NA,NA,0,NA,3750000,10296000,NA,6100000,3
"2599","Q61026","LLQDS(0.144)S(0.555)S(0.301)PVDLAK",508440,NA,NA,662830,1437900,3,NA,NA,1049400,1019600,2,870920,NA,NA,1032800,945600,3,NA,NA,NA,1158700,1,NA,795520,NA,1679300,2,1025000,651210,NA,NA,2,NA,NA,1384700,NA,NA,1,617600,896400,NA,845320,456810,4
"2606","Q61036","T(0.008)AS(0.008)EPPLAPPVS(0.984)EEEDEEEEEEEDDNEPPPVIAPRPEHTK",23502000,4748500,29505000,6617200,24112000,5,NA,33667000,30072000,NA,2,NA,10211000,37224000,NA,NA,2,37399000,63689000,42712000,NA,3,NA,1513300,49801000,26885000,3,65755000,31497000,15672000,19826000,4,NA,NA,NA,NA,2635100,1,30361000,40468000,NA,34398000,NA,3
"2630","Q61136","S(0.973)RS(0.026)PSPDDILER",NA,NA,897260,NA,1285500,2,NA,1911300,668750,1302100,3,NA,NA,1056800,NA,NA,1,1046900,NA,NA,NA,1,1076200,NA,NA,1006100,2,NA,NA,NA,NA,0,NA,NA,NA,NA,NA,0,NA,NA,NA,NA,1004100,1
"2638","Q61165","ADLPVITIDPASPQS(0.966)PES(0.034)VDLVNEELK",NA,NA,1353500,NA,NA,1,NA,2991500,NA,NA,1,NA,NA,NA,NA,1378500,1,NA,827270,NA,1912500,2,223820,NA,NA,1107600,2,1676700,925540,2192300,NA,3,NA,NA,2046600,NA,NA,1,NA,429930,NA,NA,NA,1
"2664","Q61290","GDIGGLT(0.001)SALDNQRS(0.917)PLS(0.082)LGK",NA,NA,787220,NA,NA,1,NA,923170,NA,986890,2,1115500,NA,NA,NA,NA,1,451990,NA,NA,7350000,2,NA,NA,9592700,1328700,2,NA,1134300,NA,NA,1,NA,NA,NA,7798900,NA,1,NA,NA,NA,NA,NA,0
"2805","Q62313","S(0.033)DQS(0.026)S(0.174)T(0.174)EDS(0.541)GKPT(0.026)GGNS(0.025)GKPT(0.003)GGDSGKPTEAGSNK",3700500,NA,2080000,NA,NA,2,NA,NA,NA,NA,0,79858,NA,NA,NA,NA,1,NA,7344700,NA,92164,2,784900,NA,NA,131660,2,NA,NA,NA,NA,0,NA,NA,NA,NA,NA,0,NA,112490,NA,NA,NA,1
"2821","Q62393","ASAAFS(0.885)S(0.045)VGS(0.07)VITK",NA,NA,NA,NA,NA,0,NA,NA,NA,NA,0,NA,NA,NA,NA,986130,1,NA,NA,NA,NA,0,NA,457340,3035500,NA,2,1185500,NA,NA,NA,1,NA,NA,NA,NA,NA,0,NA,NA,NA,NA,NA,0
"2835","Q62417","RS(0.966)AT(0.034)LPLPAR",NA,NA,NA,3274000,NA,1,NA,NA,NA,NA,0,NA,NA,NA,NA,NA,0,3273600,NA,NA,NA,1,3828000,2805600,NA,3028300,3,NA,NA,3632600,NA,1,3098900,NA,NA,NA,NA,1,NA,NA,NA,4469000,3696700,2
"2857","Q62446","FLQDHGS(0.986)DS(0.014)FLAEHK",1869300,NA,3545500,NA,NA,2,3939000,3289300,NA,750750,3,748190,NA,2680100,NA,788090,3,NA,5349600,NA,901550,2,892100,NA,5394400,3493200,3,NA,823260,NA,3000300,2,NA,NA,NA,4103200,NA,1,NA,2006900,NA,NA,NA,1
"2996","Q69ZA1","HS(0.001)S(0.049)IS(0.937)PS(0.006)T(0.006)LT(0.002)LK",NA,NA,1259600,NA,NA,1,NA,NA,1130000,1313200,2,530050,NA,NA,NA,NA,1,854560,NA,NA,1118700,2,507440,NA,NA,1078500,2,NA,NA,NA,NA,0,NA,NA,NA,NA,NA,0,947950,NA,NA,1007300,931170,3
"3066","Q6GQT5","LFGAS(0.809)S(0.191)PPPGAVPSGPPLSR",NA,NA,1014200,NA,1143300,2,NA,1460300,NA,711270,2,NA,NA,1187900,NA,NA,1,NA,NA,1401200,NA,1,1144900,255850,NA,NA,2,NA,1266100,NA,NA,1,NA,NA,1348700,NA,NA,1,NA,NA,NA,NA,NA,0
"3077","Q6IR34","VDLAGS(0.988)PEQEAS(0.012)GLPDPQQQCPPGAS",NA,NA,NA,NA,NA,0,NA,NA,2473400,2014200,2,NA,NA,NA,NA,NA,0,NA,NA,NA,NA,0,NA,1122600,NA,3555600,2,2829500,NA,NA,NA,1,NA,1502500,NA,NA,NA,1,NA,NA,NA,NA,NA,0
"3106","Q6NZL0","EQS(0.978)ES(0.017)LS(0.005)ELR",NA,NA,NA,NA,2672500,1,NA,NA,NA,NA,0,NA,NA,NA,NA,3701700,1,NA,4050100,4011000,NA,2,NA,2708000,3036900,NA,2,NA,NA,NA,2968500,1,NA,NA,NA,NA,1895000,1,NA,NA,NA,NA,NA,0
"3140","Q6P9K8","LLATVLS(1)QK",542550,NA,NA,450380,NA,2,NA,NA,NA,NA,0,NA,NA,NA,NA,NA,0,NA,466090,NA,491160,2,1333400,NA,2139800,NA,2,698580,NA,NA,NA,1,NA,1520600,NA,NA,NA,1,NA,NA,NA,715710,NA,1
"3177","Q6PAM0","DLS(0.017)S(0.037)S(0.946)PPGPYGQEMYVFR",NA,NA,NA,807360,NA,1,NA,NA,NA,NA,0,NA,NA,NA,5888500,NA,1,NA,NA,2700700,2734500,2,NA,591370,4662200,NA,2,3943400,953330,NA,NA,2,NA,2200600,NA,NA,NA,1,306550,2376500,NA,NA,NA,2
"3413","Q7TQD2","RLS(1)LES(0.999)EGANEGAT(0.001)AAPELSALEEAFRR",NA,NA,671280,NA,NA,1,NA,14672000,29550000,200980,3,NA,1996000,NA,131540000,NA,2,288890,NA,NA,311590,2,NA,NA,5272900,5217500,2,NA,402190,NA,NA,1,29813000,NA,NA,NA,NA,1,NA,NA,NA,368780,NA,1
"3443","Q7TSH2","RQS(0.601)S(0.388)T(0.011)ADAPEAQHEPGITITEWK",NA,NA,NA,883280,NA,1,NA,NA,NA,1606300,1,1159100,NA,1727400,NA,NA,2,NA,NA,NA,2205300,1,NA,NA,2864400,2010100,2,2866100,NA,NA,NA,1,NA,NA,NA,NA,NA,0,NA,NA,NA,1130700,683250,2
"3484","Q80TJ1","AGGGRPS(0.013)S(0.021)PS(0.966)PS(0.325)VVS(0.675)EK",NA,NA,NA,NA,NA,0,NA,NA,NA,468690,1,NA,18959000,NA,3525300,1948600,3,1087000,NA,1223000,4395900,3,8218300,NA,18053000,NA,2,NA,NA,NA,NA,0,NA,NA,897060,NA,NA,1,2905100,4994400,1131400,NA,NA,3
"3524","Q80TV8","NSSNTGVGS(0.994)PS(0.006)NTIGR",1885100,NA,NA,2372900,NA,2,NA,NA,NA,1063100,1,NA,3332100,2179600,NA,1918300,3,NA,4459900,1543400,2780200,3,NA,NA,3354700,1479100,2,3494800,NA,NA,2245700,2,NA,NA,NA,NA,1195000,1,2119600,2783600,1760100,1815900,NA,4
"3549","Q80U23","EEGT(0.02)GES(0.871)AGGS(0.11)PAR",NA,NA,NA,NA,NA,0,NA,NA,NA,NA,0,NA,NA,NA,NA,NA,0,NA,NA,NA,NA,0,3789600,408320,NA,NA,2,NA,NA,NA,NA,0,NA,NA,NA,NA,NA,0,NA,NA,NA,NA,NA,0
"3553","Q80U28","AT(0.045)LS(0.953)DS(0.002)EIETNSATSAIFGK",NA,1994600,NA,NA,NA,1,NA,NA,50569000,NA,1,NA,NA,NA,NA,NA,0,NA,NA,NA,NA,0,NA,NA,43239000,19877000,2,NA,37284000,NA,NA,1,NA,NA,NA,24694000,NA,1,NA,NA,34933000,NA,25715000,2
"3566","Q80U28","S(0.006)S(0.006)S(0.006)S(0.002)T(0.002)T(0.002)AS(0.004)S(0.049)S(0.861)PS(0.058)T(0.006)VVHSAHSEAADSTEMGDK",NA,NA,NA,NA,NA,0,NA,4917800,NA,2072400,2,NA,NA,NA,NA,4045800,1,1511700,NA,NA,NA,1,3772400,NA,5974000,NA,2,NA,NA,NA,NA,0,NA,NA,NA,NA,NA,0,NA,5570000,4851700,5342000,2704300,4
"3588","Q80U49","NGPS(1)PTTPQTPGPQK",754880,NA,NA,NA,NA,1,NA,NA,NA,NA,0,NA,2316600,NA,NA,NA,1,NA,1419400,1365300,NA,2,NA,930880,2432000,1130400,3,1307900,NA,NA,1204000,2,NA,NA,NA,NA,NA,0,1257000,978150,1151900,NA,NA,3
"3648","Q80WT5","HLLETHS(0.123)S(0.877)PAK",NA,NA,347300,NA,NA,1,5960200,NA,9895200,NA,2,NA,308410,160510,NA,NA,2,557320,NA,216790,NA,2,NA,8123000,90652,NA,2,NA,NA,NA,NA,0,NA,NA,NA,163270,NA,1,9526400,NA,NA,200800,NA,2
"3665","Q80X80","VDGKLDS(0.538)PS(0.061)RS(0.413)PS(0.989)K",NA,1442100,NA,NA,NA,1,NA,1786600,1964500,NA,2,NA,NA,NA,NA,NA,0,4056600,NA,1245400,NA,2,4532200,3877800,NA,2976400,3,NA,NA,NA,NA,0,4384100,NA,NA,NA,NA,1,NA,4826000,NA,NA,1704800,2
"3689","Q80XQ2","EFT(0.002)GS(0.998)PPPS(0.001)ATK",4280400,NA,4439800,NA,NA,2,3498500,4239800,NA,NA,2,3110400,NA,NA,3078000,4178000,3,NA,5415900,7612100,4401400,3,3961800,3909400,4038700,3726400,4,4130100,4430700,3026000,NA,3,NA,3617300,NA,NA,NA,1,4206900,3718300,NA,NA,2042500,3
"3712","Q80Y50","FFIQDDDS(1)GEELK",1209500,NA,NA,NA,NA,1,1037900,NA,1049200,NA,2,NA,NA,1035900,1282600,NA,2,909170,1832700,NA,NA,2,1198500,NA,NA,975170,2,1470200,NA,1050900,321950,3,NA,NA,NA,NA,1458400,1,NA,769410,NA,NA,671920,2
"3715","Q80Y56","DS(0.088)LS(0.033)T(0.142)HT(0.166)S(0.558)PS(0.036)QS(0.971)PNS(0.005)VHGS(0.001)R",NA,NA,NA,NA,NA,0,NA,NA,NA,NA,0,1807200,NA,NA,NA,NA,1,NA,NA,NA,NA,0,NA,6267600,NA,4142100,2,NA,NA,NA,NA,0,NA,NA,NA,NA,NA,0,NA,2697100,NA,NA,NA,1
"3745","Q80YV2","SMGTGDSAGVEVPS(0.659)S(0.341)PLRR",1475000,NA,NA,NA,2270600,2,3425200,NA,2443700,1336600,3,1055800,NA,2231100,NA,1876400,3,NA,NA,NA,2651800,1,918880,1177900,1840500,1494800,4,NA,1758100,NA,1559400,2,NA,NA,2710000,NA,NA,1,1611400,NA,NA,NA,NA,1
"3746","Q80YV2","S(0.846)MGT(0.64)GDS(0.51)AGVEVPS(0.029)S(0.969)PLRRT(0.006)K",1475000,NA,2032900,NA,2270600,3,3425200,1977700,NA,1336600,3,1055800,NA,2231100,NA,NA,2,NA,NA,NA,2651800,1,NA,1177900,1840500,1494800,3,2226100,NA,NA,1559400,2,NA,NA,NA,NA,NA,0,1611400,NA,NA,NA,NA,1
"3763","Q80ZF8","SIFTPVS(0.317)S(0.683)K",NA,NA,NA,NA,3750300,1,NA,6176900,NA,NA,1,4527200,NA,NA,5113700,5122500,3,NA,10133000,NA,6627200,2,NA,5444800,7219300,NA,2,9682400,4822700,NA,NA,2,NA,NA,NA,NA,NA,0,NA,5409100,6929900,6091300,NA,3
"3781","Q811D0","HVT(0.037)S(0.002)NAS(0.81)DS(0.004)ES(0.034)S(0.113)YR",452250,NA,NA,NA,NA,1,NA,354940,1358700,NA,2,NA,NA,NA,NA,NA,0,NA,1307000,NA,NA,1,NA,497510,NA,206000,2,1023700,NA,NA,NA,1,NA,NA,191390,NA,NA,1,674130,579540,NA,NA,298180,3
"3828","Q8BG89","AIHEPAES(1)PR",NA,NA,460660,445940,NA,2,242490,NA,403470,NA,2,334130,NA,394820,NA,NA,2,159830,NA,NA,NA,1,569840,374790,NA,513920,3,431860,NA,NA,NA,1,445900,NA,NA,NA,NA,1,NA,NA,NA,NA,NA,0
"3837","Q8BGD9","SLENETLNKEEDCHS(0.001)PT(0.07)S(0.928)KPPKPDQPLK",NA,4290200,35372000,20955000,NA,3,NA,12007000,NA,NA,1,669460,12868000,NA,6517400,NA,3,NA,NA,27635000,NA,1,3312700,NA,63206000,NA,2,NA,14622000,NA,NA,1,NA,NA,NA,NA,NA,0,NA,NA,NA,NA,NA,0
"3853","Q8BGT8","LDHALS(0.995)S(0.971)PS(0.02)S(0.014)PCEEIK",NA,NA,NA,NA,NA,0,NA,NA,NA,NA,0,NA,NA,NA,NA,748660,1,NA,1287200,NA,NA,1,900540,NA,3015000,NA,2,2231600,NA,NA,NA,1,NA,NA,NA,1537700,NA,1,821120,601980,NA,NA,NA,2
"3889","Q8BHS8","VSPASESPFS(0.999)EEESR",822840,NA,554740,NA,NA,2,1129200,NA,NA,NA,1,NA,NA,1562200,1327200,NA,2,1242600,1619900,880630,NA,3,899950,NA,NA,861400,2,1086100,NA,NA,NA,1,NA,NA,NA,NA,NA,0,586960,NA,NA,NA,NA,1
"3906","Q8BJ05","DLVQPDKPAS(1)PK",1283900,NA,1562000,1858600,NA,3,1680200,2159400,NA,1561500,3,1032700,NA,NA,NA,NA,1,2248500,2412800,NA,NA,2,1606700,1648000,2953100,1643000,4,NA,NA,NA,NA,0,NA,NA,NA,1895100,NA,1,1494400,NA,NA,NA,NA,1
"3909","Q8BJ42","IIES(1)PERK",3029900,NA,313920,607730,444820,4,1618000,NA,NA,155750,2,NA,18090000,NA,149740,NA,2,NA,NA,NA,NA,0,1180400,3741600,110610,203370,4,NA,NA,NA,362710,1,NA,NA,NA,176390,NA,1,571990,NA,193900,NA,NA,2
"3914","Q8BJH1","ASSVNSPLGNKPQT(0.019)LS(0.79)PS(0.191)HR",5490000,NA,NA,7499700,4202300,3,6852700,NA,NA,NA,1,NA,NA,4323600,7553900,NA,2,4019700,11390000,3701100,11068000,4,4392000,NA,NA,4488900,2,NA,3855700,10972000,9920300,3,NA,NA,NA,NA,NA,0,10132000,NA,NA,8863900,NA,2
"3923","Q8BKC8","RELPTLSPAPDTGLS(0.999)PS(0.001)K",NA,NA,971910,1846100,NA,2,NA,NA,NA,644670,1,NA,NA,NA,NA,1627200,1,1371900,NA,1900500,2884500,3,NA,NA,2523000,1869800,2,3463800,1385300,NA,NA,2,NA,NA,NA,NA,NA,0,1490400,2063900,1676300,NA,1680900,4
"3924","Q8BKC8","RELPTLSPAPDT(0.035)GLS(0.201)PS(0.764)K",NA,NA,NA,1531800,NA,1,NA,NA,779270,698330,2,698840,NA,NA,2017800,NA,2,806420,NA,1840400,NA,2,1983700,NA,1860200,921850,3,2518900,979460,1401800,NA,3,NA,1304900,NA,NA,NA,1,903420,1410500,1055300,NA,1150400,4
"3929","Q8BKX1","S(0.554)S(0.156)S(0.156)T(0.133)GNLLDKDDLALPPPDYGTSSR",NA,NA,NA,NA,NA,0,NA,NA,NA,NA,0,NA,NA,NA,NA,NA,0,NA,NA,NA,NA,0,1473100,NA,3696900,NA,2,2338100,NA,NA,NA,1,NA,NA,NA,NA,NA,0,NA,NA,NA,NA,NA,0
"3951","Q8BLD6","GHDPPRAEES(0.053)GGS(0.171)S(0.616)S(0.051)PT(0.109)HDEN",NA,NA,NA,197430,NA,1,NA,NA,NA,NA,0,NA,NA,NA,NA,NA,0,NA,NA,NA,NA,0,NA,360800,NA,340370,2,NA,NA,NA,NA,0,NA,NA,NA,NA,NA,0,NA,NA,NA,NA,NA,0
"4013","Q8BPQ7","RSPQGS(0.004)S(0.004)ES(0.023)T(0.039)S(0.151)S(0.781)DKEDDEATDYVFR",NA,NA,NA,2245200,4598600,2,5717200,NA,NA,NA,1,NA,NA,NA,NA,NA,0,NA,NA,NA,3039000,1,NA,2758800,NA,2065100,2,NA,NA,NA,NA,0,NA,NA,NA,NA,NA,0,NA,NA,3170100,NA,NA,1
"4039","Q8BSF4","MAAS(1)GGRACVRS(1)LRGGVLWR",8728700,8430500,NA,NA,10837000,3,12059000,11757000,NA,7414400,3,9065200,12689000,12712000,12255000,8378800,5,10525000,13852000,15524000,9809400,4,8479400,8558600,12035000,9106600,4,15836000,11142000,NA,7789200,3,11731000,NA,NA,NA,NA,1,10497000,8985400,NA,10115000,9701200,4
"4040","Q8BSF4","MAAS(1)GGRACVRS(1)LRGGVLWR",8728700,8430500,NA,NA,10837000,3,12059000,11757000,NA,7414400,3,9065200,12689000,12712000,12255000,8378800,5,10525000,13852000,15524000,9809400,4,8479400,8558600,12035000,9106600,4,15836000,11142000,NA,7789200,3,11731000,NA,NA,NA,NA,1,10497000,8985400,NA,10115000,9701200,4
"4121","Q8BVI5","S(1)IAAELDELADDR",NA,NA,NA,NA,NA,0,NA,NA,NA,NA,0,NA,NA,NA,NA,NA,0,NA,NA,NA,NA,0,528730,NA,394000,NA,2,NA,NA,NA,NA,0,258070,NA,NA,NA,NA,1,NA,NA,NA,NA,NA,0
"4123","Q8BVL3","VTSSVPLPS(0.021)GGT(0.185)S(0.548)S(0.23)PS(0.016)R",NA,NA,NA,6267400,NA,1,NA,NA,NA,NA,0,NA,NA,7706400,6370500,NA,2,4786000,NA,6698500,5522700,3,5904000,NA,NA,5152000,2,NA,5491500,NA,NA,1,NA,NA,NA,NA,NA,0,NA,NA,NA,NA,NA,0
"4126","Q8BW96","RPRPTTVT(0.002)TGHT(0.089)GS(0.908)K",NA,NA,NA,NA,NA,0,NA,NA,NA,NA,0,108730,NA,NA,NA,NA,1,NA,NA,NA,NA,0,77113,NA,NA,48569,2,NA,NA,NA,NA,0,222870,NA,NA,NA,NA,1,96411,NA,NA,NA,NA,1
"4136","Q8BX90","MS(0.006)S(0.994)PPPSPQK",NA,NA,NA,427670,NA,1,NA,NA,482570,NA,1,NA,NA,818110,NA,NA,1,483060,592520,778090,NA,3,NA,NA,194010,417380,2,833500,602960,NA,NA,2,NA,NA,276070,NA,NA,1,NA,427540,NA,NA,NA,1
"4167","Q8BZH4","SLDAEPSVPS(0.008)AAKPS(0.168)S(0.824)PEK",977160,NA,NA,1121000,NA,2,2238700,NA,1257600,NA,2,857740,NA,1293800,2209700,1132500,4,1261600,2143500,1892000,1356700,4,828660,932280,NA,NA,2,1673900,NA,NA,NA,1,1503000,NA,NA,NA,NA,1,NA,743760,1762300,1232100,863820,4
"4172","Q8C008","FTQGLEDQLS(1)PPGNR",NA,NA,797910,NA,NA,1,NA,NA,NA,NA,0,NA,NA,NA,NA,NA,0,NA,NA,NA,NA,0,1122900,NA,2188500,NA,2,NA,NA,NA,NA,0,NA,NA,NA,NA,NA,0,NA,NA,NA,NA,NA,0
"4190","Q8C0D5","LAAAQGQT(0.003)S(0.002)QGPT(0.006)QDGGALET(0.322)S(0.665)PHEDEPRGDEPDVAS(0.001)VS(0.001)R",2605900,NA,2852100,NA,NA,2,NA,NA,2927700,NA,1,2033900,NA,3824700,NA,4791500,3,2868200,5170700,NA,NA,2,2845600,NA,NA,3564600,2,4463600,4068800,NA,NA,2,NA,NA,NA,3128300,NA,1,3120600,2575600,2170400,NA,1829700,4
"4202","Q8C0P7","EEEFLS(0.001)HY(0.999)KEHHS(0.057)IDY(0.061)VFVS(0.951)EKT(0.931)K",NA,NA,NA,NA,1247200,1,NA,7722700,NA,NA,1,NA,NA,NA,NA,14514000,1,NA,NA,9121000,7558800,2,NA,NA,83393000,4927900,2,NA,7735000,44132000,NA,2,NA,NA,NA,NA,NA,0,NA,NA,1518600,NA,NA,1
"4242","Q8C3W1","S(0.864)S(0.106)S(0.03)LDALGPAR",4535600,NA,2711400,NA,NA,2,NA,NA,NA,NA,0,NA,NA,8188200,NA,4685200,2,NA,NA,NA,NA,0,5479400,NA,9833700,NA,2,NA,2514100,NA,NA,1,NA,NA,NA,NA,NA,0,NA,NA,5627000,NA,4292700,2
"4255","Q8C4Y3","KPS(0.722)PT(0.231)QAAET(0.047)PALDLPLPSVPAPATL",NA,NA,NA,NA,NA,0,1320100,NA,NA,NA,1,NA,NA,NA,NA,NA,0,NA,NA,NA,NA,0,912560,NA,NA,1390800,2,NA,NA,NA,NA,0,NA,NA,NA,NA,1006300,1,NA,NA,NA,NA,NA,0
"4292","Q8C8R3","ETTQPETCDGHGCETVSPS(0.001)NS(0.004)AT(0.025)PVS(0.738)LGVQS(0.232)PEHK",NA,NA,NA,NA,NA,0,NA,NA,5527200,NA,1,NA,NA,NA,NA,NA,0,4102400,7633500,6287000,3255200,4,NA,3127900,4154400,NA,2,NA,NA,NA,NA,0,3646600,NA,NA,NA,NA,1,4407200,3514400,NA,NA,NA,2
"4334","Q8C8R3","T(0.074)PDS(0.926)LEPSPLK",NA,NA,1219600,NA,NA,1,NA,NA,NA,NA,0,NA,NA,NA,NA,NA,0,NA,810710,NA,NA,1,441070,1233700,NA,NA,2,NA,NA,NA,NA,0,NA,367970,NA,NA,NA,1,NA,NA,NA,NA,NA,0
"4375","Q8CC35","VRS(0.953)PPS(0.011)Y(0.01)S(0.013)T(0.013)LYPSSDPKPSHLK",NA,NA,NA,3199800,NA,1,NA,NA,2110500,NA,1,3572900,NA,NA,NA,2446500,2,2059600,NA,4148600,3594800,3,4201500,NA,NA,2067800,2,4177400,NA,NA,NA,1,NA,NA,3749200,NA,NA,1,NA,NA,3765500,3508500,NA,2
"4390","Q8CDA1","S(0.192)QS(0.807)AS(0.001)SIDVSTHAPSEAAAGPGSELGK",NA,NA,NA,1791700,NA,1,NA,1021800,NA,942680,2,NA,NA,NA,1499100,1788700,2,NA,2505900,NA,2890600,2,NA,964000,3121100,NA,2,3371300,NA,NA,NA,1,2262500,NA,NA,NA,NA,1,1666800,2221900,2891300,1468100,NA,4
"4401","Q8CFI0","S(0.904)LS(0.088)S(0.008)PTVTLSAPLEGAK",NA,NA,4581900,NA,6189900,2,NA,5734300,8582400,NA,2,4558800,NA,9346800,NA,NA,2,NA,NA,NA,NA,0,11259000,NA,14304000,NA,2,NA,NA,5127400,NA,1,NA,NA,8622000,NA,NA,1,4989400,10257000,NA,9994700,NA,3
"4403","Q8CFN5","NS(1)PGLLVSPGNLNK",NA,NA,1821800,NA,2566400,2,1242600,1953100,1884000,1707000,4,NA,NA,1963600,1329100,NA,2,NA,1719600,2373000,NA,2,NA,625390,2377400,1396300,3,NA,1511800,2083900,1173600,3,NA,NA,1642400,NA,NA,1,NA,NA,NA,NA,NA,0
"4408","Q8CGE9","LPAGSS(0.001)ELALS(0.794)S(0.204)PPPVK",NA,NA,NA,NA,NA,0,NA,NA,NA,NA,0,NA,NA,NA,3196300,1998900,2,NA,NA,NA,2681500,1,2458100,NA,3818200,NA,2,NA,NA,NA,NA,0,NA,NA,NA,NA,NA,0,NA,NA,3469500,NA,NA,1
"4413","Q8CGF6","S(1)LNPALDGLTCGLTSHDK",NA,NA,781180,NA,NA,1,835810,NA,2764200,1666800,3,NA,NA,821270,1328600,NA,2,NA,2337700,781910,1934500,3,NA,NA,3056800,705670,2,2276900,3170000,NA,1471200,3,NA,NA,NA,NA,NA,0,243650,915860,1638300,920390,NA,4
"4470","Q8CHU3","KT(0.198)PES(0.802)FLGPNAALVNLDSLVTK",NA,NA,NA,NA,NA,0,NA,NA,346210,NA,1,NA,1493400,NA,NA,NA,1,NA,369770,NA,1074900,2,1008800,NA,3597900,690560,3,NA,NA,NA,NA,0,NA,NA,NA,3303300,NA,1,NA,1447500,NA,NA,NA,1
"4583","Q8K207","ANMHIS(0.012)ES(0.988)QQEFFR",NA,NA,878010,NA,NA,1,859920,NA,NA,NA,1,756660,NA,NA,821060,1207000,3,NA,1216400,NA,2421000,2,NA,NA,2174900,840260,2,NA,650350,1358500,1201000,3,NA,NA,NA,1325000,NA,1,NA,NA,1933400,NA,602280,2
"4584","Q8K207","GRDY(0.125)CS(0.875)EEEDIT",NA,NA,NA,2006000,NA,1,NA,NA,NA,NA,0,NA,NA,NA,NA,NA,0,2364700,NA,NA,NA,1,2328400,2159000,NA,1618100,3,NA,NA,NA,NA,0,NA,NA,NA,3978900,NA,1,2471700,NA,NA,NA,NA,1
"4605","Q8K298","DSNLSAAS(1)PKPGK",NA,NA,1507700,1698200,NA,2,NA,NA,NA,NA,0,580180,NA,NA,NA,NA,1,1140000,4587100,NA,NA,2,1238100,NA,NA,1508200,2,4190200,NA,NA,NA,1,1727400,NA,NA,NA,NA,1,1749300,1781600,NA,NA,NA,2
"4612","Q8K2H1","DAS(1)PSSSSAVASSK",1915800,NA,985610,NA,NA,2,NA,NA,NA,89152,1,1120300,NA,1514800,NA,NA,2,NA,NA,NA,NA,0,1506100,NA,NA,978080,2,1660700,NA,NA,NA,1,NA,NA,NA,NA,NA,0,1242800,NA,NA,NA,NA,1
"4631","Q8K330","ALVT(0.078)VS(0.171)RS(0.75)PPAS(0.001)GHSTPVGPTQDR",NA,NA,NA,2292700,NA,1,NA,2624700,NA,1938400,2,NA,2463800,NA,NA,NA,1,NA,NA,NA,NA,0,NA,1433600,NA,2341100,2,NA,NA,NA,NA,0,1942000,NA,NA,NA,NA,1,NA,NA,NA,NA,NA,0
"4633","Q8K337","HTCAEPDAES(1)PKPR",998410,NA,NA,299270,NA,2,NA,NA,NA,NA,0,62222,NA,NA,NA,NA,1,NA,NA,NA,NA,0,581890,NA,NA,225550,2,NA,NA,NA,NA,0,880360,NA,NA,NA,NA,1,378370,NA,NA,NA,NA,1
"4654","Q8K3W3","RLEQTPVRDPS(1)PEPDAPLLGSPEK",1346100,NA,1626100,1354300,NA,3,2241300,1684000,NA,1281000,3,1301900,NA,2283700,NA,1724300,3,NA,1827800,2016400,1492400,3,1393000,NA,NA,1459100,2,3077200,1515400,NA,1478300,3,1635900,NA,NA,NA,NA,1,992890,1116200,1511500,NA,NA,3
"4680","Q8K4I3","PSERPLS(1)PK",22435000,1500400,21944000,23545000,20440000,5,NA,24068000,29400000,23689000,3,12118000,NA,26339000,22511000,28170000,4,29577000,NA,25983000,28668000,3,22000000,NA,30284000,28405000,3,42682000,NA,NA,NA,1,24064000,NA,NA,NA,NA,1,NA,NA,23893000,22773000,16840000,3
"4760","Q8R361","KY(0.016)DLES(0.586)AS(0.397)AILPSSALEDPELGSLGK",NA,NA,NA,NA,NA,0,NA,NA,NA,NA,0,1191500,NA,NA,2129300,461940,3,NA,NA,NA,1610200,1,816390,NA,5106900,NA,2,NA,NA,NA,NA,0,NA,NA,NA,1467300,NA,1,NA,NA,1042900,NA,NA,1
"4822","Q8R5M8","GADDAADADTAIINAEGGQNNS(1)EEKK",NA,NA,1662000,NA,2078000,2,NA,NA,NA,2022300,1,NA,NA,NA,NA,1626800,1,2037600,3072800,NA,2713700,3,NA,NA,4141400,1856400,2,3875600,NA,NA,1458300,2,1088400,NA,NA,NA,NA,1,1437600,1287500,1260300,NA,NA,3
"4850","Q8VD04","S(0.043)LS(0.174)S(0.734)S(0.048)PQAQPPRPAELSDEEVAELFQR",2346600,NA,NA,NA,NA,1,NA,NA,2922800,3155000,2,NA,NA,NA,NA,17692000,1,NA,NA,NA,NA,0,2668900,NA,34103000,NA,2,NA,NA,NA,NA,0,NA,NA,NA,NA,NA,0,NA,NA,NA,NA,NA,0
"4863","Q8VD37","EQVVT(0.02)PPAAS(0.978)DIPADS(0.002)PAPAPPGPTGSAGPPGPPGPR",21154000,NA,7699700,16261000,9259300,4,NA,18323000,15702000,NA,2,NA,NA,NA,NA,NA,0,NA,NA,28559000,22853000,2,11247000,NA,NA,26290000,2,NA,16899000,NA,NA,1,NA,NA,NA,NA,NA,0,NA,19439000,NA,NA,NA,1
"4903","Q8VDP4","DEVQNEGTAAESDS(1)PLK",NA,1594900,1680500,NA,NA,2,2053300,1861500,2149500,NA,3,1153400,1407100,2730600,1696200,NA,4,2589900,2589100,4034000,NA,3,NA,2291900,2446300,NA,2,NA,1696600,2085800,1442600,3,1704500,NA,NA,NA,NA,1,1639900,1459000,3037800,NA,1191200,4
"4921","Q8VDZ4","GLGS(1)PEPGTTAPYLGR",2668900,NA,NA,3181100,NA,2,3500600,NA,NA,NA,1,NA,NA,NA,NA,NA,0,NA,3443600,NA,NA,1,NA,1594000,NA,2180200,2,NA,NA,NA,2912100,1,NA,NA,NA,3064900,NA,1,2532400,NA,NA,NA,NA,1
"4924","Q8VDZ4","SIGSASPGPGQPPLS(0.715)S(0.21)PT(0.075)R",NA,NA,NA,4044700,NA,1,NA,2692200,NA,1548900,2,NA,NA,3566800,3933600,3104700,3,3277400,3860300,3660200,NA,3,3575900,2629300,NA,NA,2,NA,NA,NA,NA,0,NA,NA,NA,NA,2433000,1,NA,NA,3226900,NA,NA,1
"4938","Q8VED9","AGS(1)VADSDAVVK",NA,NA,8410400,NA,NA,1,NA,11039000,15038000,9428300,3,NA,12361000,15507000,11381000,13216000,4,8394800,12080000,13350000,11817000,4,8032500,NA,NA,363120,2,NA,11194000,8445500,7089100,3,NA,NA,16344000,NA,NA,1,NA,6303400,9656700,4432800,3415600,4
"4944","Q8VEK3","S(0.004)S(0.014)S(0.981)PVNVKK",14960000,NA,NA,10815000,NA,2,NA,NA,18642000,16061000,2,NA,NA,NA,NA,16664000,1,NA,NA,NA,21218000,1,NA,11957000,NA,12338000,2,21307000,NA,NA,NA,1,NA,15909000,NA,NA,NA,1,NA,13505000,NA,13977000,7379800,3
"4972","Q8VHW2","AGGGAGGSGGS(0.195)GPS(0.805)AILR",NA,NA,NA,NA,NA,0,NA,NA,NA,2900400,1,NA,NA,NA,NA,NA,0,3343000,NA,NA,NA,1,NA,3020400,4290900,NA,2,NA,NA,NA,NA,0,NA,NA,NA,NA,NA,0,NA,NA,NA,NA,NA,0
"4974","Q8VHW2","DRGS(0.723)S(0.202)AGFLT(0.075)LHNAFPK",NA,NA,NA,NA,NA,0,NA,NA,NA,NA,0,NA,NA,NA,NA,NA,0,NA,NA,NA,1348500,1,1033500,NA,3174200,NA,2,869480,NA,NA,NA,1,441080,NA,NA,NA,NA,1,NA,794130,NA,NA,900820,2
"5023","Q91X56","S(0.001)PS(0.999)AAGPSGGGLR",978720,NA,653940,1536500,NA,3,1514600,1317400,1664900,NA,3,251860,NA,NA,1000900,754030,3,NA,NA,NA,925840,1,505670,1518100,NA,NA,2,1631800,557380,NA,NA,2,NA,NA,NA,NA,708090,1,1711500,NA,NA,NA,523110,2
"5025","Q91XF0","GLAT(0.005)GDS(0.993)PLGPMT(0.001)HHGEEDWVYER",NA,NA,NA,NA,3100100,1,1919000,1252000,NA,NA,2,4748000,NA,NA,NA,2712900,2,NA,NA,NA,2785900,1,2007700,NA,6910200,NA,2,4682700,4095100,3905200,NA,3,NA,NA,4211800,NA,NA,1,NA,NA,1936800,1856500,NA,2
"5031","Q91XM9","NLSQIENVHGYVLQS(0.009)HIS(0.991)PLK",NA,NA,21063000,NA,NA,1,NA,NA,3303300,NA,1,4848900,2434200,NA,40284000,21795000,4,NA,NA,11956000,NA,1,NA,NA,47131000,4934800,2,NA,NA,NA,11577000,1,NA,NA,44237000,NA,NA,1,NA,NA,29104000,NA,NA,1
"5042","Q91XV3","APAPAAPAAAEPQAEAPAAAAS(0.736)S(0.193)EQS(0.07)VAVKE",NA,NA,NA,NA,3303100,1,NA,NA,NA,NA,0,NA,NA,NA,NA,5457700,1,NA,7920400,NA,6655600,2,NA,7311400,NA,7673600,2,NA,NA,5884600,7165200,2,NA,NA,NA,NA,4599400,1,NA,NA,NA,NA,NA,0
"5049","Q91XV3","KTEAPAAAGPEAKS(0.998)DAAPAAS(0.001)DSK",619210,NA,741480,1596800,NA,3,NA,NA,NA,513600,1,632850,NA,870430,1323900,NA,3,NA,2062600,NA,NA,1,1141400,1015100,921010,1095100,4,NA,NA,NA,NA,0,915420,NA,NA,NA,NA,1,661280,NA,NA,NA,NA,1
"5051","Q91XV3","SDAAPAAS(0.048)DS(0.837)KPS(0.875)S(0.24)AEPAPSSK",1802800,NA,NA,2843500,NA,2,2721300,2447600,NA,NA,2,1676100,NA,2347400,1917400,NA,3,NA,3051600,NA,NA,1,2608100,2501300,2104100,2450900,4,NA,NA,NA,NA,0,NA,3702100,NA,NA,NA,1,NA,1711700,3446100,3982200,NA,3
"5095","Q920I9","ARDS(0.995)PPPS(0.004)S(0.001)NIVQGQIK",1108800,NA,1736000,NA,NA,2,NA,1542000,1620100,NA,2,NA,NA,NA,NA,1873500,1,1421400,2512000,2546700,2574100,4,1004200,1561500,NA,NA,2,NA,NA,1413300,1626000,2,NA,NA,NA,NA,NA,0,1659800,3187200,5561000,NA,NA,3
"5206","Q99KX1","LAIQGPEDS(0.143)PS(0.857)R",NA,NA,NA,NA,1037200,1,NA,NA,NA,NA,0,NA,NA,NA,NA,NA,0,NA,NA,NA,NA,0,900540,NA,1283600,NA,2,NA,NA,NA,NA,0,NA,NA,NA,NA,NA,0,NA,NA,1017800,NA,NA,1
"5228","Q99M31","FELLCS(1)PLFNK",NA,NA,1312700,NA,5833600,2,NA,1617200,NA,1086500,2,NA,NA,1752900,1473900,1563100,3,1688500,NA,2199100,755110,3,NA,NA,7869000,2896900,2,2405000,1541600,NA,NA,2,NA,NA,NA,NA,NA,0,NA,NA,2718900,NA,NA,1
"5231","Q99MB3","MAAAWPAGRAS(1)PAAGPPGLLR",NA,NA,NA,NA,NA,0,NA,NA,NA,NA,0,NA,NA,NA,NA,NA,0,1816200,2273200,NA,NA,2,8316100,568780,NA,1911600,3,NA,NA,NA,NA,0,NA,NA,NA,NA,NA,0,NA,NA,NA,3791900,NA,1
"5245","Q99N28","GSDDAPDADT(0.001)AIINAEGGQS(0.999)GGDDKK",NA,NA,NA,NA,3578500,1,NA,NA,6880700,3388300,2,NA,NA,6301500,NA,4723800,2,NA,NA,6481700,5287400,2,2127700,NA,6225000,4178600,3,7626400,NA,NA,2744600,2,NA,NA,4916000,NA,NA,1,NA,3665100,4155100,1503000,NA,3
"5247","Q99N57","SAS(1)EPSLHR",NA,NA,4229700,NA,NA,1,NA,1394900,1690700,NA,2,3299800,6433100,5584600,NA,94203,4,1273100,4734900,633100,NA,3,4663400,NA,195890,NA,2,6020100,695300,420680,NA,3,NA,4626100,NA,NA,NA,1,4877900,NA,364830,NA,551820,3
"5249","Q99N57","S(0.127)T(0.127)S(0.716)T(0.029)PNVHMVSTTLHVDSR",NA,NA,1066200,NA,NA,1,NA,NA,NA,NA,0,1290700,NA,NA,1395900,1452300,3,NA,NA,1446700,2571800,2,1725200,NA,3035500,NA,2,3256400,1017500,2514100,NA,3,NA,NA,NA,NA,NA,0,NA,NA,2353000,NA,1241500,2
"5270","Q99NE5","S(0.166)RS(0.827)QT(0.007)PLSTAAVSSQDTASHGAPLDR",1723200,NA,NA,3046000,NA,2,NA,NA,NA,NA,0,NA,NA,NA,NA,NA,0,NA,NA,NA,NA,0,4855800,1302200,NA,NA,2,NA,NA,2997200,2633800,2,2645500,NA,NA,NA,NA,1,4553500,6010600,NA,NA,NA,2
"5282","Q99P72","EAEEKLPS(1)DTEK",3248700,NA,5516900,2862300,3416300,4,NA,4589200,10176000,4077600,3,1019100,NA,4311800,NA,3983300,3,5437000,NA,5796500,5472800,3,2506900,NA,NA,2477000,2,9819500,6767000,4916600,4086400,4,NA,NA,NA,NA,2047400,1,4058200,8244100,3830000,2834900,1764000,5
"5323","Q9CQJ8","AMY(1)PDY(1)FS(1)KREQWK",NA,NA,NA,NA,NA,0,NA,3341200,NA,NA,1,2072600,NA,NA,4822100,NA,2,NA,21588000,NA,7110800,2,5202000,14501000,NA,NA,2,NA,NA,NA,NA,0,NA,NA,7467400,NA,NA,1,NA,NA,NA,NA,NA,0
"5344","Q9CQY2","RPPES(1)PPIVEEWNSR",1271100,NA,NA,1445700,NA,2,1605600,528790,2092000,1140800,4,NA,NA,2447100,NA,1794500,2,NA,NA,NA,1378100,1,1341200,NA,1593200,1554000,3,NA,1189700,NA,1209600,2,NA,NA,2401100,NA,NA,1,NA,NA,1449400,1051000,NA,2
"5364","Q9CT10","S(0.993)PS(0.007)ESAEETHTLEEK",2038700,NA,NA,2188800,2024900,3,2053300,2529400,NA,NA,2,1595100,1410700,NA,NA,NA,2,2944000,2371500,2615700,2948000,4,NA,2244800,2284300,2354800,3,NA,1870300,NA,1272700,2,NA,NA,NA,2536200,NA,1,NA,NA,NA,NA,NA,0
"5396","Q9CY64","FTAS(1)PLEEEK",744770,NA,NA,1049900,NA,2,NA,NA,1290000,1050000,2,1277500,NA,1374700,NA,1091600,3,NA,NA,NA,1167100,1,812100,1201100,1093000,NA,3,1308300,NA,NA,NA,1,1157400,NA,NA,NA,NA,1,723500,NA,NA,NA,NA,1
"5423","Q9D032","NS(1)PNNISGISNPPGTPR",671570,NA,1264100,NA,1534900,3,1284300,NA,NA,980760,2,NA,NA,1057200,NA,1293900,2,1458100,NA,NA,923750,2,NA,773790,2172500,NA,2,NA,NA,NA,1136400,1,NA,NA,1897800,NA,NA,1,808150,NA,NA,NA,NA,1
"5424","Q9D074","EDADS(0.999)PT(0.001)EDGEKPR",497400,NA,278120,373860,NA,3,NA,NA,NA,NA,0,NA,NA,338300,NA,NA,1,NA,227990,NA,NA,1,392220,NA,NA,331580,2,319410,NA,NA,NA,1,NA,568390,NA,NA,NA,1,NA,NA,NA,NA,NA,0
"5449","Q9D1K7","LLSVTPT(0.053)S(0.94)EGY(0.005)S(0.002)IK",NA,NA,1995600,1047600,NA,2,1931800,NA,1753600,1345500,3,NA,NA,1846500,NA,1019400,2,NA,NA,1335000,NA,1,1572900,727500,NA,NA,2,NA,NA,NA,1234900,1,NA,NA,NA,NA,NA,0,NA,887890,NA,1549300,NA,2
"5461","Q9D2N4","ELNSEVASETESTVDSEFSRPQFEDLAPS(0.932)PT(0.034)S(0.034)EK",NA,NA,NA,NA,NA,0,NA,1210300,NA,780130,2,NA,NA,NA,NA,2674000,1,NA,2070800,NA,3810100,2,NA,NA,6913600,2008300,2,5099000,2867600,NA,NA,2,NA,NA,NA,4216700,NA,1,NA,NA,2021700,NA,NA,1
"5471","Q9D3A8","DGGSHIDSTVSPHPQEPMLT(0.194)AS(0.806)PR",1392000,NA,NA,2077800,NA,2,NA,NA,NA,1038500,1,NA,NA,NA,1961800,NA,1,NA,NA,NA,NA,0,4800700,NA,3933900,NA,2,NA,NA,2769700,NA,1,NA,4993300,NA,NA,NA,1,1391500,NA,2638300,3385700,NA,3
"5484","Q9D4C9","RS(0.65)QS(0.35)VVEAGTLK",3605400,NA,NA,3007300,NA,2,NA,NA,NA,NA,0,NA,NA,NA,2536000,NA,1,1879200,NA,NA,NA,1,NA,987080,NA,3188000,2,NA,NA,1746400,NA,1,2748900,NA,NA,NA,NA,1,4006400,1904300,NA,4144700,2543900,4
"5493","Q9D620","T(0.999)PLS(0.002)QS(0.997)MS(0.975)VLPT(0.569)S(0.458)K",995830,NA,NA,1071900,NA,2,NA,1047800,NA,NA,1,1280800,NA,1388000,1188100,NA,3,NA,NA,NA,NA,0,1402900,1566100,NA,NA,2,NA,NA,NA,NA,0,NA,NA,NA,NA,1062800,1,NA,NA,837200,547990,1220600,3
"5495","Q9D6E4","GALSPVLMLS(0.006)AAPEPPPRPPPALS(0.4)PPGPGS(0.594)APR",669130,NA,NA,NA,305630,2,NA,NA,NA,NA,0,NA,NA,NA,NA,1061100,1,NA,NA,994780,1545700,2,835390,NA,NA,893300,2,1431400,NA,NA,NA,1,NA,NA,NA,NA,NA,0,NA,NA,NA,NA,NA,0
"5509","Q9D7A8","SESGEEMLVPFQDAPVEVEENT(0.016)ELPDY(0.032)LPEDES(0.736)PT(0.216)K",NA,NA,938620,NA,NA,1,NA,913810,NA,765620,2,1207100,NA,NA,2445100,NA,2,NA,NA,NA,NA,0,NA,NA,3917700,1273200,2,NA,2467000,NA,NA,1,639820,NA,NA,NA,NA,1,NA,NA,2799300,NA,1571700,2
"5549","Q9DBJ3","SIS(0.988)T(0.012)VDLTEK",NA,NA,4114300,2946100,1546100,3,NA,NA,2398100,NA,1,NA,NA,NA,NA,NA,0,NA,891950,NA,NA,1,312580,2013000,1867700,NA,3,NA,2148900,2129900,1797800,3,NA,NA,NA,NA,NA,0,NA,NA,868800,NA,NA,1
"5554","Q9DBR1","RKAEDS(1)DS(1)EPEPEDNVR",4155500,NA,NA,2531400,NA,2,1541000,NA,NA,NA,1,NA,NA,NA,NA,NA,0,872990,4463400,NA,NA,2,896590,NA,NA,1666900,2,2379200,NA,NA,NA,1,3207600,NA,NA,NA,NA,1,1595900,NA,NA,NA,NA,1
"5555","Q9DBR1","RKAEDS(1)DS(1)EPEPEDNVR",4155500,NA,NA,2531400,NA,2,1541000,NA,NA,NA,1,NA,NA,NA,NA,NA,0,872990,4463400,NA,NA,2,896590,NA,NA,1666900,2,2379200,NA,NA,NA,1,3207600,NA,NA,NA,NA,1,1595900,NA,NA,NA,NA,1
"5558","Q9DBR7","KS(0.985)PLIES(0.003)T(0.012)ANMENNQPQK",NA,NA,NA,NA,NA,0,1133700,NA,1293300,852990,3,NA,NA,1429600,NA,1316000,2,1130600,1314400,1772400,1611700,4,749550,NA,NA,1307800,2,NA,NA,NA,NA,0,NA,1695100,NA,NA,NA,1,1601100,1158300,NA,854560,NA,3
"5610","Q9EPQ8","LS(0.648)T(0.172)S(0.18)PATRDEAAS(1)PGAK",NA,NA,NA,NA,1385800,1,NA,1741700,NA,1032800,2,NA,NA,1211400,1840000,811190,3,1854400,NA,1683900,2144600,3,1287500,NA,1397400,NA,2,NA,1206500,NA,NA,1,NA,NA,1639900,NA,NA,1,NA,NA,2498000,NA,NA,1
"5629","Q9EQZ7","RHS(0.996)DVS(0.004)LANAELEDSR",NA,NA,NA,NA,NA,0,1843400,NA,NA,NA,1,NA,NA,NA,NA,NA,0,1459300,NA,NA,NA,1,1370900,NA,3662200,NA,2,NA,NA,1948300,1093500,2,1051700,NA,NA,NA,NA,1,NA,NA,NA,NA,NA,0
"5693","Q9ESJ4","GTSAS(0.001)SAT(0.003)VMT(0.006)PS(0.06)T(0.074)S(0.067)DHHLDAAVS(0.789)R",NA,NA,NA,8048200,5187500,2,NA,NA,NA,2809100,1,NA,NA,5713500,18045000,NA,2,4747400,NA,5798200,6398500,3,9283600,NA,12610000,NA,2,NA,NA,NA,NA,0,NA,NA,5636300,NA,NA,1,NA,NA,NA,9258900,5217000,2
"5712","Q9ESU6","PQQVIQHHPS(1)PR",1178400,NA,953500,1099800,NA,3,NA,NA,1086100,NA,1,182350,NA,NA,NA,NA,1,NA,NA,NA,NA,0,NA,1189200,NA,1421500,2,1247700,NA,NA,NA,1,NA,1522900,NA,NA,NA,1,857140,695210,NA,NA,NA,2
"5725","Q9JHU9","MERPGPGIKPGEVVAT(0.031)S(0.969)PLPCK",NA,NA,NA,2941500,5754600,2,NA,3927500,NA,5185400,2,NA,NA,NA,NA,NA,0,NA,NA,8241600,6267700,2,1868900,NA,15639000,NA,2,NA,NA,9937600,NA,1,6683000,NA,NA,NA,NA,1,4848500,NA,2620900,3700700,NA,3
"5735","Q9JIX8","APVVLQPEQIVS(0.973)EEET(0.027)PPPLLTK",NA,NA,861760,NA,381390,2,624260,NA,2048900,NA,2,NA,NA,465130,NA,NA,1,460970,NA,NA,1946000,2,NA,NA,1605100,986570,2,NA,NA,NA,NA,0,NA,NA,NA,NA,1091100,1,NA,NA,NA,NA,929980,1
"5742","Q9JJA9","NFTQS(1)PEQQR",NA,NA,NA,NA,NA,0,NA,724160,NA,NA,1,NA,NA,NA,2244200,NA,1,1759700,NA,NA,NA,1,580820,NA,2034300,1266100,3,NA,NA,NA,859830,1,NA,NA,1672300,NA,NA,1,NA,NA,2245100,NA,NA,1
"5746","Q9JJG0","VQNS(1)PPVGR",NA,NA,3180000,1852500,NA,2,NA,1233100,NA,76331,2,NA,NA,NA,NA,NA,0,2356400,4191800,NA,NA,2,2134700,1825000,NA,1629100,3,3359500,1204900,NA,NA,2,2084300,NA,NA,NA,NA,1,2563900,2345100,NA,NA,NA,2
"5774","Q9JL04","S(1)ADWTEELGVR",241780,NA,NA,NA,NA,1,NA,NA,NA,NA,0,NA,NA,NA,NA,NA,0,NA,NA,NA,581200,1,661920,NA,NA,280710,2,783960,NA,NA,NA,1,NA,NA,773850,NA,NA,1,NA,NA,NA,NA,NA,0
"5781","Q9JLI8","ATTAAS(0.002)S(0.007)AS(0.991)EPEVEPQAGPEAEGEEDEAK",NA,NA,NA,NA,NA,0,NA,NA,NA,NA,0,NA,NA,NA,NA,NA,0,NA,NA,NA,NA,0,NA,1490700,NA,1469600,2,NA,NA,NA,NA,0,NA,NA,NA,NA,NA,0,NA,NA,NA,NA,NA,0
"5804","Q9JLV1","EADSKPVSQKS(1)PPPAEK",481410,NA,NA,85680,NA,2,NA,NA,NA,NA,0,NA,NA,NA,NA,34679,1,NA,NA,NA,NA,0,67380,118610,NA,NA,2,NA,NA,NA,NA,0,NA,342720,NA,NA,NA,1,126190,NA,NA,NA,NA,1
"5821","Q9JMH9","FSHSYLS(0.964)DS(0.035)DT(0.001)EAK",12239000,NA,NA,NA,NA,1,NA,NA,NA,NA,0,NA,NA,NA,NA,NA,0,NA,NA,NA,NA,0,14650000,NA,13576000,NA,2,NA,NA,NA,NA,0,NA,NA,NA,NA,NA,0,NA,NA,NA,NA,NA,0
"5831","Q9JMH9","S(0.003)S(0.003)S(0.989)PT(0.003)S(0.001)HWK",11666000,NA,NA,3465700,NA,2,5013400,NA,NA,NA,1,1062700,NA,NA,NA,NA,1,NA,NA,NA,NA,0,NA,967610,NA,1397300,2,NA,NA,NA,NA,0,NA,NA,NA,NA,NA,0,NA,NA,NA,NA,NA,0
"5847","Q9QWI6","EVSGPNET(0.148)S(0.804)S(0.047)PGS(0.001)EKPSGSR",NA,2935600,6296200,NA,NA,2,7570800,NA,NA,NA,1,NA,NA,7400100,3947300,6469100,3,9510000,NA,NA,NA,1,3972100,NA,13214000,NA,2,NA,NA,NA,NA,0,NA,NA,NA,NA,NA,0,NA,8298100,4748000,NA,NA,2
"5849","Q9QWI6","EVSGPNET(0.005)S(0.014)S(0.109)PGS(0.872)EKPSGSR",598390,NA,1233100,NA,NA,2,1059700,1175500,1707200,NA,3,NA,NA,1424500,744270,781060,3,2104800,2660300,1906800,NA,3,1336600,830740,3183300,NA,3,3596300,1732000,NA,934580,3,NA,NA,NA,1004800,NA,1,1204500,1683000,NA,NA,426850,3
"5873","Q9QWI6","LPPS(0.987)S(0.013)PQK",1413300,NA,1345500,NA,NA,2,1852900,NA,NA,NA,1,NA,NA,NA,NA,198290,1,NA,2153100,NA,NA,1,1444600,NA,837190,NA,2,2559000,NA,NA,NA,1,1697500,NA,NA,NA,NA,1,1849900,NA,NA,NA,NA,1
"5874","Q9QWI6","LPPS(0.19)S(0.81)PQK",NA,NA,NA,NA,NA,0,NA,NA,NA,NA,0,NA,NA,1412000,NA,NA,1,NA,2153100,605190,NA,2,NA,NA,837190,1331200,2,NA,NA,NA,NA,0,NA,NA,NA,NA,NA,0,NA,1764100,NA,NA,NA,1
"5877","Q9QWI6","LS(0.952)YAS(0.048)AESLETMSEAELPLGFSR",NA,NA,432150,NA,NA,1,NA,429300,NA,610820,2,NA,NA,NA,2206500,414500,2,NA,NA,NA,1307400,1,NA,NA,2996500,622650,2,1480100,NA,NA,NA,1,NA,NA,NA,1614700,NA,1,NA,1399500,1403800,NA,3282500,3
"5919","Q9QXS1","S(0.101)S(0.213)S(0.687)VGSSSSYPISSAGPR",NA,NA,NA,NA,NA,0,NA,11612000,NA,NA,1,7770000,NA,NA,NA,NA,1,NA,NA,NA,22271000,1,12178000,NA,NA,5918800,2,NA,NA,NA,NA,0,NA,NA,16180000,NA,NA,1,NA,NA,NA,NA,NA,0
"5941","Q9QXW9","NHPGSDT(0.131)S(0.869)PEAEAS(0.012)S(0.988)GGGGVALK",1625500,NA,2065700,2088800,NA,3,3137000,NA,3677900,1197500,3,NA,NA,2211700,NA,NA,1,2491500,3606800,NA,NA,2,1281500,1383200,NA,2178700,3,NA,NA,NA,1457700,1,1878900,NA,NA,NA,NA,1,NA,NA,833340,NA,NA,1
"5993","Q9QYC0","YSDVEVPAS(0.096)VT(0.01)GHS(0.037)FAS(0.845)DGDS(0.007)GT(0.003)CS(0.003)PLR",NA,NA,NA,NA,NA,0,NA,NA,NA,NA,0,NA,5777800,NA,NA,NA,1,NA,NA,NA,11857000,1,8364200,881720,NA,NA,2,NA,NA,NA,21068000,1,NA,NA,37943000,NA,NA,1,NA,NA,NA,NA,NA,0
"6001","Q9QYC0","WLHSGRGDDASEEGQNGS(0.265)S(0.735)PK",NA,NA,NA,NA,NA,0,920910,NA,1328500,NA,2,NA,NA,NA,NA,NA,0,NA,1591300,NA,NA,1,NA,NA,2510500,915860,2,NA,NA,NA,NA,0,NA,NA,NA,NA,NA,0,NA,NA,1901600,NA,NA,1
"6014","Q9QYF9","THS(0.79)T(0.075)S(0.127)S(0.729)S(0.253)IGS(0.026)GES(0.001)PFSR",NA,NA,NA,NA,5290300,1,NA,6896700,NA,3677000,2,2403800,2433500,NA,4091000,NA,3,3063600,NA,4553200,4414600,3,2406600,NA,4328500,NA,2,NA,4784800,6179800,NA,2,NA,NA,NA,NA,NA,0,NA,3077800,5623600,NA,NA,2
"6079","Q9QYR6","PASPALSEGS(0.999)S(0.954)S(0.047)EATTPVISSVAER",NA,NA,2195300,1924800,NA,2,2790000,2339600,NA,NA,2,3117400,NA,NA,7008100,NA,2,2541400,NA,NA,NA,1,3866000,NA,NA,4625000,2,4457700,NA,NA,NA,1,NA,NA,2425900,NA,NA,1,2089800,NA,3951400,NA,NA,2
"6080","Q9QYR6","PAS(0.067)PALS(0.396)EGS(0.379)S(0.379)S(0.763)EAT(0.013)T(0.003)PVISSVAER",4560900,NA,2195300,1924800,NA,3,2790000,2339600,4305600,NA,3,3117400,NA,NA,7008100,2247600,3,2541400,NA,17715000,NA,2,3866000,NA,NA,18357000,2,4457700,NA,NA,NA,1,NA,NA,3314400,NA,NA,1,2089800,NA,3951400,13801000,NA,3
"6105","Q9QYR6","VPLS(0.787)RS(0.208)PQAQDT(0.004)LGSLAGGQTGCTIQLLPEQDK",2923800,NA,NA,NA,NA,1,NA,NA,3174400,NA,1,NA,NA,NA,NA,NA,0,NA,NA,NA,10999000,1,NA,NA,17004000,3072000,2,11893000,NA,NA,NA,1,NA,NA,NA,NA,NA,0,276710,NA,5334800,NA,4341500,3
"6111","Q9QYR6","YS(0.584)EERES(0.208)T(0.208)FLDEGPNEQEITPLQHTPR",NA,NA,NA,NA,NA,0,NA,NA,NA,NA,0,1574100,NA,NA,3465500,1908100,3,NA,NA,3301800,NA,1,3117300,NA,6166400,NA,2,NA,NA,NA,NA,0,2495900,NA,NA,NA,NA,1,NA,2869000,2408800,NA,NA,2
"6113","Q9QYX7","RAS(0.062)Y(0.134)DS(0.799)VEDS(0.004)SES(0.261)ENS(0.739)PVAR",1332600,NA,NA,NA,NA,1,NA,NA,NA,NA,0,NA,NA,NA,NA,1268700,1,NA,NA,NA,NA,0,1115400,1060000,NA,NA,2,NA,NA,NA,NA,0,NA,NA,NA,1671100,NA,1,1234000,NA,NA,719360,NA,2
"6186","Q9QZL6","ADHGVPLPGS(1)PPPAVALPLPSR",NA,NA,NA,NA,NA,0,NA,NA,NA,NA,0,NA,NA,NA,NA,NA,0,379880,1994100,NA,992270,3,1122800,NA,NA,1138800,2,NA,NA,NA,NA,0,NA,NA,NA,NA,NA,0,299490,NA,NA,NA,NA,1
"6284","Q9WV69","S(0.043)T(0.043)S(0.914)PPPSPEVWAESR",7006500,NA,NA,2418700,NA,2,NA,NA,NA,2078800,1,NA,1873200,5355000,NA,NA,2,787790,NA,NA,NA,1,1785800,NA,NA,2915000,2,1452700,NA,NA,NA,1,NA,NA,NA,1529000,NA,1,NA,NA,NA,1811600,NA,1
"6374","Q9Z180","ERGS(0.578)Y(0.189)ES(0.066)S(0.066)MS(0.067)PGMPS(0.035)PHLKVDQT(0.095)AAHS(0.904)K",12769000,NA,NA,13335000,NA,2,10290000,NA,NA,NA,1,NA,NA,NA,NA,NA,0,10951000,NA,NA,NA,1,10307000,NA,NA,12037000,2,NA,NA,10936000,7639700,2,NA,NA,NA,NA,NA,0,NA,NA,NA,NA,NA,0
"6375","Q9Z180","ERGS(0.578)Y(0.189)ES(0.066)S(0.066)MS(0.067)PGMPS(0.035)PHLKVDQT(0.095)AAHS(0.904)K",12769000,NA,NA,13335000,NA,2,10290000,NA,NA,NA,1,NA,NA,NA,NA,NA,0,10951000,NA,NA,NA,1,10307000,NA,NA,12037000,2,NA,NA,10936000,7639700,2,NA,NA,NA,NA,NA,0,NA,NA,NA,NA,NA,0
"6402","Q9Z1W9","RVPGS(0.006)S(0.994)GHLHK",3349600,NA,NA,1294000,NA,2,NA,NA,NA,NA,0,2083800,NA,110290,NA,NA,2,225220,NA,121620,NA,2,2879600,311560,318860,1047800,4,630760,167930,NA,NA,2,NA,196670,NA,NA,NA,1,1455000,245120,NA,NA,NA,2
"6409","Q9Z204","NEKS(1)EEEQSSASVK",1287700,1305700,151120,NA,94680,4,171430,68856,79909,NA,3,NA,5226100,NA,NA,152490,2,NA,155510,NA,112360,2,NA,NA,133650,901750,2,455510,NA,120900,68683,3,1081500,NA,NA,NA,NA,1,NA,88826,58808,NA,NA,2
"6428","Q9Z2F7","DHS(0.907)S(0.047)QS(0.047)EEEVVEGEK",NA,NA,NA,NA,NA,0,NA,NA,NA,NA,0,NA,NA,NA,NA,NA,0,2861200,NA,3474200,NA,2,1661400,NA,NA,2167700,2,NA,NA,NA,1850200,1,NA,NA,NA,NA,NA,0,2062200,NA,NA,NA,NA,1
"6475","A2A5R2","PMQSKPQS(1)PVIQAT(0.904)AGS(0.096)PK",NA,NA,NA,NA,NA,0,NA,2424500,NA,NA,1,NA,NA,3337700,3307300,2828600,3,2386000,NA,3627800,NA,2,791590,NA,NA,2876700,2,NA,NA,2287000,NA,1,NA,NA,2440900,NA,NA,1,NA,NA,NA,NA,NA,0
"6485","A2AJA9","DT(0.032)RGS(0.984)S(0.984)PEGRRPPVVVNLS(1)T(1)S(1)PR",NA,NA,2813800,NA,NA,1,NA,2059100,NA,NA,1,NA,NA,1408500,NA,NA,1,NA,NA,NA,NA,0,NA,NA,5104200,2138900,2,NA,NA,NA,NA,0,NA,NA,NA,NA,4140100,1,NA,2432500,3315500,2233300,3493900,4
"6487","A2AJI0","RS(0.018)S(0.424)QPS(0.379)PT(0.425)T(0.754)VPASDSPPAK",NA,NA,6208100,NA,NA,1,NA,NA,NA,NA,0,NA,9853000,NA,NA,6558200,2,12515000,NA,NA,NA,1,6267400,NA,NA,13178000,2,9695600,NA,NA,NA,1,NA,NA,NA,NA,NA,0,NA,NA,NA,NA,NA,0
"6524","G5E829","IEDSEPHIPLIDDT(1)DAEDDAPTK",NA,NA,NA,NA,NA,0,NA,NA,NA,NA,0,NA,8046900,NA,13401000,10398000,3,7556400,NA,NA,NA,1,NA,NA,14795000,8115400,2,NA,NA,NA,NA,0,NA,NA,NA,9078200,NA,1,NA,NA,NA,NA,NA,0
"6550","O35526","T(0.907)AKDS(0.093)DDDDDVTVTVDRDR",61404000,NA,NA,NA,23608000,2,48183000,NA,NA,NA,1,NA,NA,83761000,NA,NA,1,NA,NA,55316000,NA,1,42772000,NA,49860000,131830000,3,NA,NA,NA,NA,0,NA,NA,NA,NA,NA,0,NA,NA,NA,42128000,NA,1
"6624","P04370","YLAT(0.001)AS(0.155)T(0.844)MDHAR",NA,NA,NA,1507000,NA,1,NA,NA,NA,NA,0,1215500,NA,NA,NA,NA,1,NA,NA,NA,NA,0,2798200,NA,NA,1278100,2,NA,NA,NA,NA,0,NA,NA,NA,NA,NA,0,NA,NA,NA,NA,NA,0
"6627","P06837","AGSAETESAAKAT(0.994)T(0.006)DNS(0.882)PS(0.116)S(0.002)K",128980,NA,121460,127350,NA,3,115300,NA,NA,NA,1,NA,NA,NA,NA,NA,0,192930,286130,NA,NA,2,NA,147370,NA,124590,2,357600,NA,NA,NA,1,211850,NA,NA,NA,NA,1,168040,NA,NA,NA,NA,1
"6628","P06837","AT(0.121)T(0.86)DNS(0.019)PS(0.2)S(0.8)KAEDGPAK",693250,NA,NA,526220,NA,2,NA,NA,NA,NA,0,204330,2236000,NA,NA,NA,2,468760,1019600,NA,NA,2,511760,445870,66447,434130,4,1275000,NA,NA,NA,1,NA,703650,NA,NA,NA,1,NA,202670,NA,NA,NA,1
"6632","P08226","NEVHTMLGQS(0.048)T(0.952)EEIR",NA,NA,NA,NA,2309100,1,NA,1970500,2729200,2019200,3,973660,NA,2386700,1660300,NA,3,NA,NA,3145800,2252300,2,1724900,NA,3010200,NA,2,NA,3017700,NA,NA,1,2054600,NA,NA,NA,NA,1,1493700,2428800,NA,NA,NA,2
"6634","P08553","EVT(1)KESPKEEK",NA,NA,42505,NA,NA,1,NA,NA,51475,NA,1,NA,860950000,NA,NA,84688,2,NA,2467600,20923,30727,3,NA,1846400,679240,NA,2,4869300,88709,NA,NA,2,NA,NA,NA,988280,NA,1,NA,1973300,NA,NA,31468,2
"6686","P14873","TLEVVS(0.074)PS(0.674)QS(0.346)VT(0.78)GS(0.03)AGHT(0.025)PY(0.016)Y(0.016)QS(0.027)PT(0.012)DEK",NA,4433200,NA,15324000,NA,2,NA,NA,NA,NA,0,NA,NA,5589900,NA,NA,1,NA,48714000,NA,NA,1,NA,NA,3878200,4221800,2,10506000,14592000,8615900,NA,3,NA,2164800,NA,NA,NA,1,NA,NA,NA,NA,NA,0
"6690","P14873","T(0.817)T(0.12)RS(0.052)PDT(0.009)S(0.002)AYCYETMEK",NA,NA,5999100,NA,3123700,2,NA,3194800,NA,NA,1,NA,NA,NA,4384200,4829500,2,NA,NA,NA,5288600,1,NA,4290300,8409300,NA,2,7529000,NA,NA,NA,1,NA,NA,NA,NA,NA,0,NA,NA,4558100,NA,885230,2
"6696","P15508","ERQT(0.921)PERPT(0.078)EEPGPQEEEGETAGEAPQVHHAATER",NA,NA,NA,NA,4735000,1,NA,NA,3664200,NA,1,NA,NA,NA,NA,NA,0,NA,NA,7582400,NA,1,NA,4485400,NA,5097700,2,NA,6667100,NA,4234000,2,3429700,NA,NA,NA,NA,1,NA,5669300,3310200,NA,2567500,3
"6699","P16054","KQET(1)PDEVGSQR",1304800,NA,504460,914060,NA,3,1691300,NA,NA,NA,1,NA,544160,230120,NA,NA,2,NA,575880,NA,NA,1,NA,1352700,NA,659910,2,301930,NA,NA,NA,1,NA,2774800,NA,NA,NA,1,1007300,NA,NA,NA,NA,1
"6706","P17751","IIYGGS(0.024)VT(0.972)GAT(0.004)CK",2793500,NA,NA,1152000,3137900,3,NA,1823800,4175200,1994300,3,NA,NA,1878500,NA,3527700,2,1276100,5585200,2257600,3096600,4,NA,990450,5789500,NA,2,5030500,1103800,3426500,2901400,4,NA,NA,4799400,NA,NA,1,2454100,NA,1517600,1621700,NA,3
"6708","P18572","RKPDQT(1)LDEDDPGAAPLK",682320,NA,1177500,1031800,NA,3,1206600,NA,NA,767620,2,NA,NA,1493100,1117700,1121500,3,1220500,998380,1742000,1435400,4,477690,NA,NA,1423000,2,NA,1022000,719860,NA,2,NA,NA,NA,1098000,NA,1,531110,1335500,NA,NA,NA,2
"6731","P20357","S(0.5)T(0.5)ELGSDYYELSDSR",2606000,NA,NA,NA,NA,1,NA,NA,NA,NA,0,NA,NA,NA,NA,NA,0,NA,NA,NA,NA,0,7824500,NA,9094600,NA,2,NA,NA,NA,NA,0,NA,NA,NA,NA,NA,0,NA,NA,NA,NA,NA,0
"6762","P28652","ES(0.002)S(0.007)DS(0.023)T(0.028)NT(0.895)T(0.045)IEDEDAK",5258800,NA,NA,8508200,NA,2,NA,4374100,NA,NA,1,3104700,NA,1307000,NA,NA,2,NA,NA,NA,NA,0,5536600,7700300,8560000,NA,3,NA,1642600,NA,NA,1,NA,NA,NA,NA,NA,0,NA,NA,NA,NA,NA,0
"6775","P30275","PVSPLLT(1)AAGMAR",NA,NA,NA,NA,NA,0,NA,NA,NA,NA,0,NA,NA,NA,NA,656420,1,NA,NA,NA,NA,0,NA,239050,967520,NA,2,NA,NA,NA,682540,1,904270,NA,NA,NA,NA,1,632870,NA,NA,848450,NA,2
"6798","P46097","GGQDDDDAET(0.766)GLT(0.234)EGEGEGEEEKEPENLGK",NA,NA,NA,NA,NA,0,NA,NA,NA,NA,0,NA,NA,NA,NA,NA,0,NA,34094000,NA,NA,1,NA,NA,19185000,15427000,2,NA,NA,NA,NA,0,NA,NA,NA,NA,NA,0,NA,NA,NA,NA,NA,0
"6819","P52480","EAT(0.927)ES(0.048)FAS(0.024)DPILYRPVAVALDTK",NA,NA,929840,NA,NA,1,NA,NA,NA,NA,0,NA,NA,NA,NA,1921100,1,NA,NA,707350,NA,1,465130,NA,2693900,NA,2,NA,NA,NA,NA,0,NA,NA,NA,NA,NA,0,NA,NA,NA,NA,NA,0
"6831","P56695","MNS(0.061)GT(0.915)PPPS(0.023)PS(0.001)GPPPPPAPQPQAR",2083500,2198200,NA,NA,NA,2,NA,NA,2232900,NA,1,NA,1953500,NA,NA,NA,1,NA,3038100,NA,NA,1,NA,1680600,NA,1589000,2,NA,NA,NA,1054700,1,NA,NA,NA,NA,NA,0,NA,NA,NA,1708100,NA,1
"6851","P62071","FQEQECPPS(0.043)PEPT(0.957)R",NA,2687200,6585800,NA,3197800,3,2390700,NA,NA,NA,1,725460,NA,5536400,NA,NA,2,NA,6986000,NA,4588700,2,1867100,381430,4374600,5135300,4,5411700,NA,4651200,NA,2,NA,NA,6874800,NA,NA,1,3673400,4654700,2861700,NA,1249700,4
"6901","P97492","PLREPGSSHLGS(0.03)PDT(0.97)AR",NA,NA,NA,NA,1429800,1,NA,NA,NA,NA,0,NA,NA,1674300,NA,NA,1,2210000,NA,1566500,NA,2,1869800,NA,1422300,NA,2,NA,NA,NA,NA,0,796750,NA,NA,NA,NA,1,NA,NA,NA,NA,NA,0
"6907","P97863","PLFSS(0.002)T(0.943)S(0.056)PQDSSPR",NA,NA,1651100,993170,1573300,3,NA,1768700,NA,1430800,2,NA,NA,2122500,1717700,NA,2,NA,NA,NA,NA,0,1419100,1346900,NA,NA,2,NA,1443700,NA,NA,1,NA,1900000,NA,NA,NA,1,1686100,1678900,NA,1790200,1555800,4
"6913","P98200","AT(0.759)S(0.241)VGDQLEAPAR",NA,NA,NA,2115100,NA,1,NA,NA,NA,NA,0,NA,NA,NA,NA,NA,0,NA,NA,NA,2487000,1,1169100,NA,NA,2366000,2,NA,NA,NA,2120600,1,NA,NA,NA,2370300,NA,1,NA,2232100,NA,NA,NA,1
"6917","Q01341","NAEPPS(0.313)PT(0.687)PAAHTR",656440,NA,570630,NA,NA,2,1557300,NA,906600,NA,2,627120,NA,1398500,575970,NA,3,NA,1665100,NA,NA,1,NA,739340,1221300,1168300,3,NA,NA,NA,NA,0,NA,NA,NA,NA,NA,0,NA,NA,864040,NA,NA,1
"6931","Q03517","IET(0.017)QT(0.983)QEEVRDS(1)K",NA,NA,NA,NA,NA,0,NA,NA,541740,104130,2,NA,NA,555150,NA,NA,1,NA,NA,356290,202510,2,NA,368090,429090,NA,2,NA,351510,NA,NA,1,NA,NA,325570,NA,NA,1,239700,NA,182750,NA,NA,2
"6932","Q03717","NHFESSPLPT(0.688)S(0.312)PK",NA,NA,1414100,NA,NA,1,NA,2727000,NA,1916800,2,NA,NA,NA,NA,NA,0,NA,NA,4924900,NA,1,4900500,NA,NA,3468500,2,NA,NA,NA,2855300,1,NA,NA,NA,NA,NA,0,NA,NA,5695800,NA,NA,1
"6939","Q05AA6","GQT(0.033)T(0.967)PDTEVADDVGSK",1110400,NA,NA,805680,NA,2,1489700,NA,1101800,NA,2,827610,1650900,NA,NA,NA,2,1955700,1886900,NA,NA,2,900020,1152800,NA,1113500,3,1645700,NA,NA,1114500,2,NA,NA,NA,NA,643710,1,1231200,1057300,NA,NA,NA,2
"7008","Q3UNH4","VITQIPGAT(0.954)S(0.046)PGKVETPSLQK",NA,NA,NA,NA,NA,0,NA,8490100,NA,NA,1,NA,14600000,NA,NA,NA,1,NA,15105000,12262000,NA,2,12665000,3558400,40913000,NA,3,48467000,NA,NA,NA,1,12711000,NA,NA,NA,NA,1,NA,NA,NA,9808600,5343500,2
"7099","Q61206","PLHELIMQLLEET(1)PEEK",NA,NA,NA,NA,NA,0,NA,NA,NA,NA,0,11106000,NA,NA,3248800,1113600,3,NA,NA,NA,1151800,1,NA,NA,11421000,316330,2,1191600,378990,5133600,NA,3,NA,NA,NA,1994200,NA,1,NA,NA,NA,NA,665520,1
"7116","Q61548","T(0.166)IDT(0.637)S(0.195)PPVDIFAT(0.002)ASAAAPVSSAK",NA,NA,NA,NA,NA,0,NA,NA,NA,NA,0,NA,NA,NA,NA,NA,0,NA,NA,NA,NA,0,NA,502920,NA,58905000,2,NA,NA,NA,NA,0,NA,NA,NA,NA,NA,0,NA,NA,NA,NA,NA,0
"7138","Q62188","GMYDGPVFDLT(0.027)T(0.88)T(0.092)PK",NA,NA,NA,NA,NA,0,NA,NA,NA,NA,0,NA,NA,NA,NA,NA,0,NA,NA,NA,NA,0,NA,85846,NA,1712100,2,NA,NA,NA,NA,0,NA,NA,NA,NA,NA,0,NA,NA,NA,1298500,NA,1
"7158","Q64012","LPAPQEDT(0.958)AS(0.039)EAGT(0.003)PQGEVQTR",NA,NA,853730,NA,NA,1,NA,1444600,2121500,NA,2,NA,NA,NA,NA,1413800,1,1617900,4340900,NA,1621700,3,1638200,2153600,NA,NA,2,NA,NA,NA,NA,0,NA,NA,NA,NA,NA,0,1846100,1240000,NA,NA,NA,2
"7162","Q640R3","T(0.001)HT(0.985)S(0.014)PPRAPS(0.856)S(0.144)PGR",NA,14389000,NA,NA,NA,1,NA,NA,NA,NA,0,NA,NA,21907000,14820000,9192200,3,NA,36675000,NA,NA,1,NA,NA,23360000,15093000,2,24880000,NA,NA,NA,1,NA,NA,NA,NA,NA,0,NA,18998000,NA,NA,NA,1
"7184","Q69Z98","SISGAS(0.002)S(0.008)GLS(0.186)T(0.733)S(0.072)PLSSPR",NA,NA,NA,NA,NA,0,9692200,NA,5312400,NA,2,NA,6955300,7570500,NA,NA,2,5019900,NA,NA,NA,1,6731300,NA,13171000,4670900,3,NA,NA,NA,NA,0,10072000,NA,NA,NA,NA,1,NA,NA,7603300,9409100,NA,2
"7237","Q6WVG3","EGSLGDELLPLGYAEPEPQEGASAGAPS(0.192)PT(0.729)LELAS(0.078)R",NA,NA,NA,NA,NA,0,NA,NA,NA,NA,0,3291100,NA,NA,NA,5096200,2,NA,NA,NA,NA,0,986810,NA,6605600,2151900,3,NA,NA,NA,NA,0,NA,NA,NA,NA,NA,0,NA,NA,NA,NA,NA,0
"7241","Q6Y7W8","ALSSGGS(0.004)IT(0.929)S(0.066)PPLSPALPK",NA,NA,NA,5969200,NA,1,NA,NA,5145700,NA,1,4894400,NA,6312900,6005600,4035200,4,NA,NA,NA,NA,0,5298200,NA,7066800,NA,2,NA,NA,NA,NA,0,NA,NA,NA,NA,NA,0,NA,NA,NA,NA,NA,0
"7251","Q6ZPZ3","ATAAPTAAS(0.028)S(0.181)T(0.516)PPPEGAT(0.228)PQPGVHNLPVPT(0.013)LFGT(0.032)VK",NA,NA,NA,NA,NA,0,NA,NA,NA,NA,0,NA,NA,NA,NA,NA,0,465240,NA,NA,NA,1,1071200,NA,NA,1210700,2,NA,NA,NA,NA,0,NA,NA,NA,NA,NA,0,NA,NA,NA,NA,NA,0
"7284","Q7TSC1","EGPEPPEEVPPPT(0.02)T(0.98)PPAPK",NA,2651200,NA,NA,2033700,2,5602200,3842300,NA,2731400,3,NA,NA,4015800,3181400,NA,2,3046500,NA,3104200,2057900,3,2127300,NA,4093200,1202500,3,855990,4032700,3811700,NA,3,NA,2852200,NA,NA,NA,1,NA,2992300,2440200,NA,NA,2
"7291","Q7TSK3","GGALREERPGAAGGGAS(0.955)APGS(0.512)PDET(0.533)AR",NA,NA,1703300,2435000,NA,2,1102800,917710,1264700,NA,3,NA,NA,NA,1131000,2080200,2,1408800,2431600,1750100,1101000,4,1722400,NA,1835800,1801200,3,2366700,1505900,1979200,924230,4,NA,NA,1464800,NA,NA,1,1357300,1256100,NA,942670,1166500,4
"7295","Q80TE7","LET(0.844)T(0.152)PT(0.002)TS(0.001)PLPERK",NA,NA,NA,NA,NA,0,NA,NA,NA,NA,0,NA,NA,NA,NA,NA,0,1282500,952700,NA,1426900,3,1449400,NA,2023500,NA,2,1755400,NA,NA,NA,1,NA,NA,NA,1656600,NA,1,NA,2009300,NA,NA,NA,1
"7307","Q80U28","RS(0.002)PT(0.998)ENVNTPVGK",1177800,NA,1923500,1488800,NA,3,1692300,998370,1755400,NA,3,1362600,NA,2355000,NA,NA,2,1556000,2153400,NA,NA,2,NA,1973100,NA,1709500,2,NA,NA,NA,2203800,1,NA,NA,NA,1573200,NA,1,2833500,NA,NA,NA,NA,1
"7334","Q80X80","SDISERPSVDDVES(0.003)ET(0.206)GS(0.218)T(0.573)GALETR",NA,NA,NA,NA,NA,0,3927400,NA,NA,NA,1,NA,NA,NA,NA,NA,0,NA,NA,NA,NA,0,6366100,NA,NA,7068800,2,NA,NA,NA,NA,0,NA,NA,NA,NA,NA,0,NA,NA,NA,NA,NA,0
"7340","Q80XQ2","EFT(0.799)GS(0.201)PPPSATK",NA,NA,NA,2796900,NA,1,NA,NA,NA,3230500,1,NA,3850600,NA,NA,NA,1,NA,NA,NA,NA,0,331330,197380,NA,NA,2,478980,NA,NA,NA,1,NA,NA,NA,289930,NA,1,NA,NA,NA,NA,NA,0
"7370","Q8BGV8","AISAPT(0.857)S(0.125)PT(0.019)R",NA,6910300,11434000,NA,NA,2,NA,NA,12314000,9119500,2,NA,NA,12907000,NA,NA,1,NA,NA,NA,10814000,1,NA,10770000,NA,10088000,2,12709000,NA,NA,NA,1,NA,NA,NA,NA,NA,0,NA,NA,NA,9306100,NA,1
"7371","Q8BGV8","AISAPT(0.104)S(0.087)PT(0.81)R",NA,NA,NA,NA,NA,0,NA,NA,NA,NA,0,NA,NA,NA,NA,NA,0,9711300,NA,NA,NA,1,8077400,NA,9047700,NA,2,NA,NA,NA,NA,0,NA,NA,NA,NA,NA,0,NA,8542200,NA,NA,NA,1
"7476","Q8C8R3","T(0.001)PT(0.001)EEGT(0.092)PT(0.902)S(0.004)EQNPFLFQEGK",7719200,NA,NA,7751800,NA,2,NA,NA,NA,NA,0,NA,NA,NA,9780400,NA,1,4987600,12039000,9012800,NA,3,7786900,4194700,NA,5493300,3,19359000,NA,NA,NA,1,NA,NA,9056500,NA,NA,1,NA,11560000,8815800,11901000,NA,3
"7484","Q8C8T7","S(0.159)S(0.159)PVPET(0.672)ILT(0.011)VTPAATVLR",357140,NA,NA,114830,NA,2,NA,NA,NA,NA,0,NA,NA,NA,NA,NA,0,340770,NA,NA,NA,1,623700,NA,1875100,NA,2,NA,NA,NA,NA,0,NA,NA,NA,NA,NA,0,NA,596100,NA,NA,NA,1
"7485","Q8CB93","DVT(0.027)KT(0.957)VS(0.655)S(0.655)S(0.668)AY(0.036)VIS(0.002)PS(1)MK",NA,NA,NA,2330700,NA,1,NA,2272100,2752700,NA,2,NA,2768800,2289100,1720700,1594300,4,NA,2601100,2253300,NA,2,NA,1322200,2641100,NA,2,NA,2001700,NA,NA,1,NA,NA,2736400,NA,NA,1,NA,NA,1551500,NA,NA,1
"7524","Q8K1A6","LANHDEGSDDEEEET(1)PKK",159990,NA,135700,409380,NA,3,320790,NA,NA,NA,1,154980,NA,199380,NA,NA,2,NA,292470,NA,NA,1,508940,201120,NA,469550,3,259870,NA,NA,NA,1,NA,301860,NA,NA,NA,1,428560,NA,NA,NA,NA,1
"7533","Q8K221","HPS(0.006)HS(0.018)T(0.947)S(0.029)PSGPGDEVAR",NA,NA,NA,1060100,NA,1,1985300,NA,NA,NA,1,NA,NA,NA,NA,427990,1,NA,NA,NA,780690,1,1320600,NA,1466300,1738200,3,NA,NA,NA,NA,0,1411300,NA,NA,NA,NA,1,NA,NA,651870,NA,NA,1
"7540","Q8K3F6","IDMIFTPGPPS(0.147)T(0.852)PK",1396300,NA,NA,NA,2188500,2,1901200,NA,NA,2226600,2,NA,NA,NA,NA,2125100,1,1379200,NA,NA,2093200,2,1699100,NA,2798500,2552000,3,3196600,NA,NA,1434900,2,NA,NA,3265300,NA,NA,1,NA,NA,3534700,NA,NA,1
"7587","Q8VCY8","LSPWEDLSQAPT(0.992)MDS(0.008)PLEK",895420,NA,NA,NA,728550,2,NA,NA,1573800,1019200,2,883790,NA,889270,1655600,1493600,4,NA,NA,NA,1202000,1,656260,NA,NA,1677800,2,1497200,NA,NA,NA,1,NA,NA,NA,1103600,NA,1,NA,707230,NA,NA,NA,1
"7640","Q922S4","RPEAVQNT(0.79)S(0.21)VDASEDQKDEK",NA,NA,3258400,1027800,NA,2,NA,1375100,2466900,NA,2,NA,NA,4582300,NA,NA,1,NA,NA,3216000,NA,1,626020,NA,5827200,NA,2,3336700,2274600,NA,NA,2,NA,1690500,NA,NA,NA,1,1482500,NA,NA,NA,1028800,2
"7660","Q99JF8","ET(0.719)NVS(0.252)KEDT(0.056)DQEEKAS(0.96)NEDVT(0.013)K",NA,6337500,NA,NA,NA,1,NA,NA,NA,NA,0,NA,NA,NA,NA,NA,0,NA,NA,NA,NA,0,6357900,9063900,NA,NA,2,NA,NA,11131000,NA,1,NA,NA,NA,NA,2411600,1,NA,NA,NA,NA,NA,0
"7764","Q9EQZ7","TGSVQT(0.834)S(0.163)PS(0.001)S(0.002)TPGTGR",NA,5512500,5262900,NA,NA,2,NA,4744000,NA,NA,1,1851700,NA,1023000,NA,NA,2,NA,NA,NA,NA,0,NA,NA,5152500,1228900,2,NA,2226200,5293200,NA,2,NA,NA,NA,5270500,NA,1,5153900,NA,NA,3714100,NA,2
"7771","Q9ES97","ET(0.003)T(0.003)GGAPT(0.939)MS(0.056)PDLEQEQLTIR",3795100,NA,4979600,1870100,NA,3,3202500,3797400,4350100,NA,3,NA,NA,NA,6521400,NA,1,NA,5167600,NA,NA,1,4723600,2720900,NA,5014300,3,6262500,NA,3672900,NA,2,NA,NA,NA,3970300,NA,1,4996400,4274100,NA,2856200,NA,3
"7804","Q9JM14","DTEVFICT(0.025)T(0.975)PLLK",NA,NA,NA,NA,NA,0,NA,554640,804300,524280,3,1144100,NA,NA,NA,NA,1,NA,NA,NA,NA,0,371540,NA,NA,935590,2,NA,749100,NA,NA,1,NA,NA,NA,963800,NA,1,NA,700830,NA,NA,NA,1
"7812","Q9QWI6","GLDFEIPPPS(0.99)PPLNLHELS(0.082)GPAEGT(0.208)PLT(0.72)PK",NA,NA,NA,NA,NA,0,NA,NA,NA,NA,0,NA,NA,NA,NA,NA,0,NA,NA,NA,1414400,1,453330,NA,2651200,NA,2,1564000,NA,NA,NA,1,NA,NA,NA,NA,NA,0,NA,947450,NA,NA,NA,1
"7857","Q9QYR6","ET(0.236)S(0.808)PT(0.912)RGEPVPAWEGKS(0.043)PEQEVR",NA,NA,NA,527810,NA,1,NA,NA,NA,NA,0,NA,NA,NA,NA,NA,0,684260,NA,NA,NA,1,814530,20252000,NA,1967100,3,NA,NA,420560,NA,1,NA,NA,NA,96741000,NA,1,355100,NA,NA,NA,NA,1
"7869","Q9QYR6","TEATQGLDYVPSAGTIS(0.977)PT(0.928)S(0.057)S(0.038)LEEDK",NA,NA,NA,NA,NA,0,NA,27821000,NA,8782500,2,NA,5369200,NA,NA,NA,1,NA,41821000,NA,NA,1,7448200,1541100,NA,NA,2,6751400,NA,NA,NA,1,6680300,NA,NA,NA,NA,1,NA,NA,NA,NA,NA,0
"7873","Q9QYR6","VPS(0.006)APGQES(0.993)PVPDT(0.762)KS(0.119)T(0.102)PPT(0.017)R",NA,1934200,NA,NA,NA,1,NA,3880200,NA,NA,1,NA,5960200,NA,NA,NA,1,NA,NA,NA,5211100,1,NA,NA,4508900,3611200,2,NA,3324800,NA,NA,1,NA,NA,NA,NA,NA,0,NA,NA,NA,NA,NA,0
"7892","Q9R0N3","MDIT(0.987)GLS(0.013)GNPYVKVNVY(1)Y(1)GRK",NA,NA,NA,3706100,NA,1,NA,NA,NA,2248500,1,3274400,NA,NA,NA,NA,1,2633700,NA,NA,NA,1,2854800,NA,NA,1961800,2,NA,NA,NA,NA,0,NA,NA,NA,NA,2206700,1,NA,NA,NA,NA,2037100,1
"7926","Q9Z0J4","VTQPLGT(0.793)PT(0.207)K",NA,NA,NA,NA,1185600,1,NA,NA,NA,8599600,1,NA,NA,NA,600270,9501300,2,12121000,NA,15390000,NA,2,9836700,10240000,21435000,NA,3,19668000,NA,9771400,7298900,3,NA,NA,NA,NA,NA,0,NA,10424000,311760,NA,7522100,3
"7937","Q9Z0R4","S(0.181)T(0.682)S(0.136)IDTGPTESPASLK",NA,3574100,NA,NA,NA,1,8165900,NA,NA,NA,1,NA,NA,NA,NA,NA,0,NA,NA,NA,NA,0,16205000,NA,NA,7877700,2,NA,NA,NA,NA,0,NA,NA,NA,NA,NA,0,NA,NA,NA,NA,NA,0
"7960","Q9Z2Q6","MESPIPILPLPT(0.01)PDAET(0.99)EK",133180,NA,NA,248960,NA,2,NA,NA,NA,NA,0,2118300,NA,NA,NA,NA,1,94708,NA,NA,NA,1,6691600,NA,8266800,NA,2,NA,NA,NA,1146900,1,NA,NA,NA,NA,NA,0,79475,2288000,1802600,NA,NA,3
"7986","P63318","LVLASIDQADFQGFT(0.002)Y(0.998)VNPDFVHPDAR",NA,NA,NA,NA,NA,0,NA,NA,NA,NA,0,5819600,NA,NA,12992000,919210,3,NA,NA,NA,1755700,1,NA,NA,13768000,685870,2,2638900,NA,4702800,NA,2,NA,NA,NA,NA,NA,0,NA,NA,NA,NA,1698000,1
