"","Leading.proteins","Phospho..STY..Probabilities","WT_NT.1.1","WT_NT.2.1","WT_NT.3.1","WT_NT.4.1","WT_NT.5.1","COUNT.WT","WT_EGCG.2.1","WT_EGCG.3.1","WT_EGCG.4.1","WT_EGCG.5.1","COUNT.WT_EGCG","WT_EGCG_EE.1.1","WT_EGCG_EE.2.1","WT_EGCG_EE.3.1","WT_EGCG_EE.4.1","WT_EGCG_EE.5.1","COUNT.WT_EGCG_EE","WT_EE.1.1","WT_EE.2.1","WT_EE.3.1","WT_EE.5.1","COUNT.WT_EE","TS_NT.1.1","TS_NT.2.1","TS_NT.3.1","TS_NT.4.1","COUNT.TS","TS_EGCG.2.1","TS_EGCG.3.1","TS_EGCG.4.1","TS_EGCG.5.1","COUNT.TS.EGCG","TS_EGCG_EE.1.1","TS_EGCG_EE.2.1","TS_EGCG_EE.3.1","TS_EGCG_EE.4.1","TS_EGCG_EE.5.1","COUNT.TS_EGCG","TS_EE.1.1","TS_EE.2.1","TS_EE.3.1","TS_EE.4.1","TS_EE.5.1","COUNT.TS.EE"
"200","E9PUL5","HPS(0.789)S(0.211)QLAGPGVEGGEGTQKPR",652700,NA,794330,2016500,NA,3,564420,NA,NA,NA,1,593300,NA,NA,1276200,2049200,3,1020400,1079000,1953100,1547500,4,NA,1014000,2632700,2353900,3,NA,1002900,1250400,771150,3,1184800,1273300,1083300,912610,1215800,5,NA,NA,NA,NA,736040,1
"201","E9PUL5","HPS(0.5)S(0.5)QLAGPGVEGGEGTQK",652700,NA,794330,2016500,NA,3,564420,NA,NA,NA,1,593300,NA,NA,1276200,2049200,3,1020400,1079000,1953100,1547500,4,NA,1014000,2632700,2353900,3,NA,1002900,1250400,771150,3,1184800,1273300,1083300,912610,1215800,5,NA,NA,NA,NA,736040,1
"341","O35393","GGS(1)LGLGGGGGMGPR",593230,NA,1420600,1371500,NA,3,NA,NA,1218900,NA,1,NA,NA,NA,NA,NA,0,1358700,NA,NA,757700,2,NA,512490,NA,1106200,2,2269000,NA,1864300,1510700,3,1467900,987190,563760,1495700,NA,4,802390,1159500,NA,1157100,611720,4
"365","O35691","EAGIVHS(1)DAEK",1121600,3953000,NA,NA,233120,3,805760,NA,NA,NA,1,NA,13312000,NA,79343,471430,3,96116,NA,NA,244090,2,NA,1694400,97349,128300,3,NA,NA,NA,187500,1,1881400,609190,75873,54756,176890,5,223220,NA,70032,142420,60969,4
"395","O54774","NAEAVKS(1)PEK",137050,9044500,138000,94979,NA,4,NA,NA,NA,NA,0,NA,18922000,NA,NA,NA,1,NA,NA,NA,NA,0,51491,NA,NA,102730,2,NA,NA,NA,NA,0,161610,NA,NA,NA,NA,1,97441,731110,NA,NA,NA,2
"462","O70166","SPSDLSPES(0.002)PVLS(0.023)S(0.975)PPK",NA,1665500,1553100,2657400,NA,3,NA,NA,NA,NA,0,1383100,NA,NA,NA,NA,1,NA,NA,NA,2254700,1,2265800,3540900,NA,NA,2,NA,NA,NA,NA,0,4730500,NA,NA,NA,NA,1,1748700,NA,NA,2730300,3364500,3
"549","O88737","GEHSSTLPASTPSYTSGTSPTSLSSLEEDS(0.007)DS(0.064)S(0.673)PS(0.255)R",2067100,NA,2472000,1562900,NA,3,NA,NA,NA,2397200,1,NA,NA,3225200,NA,NA,1,NA,NA,NA,2874600,1,NA,NA,NA,NA,0,5072500,NA,NA,NA,1,NA,1770800,NA,NA,NA,1,1867000,NA,NA,NA,NA,1
"592","O88737","SQQQLHS(1)PALS(1)PAHSPAK",4410200,NA,312250,4062000,NA,3,NA,NA,NA,NA,0,NA,NA,NA,2879800,3004100,2,NA,1278300,NA,8049000,2,4030800,NA,30075000,NA,2,14806000,NA,903120,802050,3,2994600,14636000,1841700,4718600,1902200,5,4476600,7588900,954460,2047100,NA,4
"639","O89032","AAS(1)QGSESPLLPTQR",751310,NA,461780,1019700,NA,3,NA,NA,469500,NA,1,NA,NA,1624700,NA,1656200,2,1293200,NA,NA,1947200,2,1350700,997920,NA,1483100,3,2579500,NA,NA,NA,1,1449500,2753200,1064700,2056800,1388600,5,1448700,1745100,1645100,1227200,880520,5
"683","P08551","KEES(1)AGEEQVAK",13537000,NA,49893000,NA,27802000,3,NA,NA,NA,NA,0,3308700,NA,NA,NA,NA,1,NA,55528000,NA,NA,1,NA,NA,59777000,8183600,2,95279000,41143000,NA,NA,2,NA,NA,NA,NA,7566000,1,NA,20409000,NA,9971700,5199400,3
"690","P08553","AEEEGGS(1)EEEGS(1)DRS(0.996)PQES(0.004)K",3191600,NA,172110,NA,106290,3,691580,NA,NA,NA,1,NA,NA,66971,NA,NA,1,NA,NA,69381,120450,2,NA,163910,NA,NA,1,88574,72609,NA,NA,2,872360,283470,NA,NA,96819,3,NA,NA,68087,NA,NA,1
"732","P10637","TPPGSGEPPKS(1)GER",141210,NA,75844,2988100,734130,4,140530,NA,NA,NA,1,85205,NA,1175900,2106500,NA,3,NA,96585,802470,NA,2,162820,198660,7680700,108940,4,6021500,NA,NA,882480,2,264530,237880,NA,24845,NA,3,2753800,108340,NA,NA,NA,2
"741","P10637","VAVVRT(1)PPKS(0.996)PS(0.004)ASK",168160000,275450,65374000,189030000,89100000,5,NA,97362000,NA,NA,1,182420000,548060,213270000,230750000,183150000,5,NA,NA,230600000,352090000,2,344670000,162020000,440770000,150380000,4,NA,NA,113440000,154400000,2,240450000,NA,137760000,255690000,NA,3,201310000,274290000,299220000,296420000,201270000,5
"796","P14873","DENERAS(0.952)LS(0.048)PMDEPVPDS(0.093)ES(0.907)PVEK",NA,NA,5522100,7114800,5125800,3,NA,6198100,NA,NA,1,NA,6131600,10949000,2493600,10451000,4,7823600,NA,12880000,5561100,3,NA,NA,NA,NA,0,NA,7346600,NA,NA,1,7958100,NA,11646000,NA,4574500,3,11376000,NA,10511000,NA,NA,2
"819","P14873","EECPRPMS(1)IS(1)PPDFSPK",2556700,NA,NA,1550000,2256500,3,3326900,NA,NA,NA,1,563230,NA,3006400,2750400,2684300,4,4075800,3316700,2978700,4993600,4,2501200,NA,7059400,4147500,3,5197000,2019700,3835200,1530400,4,2716700,2755000,6653800,2739700,1682300,5,1280400,1705400,3392000,1709100,1667800,5
"843","P14873","KES(1)KEETPEVTK",2048500,NA,186400,328620,246770,4,NA,168980,NA,NA,1,730800,21602000,NA,208250,431210,4,NA,NA,145100,754790,2,577410,296390,158260,536370,4,262480,NA,191160,43105,3,NA,NA,NA,NA,276250,1,270360,NA,NA,157090,217900,3
"1013","P20357","EES(0.013)Y(0.005)ES(0.906)S(0.065)GEHES(0.007)LT(0.002)MES(0.002)LKPDEGK",6268800,NA,NA,8491300,4468500,3,4693200,NA,NA,NA,1,NA,NA,4346800,13367000,3818900,3,NA,5862400,NA,NA,1,NA,4154800,6345500,NA,2,3264500,NA,NA,3222300,2,7572400,5474900,NA,NA,NA,2,8552200,6199700,NA,NA,NA,2
"1057","P20357","VSLQDPSALAT(0.011)S(0.989)K",1193200,NA,NA,601760,38728000,3,NA,NA,NA,NA,0,1157600,3422700,1492700,2861600,NA,4,908690,1636400,NA,1960000,3,2586000,604840,NA,NA,2,1873500,NA,NA,NA,1,NA,4438900,1015400,NA,27718000,3,1223600,2499900,NA,2410900,NA,3
"1130","P27671","FS(0.004)S(0.996)PPPLAIGTSSPSR",1880500,NA,1388400,1431400,1388000,4,NA,1790600,NA,NA,1,NA,NA,1705100,2156600,1372500,3,1979100,NA,1902400,2041800,3,1115700,1297200,NA,2067100,3,NA,1867300,NA,NA,1,2365200,NA,1937700,NA,NA,2,1120600,1420100,2421300,NA,1107200,4
"1145","P28652","NSSAITS(1)PK",277840,43188000,NA,371250,144810,4,NA,157800,NA,NA,1,NA,18024000,388230,399420,191640,4,NA,NA,123020,279440,2,NA,458850,336510,340530,3,1114600,151090,383500,190380,4,982460,672460,337930,227270,178750,5,NA,481330,514320,NA,128960,3
"1152","P28661","LT(0.046)RES(0.894)GT(0.061)DFPIPAVPPGTDPETEK",NA,NA,2826600,6008600,3567200,3,NA,NA,NA,NA,0,7414800,5025000,NA,7696600,NA,3,NA,11063000,NA,9250000,2,NA,NA,6470100,NA,1,NA,3310900,NA,NA,1,5709700,NA,NA,7086500,NA,2,NA,NA,10917000,6476100,6702300,3
"1224","P39053","S(0.993)PT(0.007)SSPTPQR",151780,1585500,NA,36927,NA,3,NA,NA,54085,NA,1,NA,19762000,NA,NA,79055,2,NA,41446,NA,453100,2,358660,NA,356230,NA,2,455500,NA,NA,63007,2,86783,NA,74299,112180,311370,4,38794,139010,87948,NA,NA,3
"1255","P42859","S(1)GEEEDSGSAAQLGMCNR",1279600,NA,1330800,797760,1783100,4,NA,NA,1942400,NA,1,NA,NA,2172100,NA,1584700,2,1952800,NA,2340000,1423100,3,NA,1143300,NA,1713100,2,1744000,1692600,NA,NA,2,NA,NA,2587700,1781800,NA,2,1188000,NA,2131600,NA,NA,2
"1374","P54227","S(1)HEAEVLK",1265700,6532300,NA,325600,173720,4,NA,NA,NA,NA,0,1061600,26307000,NA,NA,853440,3,445100,NA,317320,1047700,3,NA,NA,232270,556800,2,466130,NA,283840,281300,3,518150,NA,322770,NA,666650,3,NA,NA,416610,211730,NA,2
"1377","P54310","S(0.666)VS(0.334)EAALAQPEGLLGTDTLK",959670,NA,NA,189690,725930,3,1246900,NA,NA,NA,1,NA,1434500,1253500,1786600,1203100,4,764260,NA,NA,368010,2,818640,NA,NA,928160,2,1618400,NA,NA,2086500,2,NA,469200,NA,2415300,1732800,3,321890,894330,1266700,1322100,2050000,5
"1406","P56695","GIT(0.01)S(0.99)ENEAEVK",2132300,NA,2130500,1856700,1792700,4,NA,NA,NA,1310200,1,NA,NA,NA,1675100,2005000,2,1747200,NA,NA,2011600,2,NA,NA,NA,1083900,1,1666500,1853100,1515800,NA,3,1298900,1061300,1097200,NA,NA,3,1062100,1451600,NA,876700,1177900,4
"1422","P58871","GEGVS(0.026)QVGPGT(0.974)PPAPES(1)PRK",5668900,NA,5912600,3500600,3350500,4,NA,5232700,NA,NA,1,NA,NA,11122000,NA,7350500,2,4245800,10126000,11497000,8080500,4,6453600,NA,NA,NA,1,13545000,7098200,NA,5704000,3,5748800,6786300,8051500,7848400,5034500,5,NA,8523600,7896400,6800600,3536100,4
"1484","P60469","SAAAGALGS(1)PGLPLRK",722460,NA,804930,1315600,NA,3,NA,775530,NA,NA,1,NA,NA,NA,NA,NA,0,NA,964800,NA,1357900,2,2288100,NA,3283900,NA,2,1948400,NA,NA,763950,2,816870,1783400,627580,1661900,1502300,5,875530,1809000,1786900,800910,850520,5
"1576","P70206","TAS(0.001)S(0.998)PDS(0.001)LR",3633700,NA,1339300,2758300,NA,3,NA,NA,NA,327720,1,NA,NA,3816900,NA,711310,2,NA,NA,NA,NA,0,NA,NA,NA,2468600,1,6157300,2004400,NA,NA,2,3195700,3193900,1374500,NA,NA,3,2627600,3074800,1438100,721400,NA,4
"1599","P70302","LPDS(1)PALAK",670390,NA,NA,1003400,1386100,3,NA,NA,NA,NA,0,354180,NA,NA,NA,NA,1,NA,NA,NA,1228100,1,1938700,NA,NA,NA,1,2051100,NA,NA,NA,1,NA,2500500,NA,NA,NA,1,NA,1983100,NA,NA,NA,1
"1639","P70429","VQRPEDAS(0.002)GGS(0.052)S(0.936)PS(0.009)GT(0.001)SK",353000,NA,151830,622440,NA,3,NA,NA,NA,NA,0,110930,NA,NA,NA,NA,1,NA,NA,NA,NA,0,473320,NA,NA,432900,2,NA,NA,NA,NA,0,598260,NA,NA,NA,NA,1,673170,NA,NA,NA,NA,1
"1704","P97412","S(0.005)T(0.005)ANHDS(0.015)ES(0.974)PVHSPSAHR",5374100,NA,NA,622590,45115,3,872480,NA,NA,NA,1,300900,NA,NA,NA,NA,1,NA,NA,NA,NA,0,859030,582160,NA,63898,3,NA,NA,NA,NA,0,4738800,1781800,NA,NA,NA,2,330550,NA,NA,NA,NA,1
"1716","P97441","DPVPQS(0.978)GLS(0.022)PER",NA,NA,1835000,948640,1170700,3,NA,1375100,NA,NA,1,NA,NA,2023000,2229300,NA,2,1260100,NA,2754700,1730900,3,1142500,1157000,NA,2055800,3,2143500,1622200,NA,NA,2,1376300,NA,NA,NA,734620,2,NA,NA,1784700,943770,NA,2
"1748","P97820","TTS(0.017)RS(0.983)PVLSR",NA,NA,299110,3796700,100300,3,NA,NA,NA,NA,0,NA,NA,NA,NA,216300,1,NA,NA,NA,117790,1,5415900,NA,NA,1485500,2,NA,NA,NA,NA,0,8991800,12635000,NA,NA,NA,2,NA,NA,64334,NA,NA,1
"1802","Q02053","IHVS(1)DQELQSANASVDDSRLEELK",1080800,NA,3762600,NA,2331300,3,NA,2518900,NA,NA,1,1522900,NA,NA,2058400,3554300,3,NA,NA,3790300,6551300,2,1345400,NA,5387200,2249600,3,5545700,3420500,NA,NA,2,3173000,NA,6891700,7629500,NA,3,NA,2945400,NA,1760600,3675500,3
"1833","Q03717","S(0.008)S(0.008)S(0.008)S(0.977)PQHLNVQQLQDMYSK",867600,NA,1612800,803530,NA,3,NA,NA,3202000,NA,1,NA,NA,NA,NA,2958300,1,NA,NA,NA,NA,0,NA,NA,NA,NA,0,NA,NA,NA,2349300,1,NA,NA,3073500,2081500,NA,2,866450,NA,2971400,NA,NA,2
"1887","Q0KL02","S(0.008)ADAGS(0.008)QKDS(0.87)DDS(0.114)AATPQDETIEER",2231200,NA,1960900,1307600,NA,3,NA,NA,2407400,NA,1,NA,NA,NA,NA,NA,0,NA,4126800,NA,NA,1,NA,NA,NA,NA,0,NA,NA,NA,1945400,1,NA,NA,NA,1926100,NA,1,NA,1623500,NA,NA,NA,1
"1889","Q0KL02","LQRPLT(0.012)PGS(0.116)S(0.156)DS(0.689)LT(0.021)AS(0.003)ANYS(0.002)K",708220,NA,1339300,NA,1031900,3,NA,NA,NA,NA,0,NA,NA,NA,NA,NA,0,NA,NA,1331600,1344800,2,NA,NA,NA,NA,0,1989600,NA,NA,NA,1,896600,NA,NA,1233900,NA,2,NA,NA,NA,NA,NA,0
"1905","Q0PHV7","S(0.001)QS(0.998)ET(0.001)SLLGR",947360,NA,804200,1300200,NA,3,NA,NA,NA,NA,0,NA,NA,NA,NA,NA,0,NA,NA,NA,NA,0,NA,882370,NA,NA,1,2098000,NA,NA,NA,1,1431300,1308100,1634500,1092500,633650,5,953240,NA,1463800,NA,NA,2
"1927","Q148V7","DSEDNRQS(1)PAVNSSDQEK",591430,NA,325780,439890,NA,3,303610,NA,NA,NA,1,NA,NA,1009300,NA,NA,1,492940,1178800,NA,NA,2,476780,NA,NA,536640,2,1475800,NA,NA,NA,1,714030,878540,NA,NA,NA,2,786360,356530,NA,NA,NA,2
"2046","Q3UDW8","LINS(0.001)ELGS(0.995)PS(0.004)R",1444200,NA,1985500,3033500,NA,3,NA,NA,2192600,NA,1,2241400,NA,2330700,NA,NA,2,1653100,NA,1704300,NA,2,2395000,NA,NA,1927100,2,NA,2463800,NA,NA,1,2620600,NA,NA,1937200,NA,2,NA,NA,NA,NA,NA,0
"2049","Q3UE31","NNRPAFFS(0.017)PS(0.983)LK",897330,NA,NA,618320,822830,3,NA,NA,996080,NA,1,NA,NA,1018700,1012400,938520,3,609840,NA,1112000,1175400,3,NA,NA,NA,990860,1,1746900,834910,NA,NA,2,NA,656510,1834000,1507800,501190,4,606590,NA,NA,1048400,618010,3
"2109","Q3UHJ0","EQGSSGLGS(0.003)GS(0.073)S(0.918)GGGGS(0.003)S(0.001)SGLGSGYIGR",NA,NA,3935500,4179300,3944500,3,NA,2618700,NA,NA,1,1113600,NA,NA,4094100,NA,2,NA,NA,NA,4896200,1,2317300,NA,9502800,NA,2,10801000,NA,NA,NA,1,4277000,7938600,3631200,6253100,1419900,5,5866700,4630200,3887900,NA,1189400,4
"2124","Q3UHJ0","VGS(0.001)LT(0.005)PPS(0.121)S(0.873)PK",692210,4909800,27696000,NA,27644000,4,NA,NA,NA,25320000,1,NA,NA,NA,NA,NA,0,NA,NA,7082400,53263000,2,NA,NA,87132000,33724000,2,NA,NA,42076000,31793000,2,7009300,NA,NA,NA,42319000,2,NA,4485400,NA,NA,NA,1
"2131","Q3UHL1","SDDIAS(1)ADR",4679700,NA,2507500,2150100,NA,3,NA,608150,NA,NA,1,1631400,NA,4030300,NA,NA,2,724230,NA,NA,NA,1,2653400,2470400,NA,1984600,3,4931900,455670,NA,NA,2,NA,NA,NA,NA,NA,0,NA,2566100,NA,NA,NA,1
"2148","Q3UKC1","LEGQS(1)PQQVSR",461960,NA,638330,638310,NA,3,NA,NA,509020,NA,1,NA,1260100,NA,1087100,470700,3,818310,NA,1065900,826940,3,807690,522810,1319000,NA,3,NA,764300,NA,NA,1,NA,NA,630310,772660,419660,3,NA,888390,NA,777220,NA,2
"2212","Q3UTQ8","LLDRS(0.996)PS(0.004)R",NA,NA,713600,12264000,98690,3,14130000,NA,NA,NA,1,NA,NA,NA,88696,279580,2,NA,NA,NA,96576,1,23515000,8395800,NA,2883900,3,1279400,NA,295370,NA,2,NA,NA,NA,NA,NA,0,9444700,676150,NA,190180,NA,3
"2214","Q3UU96","SMS(0.997)AS(0.002)S(0.002)GLSAR",546070,NA,404640,952880,NA,3,NA,NA,NA,NA,0,NA,NA,1132400,NA,NA,1,NA,NA,NA,1257200,1,NA,NA,1122700,NA,1,1744400,NA,NA,NA,1,1054300,1508000,NA,1041800,NA,3,807000,1214800,1243700,1060300,845960,5
"2239","Q3V0G7","GASAHT(0.003)S(0.996)PQT(1)PPAR",1083700,1238400,1016500,1341100,NA,4,2018300,NA,NA,NA,1,649060,3454400,1248300,NA,NA,3,879620,2580000,93475,NA,3,1127000,1457400,NA,1318700,3,1583800,NA,NA,NA,1,1302400,1201400,NA,NA,104210,3,1228700,144560,NA,NA,NA,2
"2255","Q3V3V9","PLPPY(0.021)PT(0.026)EPS(0.478)S(0.478)PERS(0.995)PPS(0.002)PATDQR",1629600,NA,3188900,4710400,NA,3,NA,5916300,NA,NA,1,1986800,9448800,5455400,4013400,4997200,5,3878200,7261100,5735700,NA,3,1355600,NA,3467700,5071700,3,10107000,4367600,7215600,3823800,4,3690400,2850400,6262000,1978500,3124100,5,NA,4631400,5465800,4537500,3344600,4
"2312","Q52KI8","HRPS(0.999)S(0.998)PAT(0.003)PPPK",335310,1587700,56855,197930,NA,4,NA,NA,NA,NA,0,189420,6886700,51076,NA,NA,3,442950,128970,NA,NA,2,212180,NA,NA,230210,2,NA,NA,NA,NA,0,1097800,NA,NA,NA,NA,1,231020,90148,NA,NA,NA,2
"2346","Q56A08","AGRES(0.094)PPPS(0.906)APSMAPISFGFTR",NA,NA,1532700,152070,1289700,3,NA,NA,2704900,NA,1,NA,NA,NA,2091300,1734000,2,538000,2136300,NA,2080600,3,NA,NA,NA,1399200,1,3095700,NA,NA,NA,1,NA,NA,NA,2286700,763860,2,NA,1160000,2117200,NA,1503700,3
"2431","Q5PR69","AWS(1)DCPQIIK",1213100,NA,1157400,1989900,NA,3,NA,NA,NA,43206,1,1887000,NA,1536500,NA,NA,2,NA,2836600,NA,NA,1,NA,1809500,NA,1454500,2,1430400,974060,NA,NA,2,1467300,NA,740900,1333500,NA,3,1652800,1551900,NA,NA,1464900,3
"2433","Q5PR69","ESSDNQPPS(0.018)PS(0.982)LPEELK",2028500,NA,NA,2336400,2257200,3,NA,NA,4588500,NA,1,1165800,NA,3225200,2757200,NA,3,3768000,NA,NA,NA,1,1746800,NA,5075700,2847800,3,4378900,NA,NA,NA,1,2554100,NA,NA,2925400,NA,2,3460700,1546400,NA,NA,1497100,3
"2434","Q5PR69","ETAQT(0.008)DS(0.991)PQPQER",280380,473990,88268,163500,NA,4,NA,NA,NA,NA,0,NA,NA,155500,NA,NA,1,NA,NA,NA,NA,0,393930,NA,NA,NA,1,NA,NA,NA,NA,0,396750,323690,NA,NA,NA,2,267130,NA,NA,NA,NA,1
"2478","Q5SU73","VT(0.001)GS(0.999)PAEEDEEETK",1582600,1223500,NA,1510500,NA,3,2276500,NA,NA,NA,1,1705300,NA,NA,NA,NA,1,2131000,1458300,NA,2294900,3,2220100,1459200,NA,1056000,3,1881600,NA,689610,NA,2,NA,NA,NA,1047800,1530300,2,NA,NA,2962100,2258400,2438600,3
"2482","Q5SVL6","S(0.005)ET(0.01)S(0.858)S(0.127)NPS(0.125)S(0.875)PEICPNK",3461100,NA,955250,2161800,941310,4,NA,NA,5212000,NA,1,NA,9288600,NA,1548400,4480800,3,NA,NA,NA,4604500,1,NA,NA,NA,NA,0,8327800,NA,NA,NA,1,4225200,NA,1458400,4885500,NA,3,3516500,2455500,2921600,1848200,NA,4
"2536","Q60598","KQT(1)PPAS(1)PS(1)PQPIEDRPPSSPIYEDAAPFK",3277900,NA,NA,2910300,1636300,3,NA,NA,NA,NA,0,NA,2833000,NA,NA,NA,1,NA,NA,NA,2554800,1,33590000,NA,4435600,NA,2,5669800,NA,NA,4238900,2,5367800,NA,2614900,3063500,NA,3,NA,13690000,3702900,9775000,5606700,4
"2539","Q60598","PPS(0.005)S(0.995)PIYEDAAPFK",7580700,NA,2660700,920110,NA,3,NA,NA,3941800,NA,1,4046900,13564000,7193700,14650000,8039700,5,4848800,11003000,NA,NA,2,17411000,536810,26726000,6259300,4,20856000,26382000,5125500,4238900,4,NA,811400,NA,NA,10677000,2,530170,13690000,10898000,9775000,NA,4
"2547","Q60610","T(0.001)ES(0.999)LPSAQQYVPFGGK",2442500,1282000,1865100,1711700,1308200,5,NA,NA,NA,847310,1,NA,NA,578900,NA,3264600,2,816180,4742600,1536000,5721600,4,NA,768660,10633000,NA,2,8618200,NA,4460600,3930900,3,4860100,4441900,4095600,5213300,2231600,5,3750600,NA,NA,4352600,1835900,3
"2549","Q60668","IDASKNEEDEGHS(0.747)NS(0.345)S(0.908)PR",938770,NA,287410,481310,NA,3,1106600,NA,NA,NA,1,167450,NA,NA,NA,NA,1,664160,1875700,NA,NA,2,738750,1044300,NA,662950,3,2575800,NA,NA,NA,1,2001900,894560,NA,NA,NA,2,1131700,162120,NA,NA,NA,2
"2690","Q61361","ELET(0.01)PS(0.99)EEK",NA,20355000,NA,26668000,32246000,3,NA,NA,NA,30990000,1,19166000,NA,NA,NA,NA,1,38499000,NA,37985000,35478000,3,30091000,NA,NA,NA,1,NA,42116000,NA,NA,1,31213000,NA,44670000,NA,24863000,3,30793000,NA,NA,NA,NA,1
"2735","Q61699","NIQQDNSEAGTQPQVQTDGQQT(0.001)SQS(0.001)PPS(0.969)PELT(0.016)S(0.006)EES(0.006)K",NA,6815700,11546000,NA,9207100,3,NA,NA,NA,12287000,1,NA,NA,15323000,6507900,NA,2,NA,NA,NA,12253000,1,4898300,NA,NA,NA,1,19440000,16206000,NA,8232900,3,8771900,8553600,14704000,NA,NA,3,NA,11730000,10446000,9274900,NA,3
"2746","Q61845","MAT(1)S(1)DVKPKS(0.181)IS(0.819)R",3379600,1493700,NA,3629300,NA,3,NA,NA,NA,NA,0,NA,24652000,NA,1720200,NA,2,NA,NA,24380000,664500,2,NA,NA,14651000,3161800,2,NA,39751000,NA,NA,1,NA,2492000,1590400,24898000,NA,3,1170800,NA,36139000,2392000,47406000,4
"2767","Q62108","RVHS(0.08)DS(0.911)ET(0.009)DDIGFIPSK",1601600,NA,1999200,2501100,NA,3,5099000,NA,NA,NA,1,NA,NA,NA,NA,1516900,1,NA,4856100,925160,2716700,3,NA,1318700,NA,NA,1,NA,NA,NA,2147000,1,NA,NA,3319500,3104200,NA,2,NA,1875100,NA,NA,NA,1
"2775","Q62172","TPS(0.091)S(0.908)EEISPTK",NA,1600100,1119100,1859400,NA,3,NA,NA,NA,NA,0,NA,NA,NA,1941400,2008700,2,NA,NA,NA,2058300,1,NA,NA,3513800,NA,1,NA,1636000,NA,NA,1,1901200,NA,NA,NA,NA,1,1897800,NA,2528100,NA,1369900,3
"2796","Q62261","HDTS(0.001)AS(0.996)T(0.027)QS(0.969)T(0.007)PASSR",NA,2472300,NA,126500,285270,3,132980,NA,NA,NA,1,NA,7110300,NA,63683,NA,2,NA,NA,NA,405370,1,175270,93889,NA,NA,2,NA,NA,NA,NA,0,944490,297710,NA,NA,NA,2,NA,138400,222620,72036,NA,3
"2884","Q64322","GPT(0.007)S(0.988)PS(0.005)TPR",3373300,8957900,1365800,1955600,79826,5,5213800,NA,NA,NA,1,1834100,NA,1276300,NA,150600,3,NA,893360,NA,NA,1,4242200,4651100,NA,1891000,3,753830,NA,182450,NA,2,5857800,4116000,NA,62325,NA,3,2715900,186870,NA,NA,NA,2
"2902","Q65Z40","RT(0.002)ES(0.927)PS(0.069)ES(0.001)CPVK",418630,NA,543350,253370,NA,3,NA,NA,NA,NA,0,NA,NA,NA,NA,NA,0,NA,799150,NA,NA,1,NA,NA,NA,368660,1,476130,NA,NA,NA,1,NA,542350,NA,207500,100280,3,457200,NA,NA,NA,NA,1
"2962","Q68FH0","GLYPGS(0.062)S(0.062)KPS(0.853)PIY(0.023)IS(0.013)S(0.013)Y(0.011)S(0.576)S(0.387)PAR",NA,NA,1875900,908730,1827900,3,NA,NA,2354300,NA,1,585160,NA,NA,1479600,NA,2,NA,NA,NA,2025400,1,NA,NA,NA,NA,0,NA,NA,NA,NA,0,NA,NA,NA,NA,NA,0,NA,NA,2090900,1853300,NA,2
"3073","Q6IEE6","DQTEDPAS(0.006)S(0.916)PT(0.062)S(0.016)K",928970,802890,668430,462220,NA,4,552650,NA,NA,NA,1,NA,1214800,856990,NA,NA,2,NA,1222900,176670,NA,2,507070,NA,NA,473730,2,NA,156530,NA,NA,1,731840,563990,NA,NA,NA,2,673240,455100,NA,NA,192530,3
"3150","Q6P9K8","S(0.814)VS(0.182)ES(0.004)SPGDSPVKPPEGSSGAAR",2207200,NA,3341100,3443500,1567000,4,NA,2221700,NA,NA,1,1834300,NA,1900100,3554900,3102400,4,2203600,NA,NA,3985500,2,NA,NA,6354200,2123700,2,5624600,NA,NA,NA,1,NA,5685800,3628400,NA,2427800,3,4011000,NA,3794800,3951300,2170900,4
"3162","Q6P9R1","RVS(0.977)GS(0.023)ATPNSEAPR",354920,NA,370060,260410,NA,3,NA,NA,NA,NA,0,125860,NA,331620,NA,NA,2,259430,NA,NA,NA,1,306910,407910,NA,289280,3,245700,NA,NA,NA,1,427730,341190,NA,NA,NA,2,341290,279900,NA,NA,NA,2
"3247","Q6PFD5","S(0.001)HS(0.999)LEAPGK",858530,1677100,NA,807160,NA,3,253470,NA,NA,NA,1,535050,6969900,NA,68681,NA,3,NA,NA,NA,NA,0,NA,NA,NA,369930,1,NA,NA,NA,100860,1,2146300,NA,NA,NA,NA,1,NA,NA,NA,NA,NA,0
"3249","Q6PFR5","SDVEENNFEGRES(1)R",1016600,NA,733050,956270,NA,3,NA,NA,1244600,NA,1,NA,NA,NA,NA,NA,0,1224700,NA,NA,1434600,2,1015500,736550,NA,870450,3,NA,NA,NA,NA,0,1180600,NA,1461400,NA,NA,2,881480,NA,NA,NA,NA,1
"3292","Q6WQJ1","LLS(1)PVAAASAAR",924870,NA,NA,809460,870690,3,864240,NA,NA,NA,1,1158700,NA,1070500,1494700,1072900,4,NA,1070900,1159300,1659300,3,2000000,398980,NA,496150,3,1954100,NA,NA,529470,2,1110800,1993100,992090,1411300,1340200,5,619240,1511700,1088700,1817900,1362300,5
"3293","Q6WQJ1","TSTPT(0.002)GHGAS(0.993)PT(0.003)K",124540,4736800,79111,180020,NA,4,NA,NA,NA,NA,0,125380,NA,NA,16157,178290,3,NA,245480,70743,385550,3,81707,342810,65999,114530,4,1032600,77446,117490,162570,4,161790,77195,324700,224680,NA,4,86888,163110,37687,134850,NA,4
"3314","Q6ZPE2","LGLGTLS(0.001)S(0.004)S(0.986)LS(0.01)R",6025300,NA,4736900,4326200,NA,3,NA,NA,NA,NA,0,6699800,5715400,NA,NA,7438600,3,NA,8846400,NA,9515500,2,6076300,2800700,15379000,5942400,4,13420000,NA,7089500,3254200,3,NA,6045300,NA,12022000,NA,2,3732900,8479800,NA,8305700,6155000,4
"3333","Q6ZQ38","VIRPLDQPS(0.994)S(0.006)FDATPYIK",1879100,NA,3386600,902490,2052100,4,NA,NA,NA,2142400,1,NA,NA,2067600,2272200,3374400,3,1326600,4754100,NA,2317400,3,NA,NA,NA,2420200,1,5075600,3021400,NA,1845700,3,NA,1263600,NA,2712300,NA,2,893540,2364600,3003900,1987600,2086400,5
"3336","Q6ZQ58","ESPRPPAAAEAPAGS(1)DGEDGGR",9196900,NA,12841000,9648700,12840000,4,NA,14789000,NA,NA,1,NA,7111300,20160000,12618000,NA,3,11688000,18566000,20356000,9954100,4,NA,NA,23624000,13693000,2,20157000,21940000,14909000,NA,3,11089000,11391000,16504000,NA,NA,3,11409000,10043000,13678000,NA,NA,3
"3394","Q7TNV0","NKEES(1)S(1)EDEEKES(1)EEEQPPKK",546750,NA,220510,335360,NA,3,NA,NA,NA,NA,0,NA,738330,164580,NA,NA,2,5652400,1653900,NA,NA,2,NA,NA,NA,NA,0,1040200,NA,NA,NA,1,498730,491400,NA,NA,NA,2,549210,1233300,NA,NA,NA,2
"3395","Q7TNV0","NKEES(1)S(1)EDEEKES(1)EEEQPPKK",546750,NA,220510,335360,NA,3,NA,NA,NA,NA,0,NA,NA,1024100,NA,NA,1,2408900,NA,526290,NA,2,NA,NA,NA,NA,0,1040200,NA,NA,NA,1,498730,491400,NA,NA,NA,2,549210,410180,NA,NA,NA,2
"3409","Q7TQD2","APVIS(0.985)GVT(0.015)K",673680,NA,NA,1292000,744330,3,NA,1582200,NA,NA,1,707300,NA,1423100,NA,NA,2,NA,NA,NA,1199700,1,NA,NA,NA,NA,0,NA,1435600,NA,NA,1,NA,NA,NA,NA,NA,0,503800,NA,1987200,NA,NA,2
"3415","Q7TQF7","AFSIQGAPS(0.996)DS(0.004)GPLR",NA,3006500,7981000,9381300,7896800,4,13098000,NA,NA,NA,1,NA,11320000,17534000,NA,NA,2,NA,18499000,15513000,12071000,3,10170000,4243200,25614000,NA,3,20196000,NA,NA,8999500,2,NA,NA,12917000,NA,9245600,2,9247900,NA,11416000,NA,9121400,3
"3418","Q7TQF7","T(0.272)PS(0.728)PPEEPS(0.977)PLPS(0.697)PT(0.308)AS(0.017)PNHTLAPASPAPVRPR",142060000,NA,NA,13826000,153910000,3,NA,NA,NA,NA,0,72389000,2573500,NA,NA,141590000,3,NA,11050000,NA,NA,1,NA,NA,28880000,NA,1,NA,NA,7007000,NA,1,NA,NA,NA,NA,NA,0,NA,NA,158180000,NA,NA,1
"3437","Q7TSC1","LISGPLS(1)PMSR",1767300,NA,1029000,2061800,NA,3,NA,NA,1403200,NA,1,NA,NA,NA,2361300,NA,1,NA,NA,NA,NA,0,NA,1243800,1928900,1212100,3,NA,NA,NA,NA,0,1956200,NA,905500,1165600,NA,3,1523200,NA,NA,NA,NA,1
"3441","Q7TSF4","EGTDQQDPIGS(1)PVTPAR",1010400,NA,927180,992880,NA,3,NA,NA,NA,NA,0,NA,NA,NA,NA,972590,1,NA,NA,NA,NA,0,NA,NA,NA,NA,0,1741700,NA,NA,NA,1,NA,NA,NA,1232400,674510,2,870880,1319400,NA,NA,NA,2
"3537","Q80TZ3","PQTLDPFADLGTLGSSSFASKPTTPTGLGGGFPPLS(0.707)S(0.291)PQK",498260,NA,736710,712240,NA,3,NA,NA,NA,NA,0,518620,NA,NA,NA,NA,1,NA,NA,624960,710860,2,NA,NA,NA,NA,0,NA,NA,NA,NA,0,614850,717200,NA,NA,NA,2,575380,NA,NA,NA,787840,2
"3557","Q80U28","LAS(0.998)DS(0.002)DAESDSR",1650400,485070,1848400,666920,NA,4,NA,NA,1249100,NA,1,NA,NA,NA,150640,NA,1,761080,NA,NA,NA,1,NA,NA,NA,NA,0,2561000,1907700,NA,NA,2,NA,306760,569830,NA,716370,3,1811500,1211500,265120,NA,NA,3
"3558","Q80U28","LAS(0.001)DS(0.999)DAESDSR",NA,422130,300380,501390,NA,3,NA,784820,NA,NA,1,NA,NA,784540,NA,NA,1,NA,NA,1038200,NA,1,NA,517100,649000,NA,2,1098200,NA,613300,NA,2,698990,879340,NA,NA,NA,2,692040,374490,NA,NA,NA,2
"3624","Q80VC9","RSPGPGPSPT(0.006)PRS(0.994)PK",718290,NA,254770,1017200,NA,3,2439800,NA,NA,NA,1,501210,NA,NA,NA,NA,1,NA,251060,NA,NA,1,NA,989990,NA,474100,2,312150,NA,69790,NA,2,787780,1482100,NA,NA,NA,2,1059400,NA,NA,NA,NA,1
"3688","Q80XP9","EGETTVNTET(0.006)S(0.006)S(0.987)PK",NA,1202900,1899400,1507200,NA,3,NA,NA,NA,NA,0,NA,NA,NA,NA,NA,0,NA,NA,2386000,NA,1,NA,1459600,NA,NA,1,NA,NA,NA,1292800,1,1890100,NA,NA,NA,753020,2,NA,NA,NA,NA,NA,0
"3729","Q80YA9","S(0.846)NS(0.154)PAHYSLLPSLQMDALR",783790,NA,3700100,415160,NA,3,1627900,NA,NA,NA,1,884960,NA,NA,5443000,5452700,3,713380,NA,NA,NA,1,NA,NA,21278000,NA,1,16102000,NA,941480,NA,2,1733500,NA,4980100,NA,NA,2,NA,NA,6708200,NA,NA,1
"3802","Q812A2","S(0.108)S(0.108)S(0.731)S(0.027)S(0.008)S(0.013)S(0.003)GVGS(0.001)PAVTPTEK",1809800,3422500,NA,1566100,NA,3,NA,3673200,NA,NA,1,NA,NA,NA,NA,430170,1,NA,NA,NA,1689700,1,1606900,NA,1316700,NA,2,NA,NA,NA,NA,0,1657800,NA,6324700,NA,NA,2,1154500,NA,NA,NA,NA,1
"3818","Q8BG05","S(0.033)S(0.033)GS(0.934)PYGGGYGSGGGSGGYGSR",4997500,6585900,13946000,NA,NA,3,NA,NA,NA,481560,1,1249900,NA,NA,3160600,7673300,3,NA,NA,NA,13025000,1,NA,NA,NA,NA,0,13963000,435500,NA,13700000,3,NA,12181000,19850000,10579000,NA,3,14226000,8148100,NA,NA,NA,2
"3825","Q8BG67","LGPPS(0.169)S(0.682)PS(0.149)AADKEENPAVLAESCFR",2436700,1828100,NA,NA,1932300,3,NA,1807800,NA,NA,1,1658000,NA,2261100,1630800,1256200,4,2673400,2328000,2571500,2197600,4,1935000,NA,2254000,1412900,3,NA,1418600,575120,NA,2,NA,NA,2422500,NA,1841400,2,NA,NA,2146400,1988300,NA,2
"3837","Q8BGD9","SLENETLNKEEDCHS(0.001)PT(0.07)S(0.928)KPPKPDQPLK",NA,4290200,35372000,20955000,NA,3,NA,12007000,NA,NA,1,669460,12868000,NA,6517400,NA,3,NA,NA,27635000,NA,1,3312700,NA,63206000,NA,2,NA,14622000,NA,NA,1,NA,NA,NA,NA,NA,0,NA,NA,NA,NA,NA,0
"3852","Q8BGT8","LDHALS(0.996)S(0.315)PS(0.254)S(0.434)PCEEIK",2593700,NA,770290,949950,NA,3,NA,NA,2070600,NA,1,NA,4722000,1337100,NA,2693100,3,3245000,NA,NA,6038300,2,2484900,NA,2751100,2394900,3,8419900,NA,NA,985140,2,2475900,3136600,2557500,5163100,NA,4,3583500,4123000,1545200,3594200,1365100,5
"3856","Q8BGT8","NLS(1)LEAIQLCDR",1056300,NA,1727900,269660,NA,3,NA,1836200,NA,NA,1,812930,2410300,2346500,1541200,2287500,5,1841700,NA,4443700,6582600,3,1488000,174700,5258500,NA,3,5482200,2653500,NA,2543600,3,1792200,740690,3864400,NA,NA,3,630580,3010200,4689600,2365100,3229400,5
"3895","Q8BIE6","SVDIS(0.949)PT(0.05)R",4312600,2660200,3216500,4035200,NA,4,NA,NA,NA,NA,0,3521500,NA,5403300,4612300,469070,4,NA,NA,5948900,NA,1,NA,NA,5204400,3840200,2,NA,5958300,4537200,3706100,3,4703000,530010,NA,NA,NA,2,4298800,5048700,NA,NA,NA,2
"3914","Q8BJH1","ASSVNSPLGNKPQT(0.019)LS(0.79)PS(0.191)HR",5490000,NA,NA,7499700,4202300,3,6852700,NA,NA,NA,1,NA,NA,4323600,7553900,NA,2,4019700,11390000,3701100,11068000,4,4392000,NA,NA,4488900,2,NA,3855700,10972000,9920300,3,NA,NA,NA,NA,NA,0,10132000,NA,NA,8863900,NA,2
"3984","Q8BNW9","S(0.864)GS(0.136)RPQS(0.986)PS(0.014)GDAESR",5419400,5780100,2982500,NA,NA,3,5214800,NA,NA,NA,1,1347600,9613600,1242200,NA,82247,4,961670,7209000,78397,46266,4,5662800,3664400,NA,1252700,3,7560200,40177,NA,NA,2,4444100,NA,NA,61064,NA,2,NA,1340800,NA,NA,306790,2
"3992","Q8BPN8","LDHELS(0.02)LDRES(0.956)EAGT(0.01)GS(0.01)S(0.01)EHEDGEREGS(0.994)PR",6508300,NA,10702000,NA,6880200,3,NA,NA,NA,NA,0,10072000,NA,NA,NA,NA,1,NA,NA,11593000,NA,1,14712000,NA,NA,NA,1,NA,21225000,NA,NA,1,NA,NA,NA,NA,5359500,1,NA,NA,NA,11520000,18479000,2
"4028","Q8BRT1","RAQT(0.003)GS(0.997)AGADPTADVSGQS",776660,1040600,NA,903470,NA,3,NA,900560,NA,NA,1,NA,NA,NA,NA,1013800,1,1470000,NA,NA,1055300,2,NA,2098700,NA,1280300,2,984800,NA,NA,NA,1,1213200,NA,1685600,1297900,NA,3,1103100,1105600,NA,NA,NA,2
"4069","Q8BTI8","HSLS(0.875)GS(0.03)S(0.095)PGMK",1104900,NA,1754900,1367700,NA,3,1901100,NA,NA,NA,1,NA,NA,NA,NA,NA,0,NA,NA,NA,NA,0,NA,1174600,NA,NA,1,NA,NA,NA,NA,0,NA,NA,NA,NA,NA,0,NA,NA,NA,NA,NA,0
"4088","Q8BTI8","SLS(0.999)GS(0.001)SPCPK",465250,637510,1196800,NA,NA,3,NA,NA,2533700,NA,1,NA,958020,NA,NA,980130,2,894120,2708000,NA,1675100,3,NA,NA,NA,NA,0,3341500,NA,NA,NA,1,646810,1326800,1286300,NA,NA,3,1027700,NA,NA,686580,229120,3
"4091","Q8BTI8","S(0.886)RT(0.106)PPS(0.008)APSQSR",2178200,NA,1125200,2239400,NA,3,3809900,NA,NA,NA,1,NA,NA,NA,NA,NA,0,NA,2288000,NA,NA,1,NA,2146700,NA,NA,1,1146200,NA,NA,NA,1,2932700,2299400,NA,47616,NA,3,2548100,107390,NA,NA,NA,2
"4099","Q8BTI8","VS(0.988)S(0.012)PVLETVQQR",7643300,NA,NA,8497100,5900100,3,NA,NA,NA,NA,0,NA,9001800,NA,7345200,9152100,3,NA,NA,13487000,6623500,2,5018300,8559800,10852000,NA,3,NA,NA,NA,7219400,1,7311300,NA,NA,NA,5433600,2,NA,NA,9108600,5525700,NA,2
"4137","Q8BXQ8","SLS(1)VPVDLSR",894980,NA,858060,909610,NA,3,NA,1136900,NA,NA,1,NA,NA,1149100,1443600,1226900,3,NA,NA,NA,1478600,1,NA,487280,NA,918310,2,2221200,974970,NA,NA,2,NA,993570,801190,1134600,NA,3,NA,1106900,1660100,1510900,1041200,4
"4151","Q8BYI9","ITFTPS(0.058)S(0.941)GISSEVTVPR",NA,2527900,NA,7011000,17298000,3,NA,23243000,NA,NA,1,NA,NA,23020000,21145000,19168000,3,11981000,28263000,21785000,NA,3,17353000,NA,NA,NA,1,NA,NA,NA,15464000,1,NA,7705700,NA,NA,11925000,2,NA,17271000,20458000,NA,13022000,3
"4192","Q8C0E2","S(0.984)MS(0.016)HQAAIASQR",9591500,1348200,9251500,NA,NA,3,14404000,NA,NA,NA,1,4155300,6675100,NA,NA,NA,2,NA,13405000,6798200,NA,2,6396000,NA,NA,NA,1,23386000,NA,NA,NA,1,NA,NA,NA,NA,6948900,1,10647000,NA,13678000,NA,6225200,3
"4226","Q8C1D8","GLHS(0.983)S(0.571)DS(0.446)EEEEPK",545770,568810,323460,552510,NA,4,NA,NA,61237,NA,1,496210,613710,880570,NA,NA,3,NA,853750,NA,NA,1,NA,NA,NA,819160,1,620980,NA,NA,NA,1,794010,527750,NA,NA,NA,2,NA,465960,NA,NA,NA,1
"4227","Q8C1D8","GLHSSDS(1)EEEEPK",804930,NA,612510,721870,NA,3,1197900,NA,NA,NA,1,804940,NA,655550,NA,NA,2,NA,1012600,NA,NA,1,1016800,1000700,NA,1000700,3,459970,NA,NA,NA,1,1011400,977130,NA,NA,NA,2,681760,284280,NA,NA,NA,2
"4231","Q8C1D8","RETTVAS(1)DS(1)EEEAGK",2332300,NA,1802000,2061700,NA,3,NA,NA,2946300,NA,1,2091800,1282900,2415600,NA,NA,3,NA,3487400,2222000,NA,2,NA,1867800,NA,2482900,2,NA,NA,NA,1031400,1,3192800,NA,NA,1964100,1770600,3,1826500,NA,NA,NA,2039000,2
"4276","Q8C8R3","AT(0.012)S(0.988)PLIEETPIGSIK",7048700,NA,NA,5912400,1861200,3,NA,NA,NA,NA,0,9742800,15916000,NA,13121000,6161300,4,4873800,NA,6062600,16827000,3,34384000,NA,30311000,3206300,3,16545000,NA,NA,NA,1,9318300,18045000,4088700,13679000,16479000,5,5372700,8852900,6840300,7801300,6782000,5
"4282","Q8C8R3","DSLES(0.035)S(0.965)PVEPK",NA,3277600,NA,7507800,4344400,3,NA,4689100,NA,NA,1,NA,5633300,NA,6355500,NA,2,NA,NA,7068200,NA,1,NA,7078100,NA,NA,1,NA,NA,5052600,NA,1,NA,NA,NA,NA,NA,0,6805500,NA,NA,NA,6079500,2
"4365","Q8CBX0","S(0.138)S(0.861)PS(0.001)EVSLEAERR",1240800,NA,1343200,1187700,NA,3,NA,NA,NA,NA,0,NA,NA,NA,1670800,1226600,2,NA,1989900,NA,1029500,2,594620,668450,1155300,NA,3,931240,NA,1420500,NA,2,NA,936560,1134600,1128400,732160,4,NA,1330200,1279000,1139700,743680,4
"4384","Q8CCN5","LADAMAES(0.197)PS(0.803)RDVVGSGTELQR",NA,NA,3871100,3246800,2701000,3,NA,NA,3465500,NA,1,NA,2627100,5700500,2231500,NA,3,3738900,3599900,6862500,5010500,4,3433700,NA,8951800,NA,2,8455700,4097400,3449000,3498200,4,3801300,5377500,5437900,6226700,3568800,5,4173800,7756900,5538800,4161200,NA,4
"4663","Q8K400","RRPVS(0.006)VS(0.975)PS(0.068)S(0.241)S(0.71)QEISENQYAVICSEK",1925000,NA,15372000,NA,6361000,3,NA,NA,NA,NA,0,NA,NA,NA,2674800,5535000,2,NA,28285000,NA,19376000,2,NA,NA,6393700,NA,1,30818000,NA,15875000,8034700,3,12159000,NA,14100000,12609000,NA,3,NA,9094600,7812200,1295400,NA,3
"4690","Q8K4Q0","ILDTSSLTQSAPAS(1)PTNK",1767800,3864000,10238000,8214700,7417000,5,9916500,NA,NA,NA,1,2380800,18811000,14286000,2448500,1634400,5,9468800,17244000,1998600,2065600,4,7741300,NA,22429000,NA,2,27077000,11305000,13634000,9598500,4,13324000,14829000,13131000,15533000,1235600,5,2328600,1766800,12095000,7668300,4304700,5
"4703","Q8QZS3","AHS(1)PAEGASSESSSPGPK",228630,NA,79101,226800,NA,3,380540,NA,NA,NA,1,123250,755170,141980,NA,NA,3,NA,195740,NA,NA,1,279050,209400,NA,314300,3,127960,NA,NA,NA,1,303350,291950,NA,NA,NA,2,183460,NA,NA,NA,NA,1
"4734","Q8R0S4","HSNHSTENS(1)PIER",415380,NA,NA,57027,38980,3,NA,NA,NA,NA,0,107710,NA,NA,NA,NA,1,NA,NA,NA,NA,0,NA,NA,NA,133650,1,NA,NA,NA,NA,0,106960,NA,NA,NA,NA,1,118130,NA,NA,NA,NA,1
"4857","Q8VD33","SFS(0.105)S(0.79)S(0.105)ADEHS",1140400,NA,221020,1033200,NA,3,713930,NA,NA,NA,1,608490,NA,346420,NA,NA,2,NA,394380,NA,NA,1,946480,416140,NA,463980,3,863260,NA,NA,NA,1,1369300,1140500,NA,NA,NA,2,1043700,NA,NA,NA,NA,1
"4866","Q8VD37","LPPGKPGVGDVS(0.956)RPFS(0.051)PPIHS(0.363)S(0.521)S(0.109)PPPIAPLAR",4363900,NA,6926800,5326100,6727000,4,NA,NA,NA,NA,0,4772500,NA,NA,8499800,6304900,3,NA,NA,NA,NA,0,8547900,NA,17075000,13287000,3,NA,9865800,NA,NA,1,NA,NA,5824900,NA,2526000,2,1152700,NA,8493700,NA,6609400,3
"5001","Q91W39","MNT(0.004)APSRPS(0.992)PT(0.004)R",4011200,5161900,3499700,4137400,NA,4,5700700,NA,NA,NA,1,3487300,NA,NA,14180000,2298500,3,8465700,7097600,NA,NA,2,4135000,6219400,NA,3393700,3,3516800,2277900,NA,2706600,3,4567600,5523900,NA,2425500,6594700,4,5543800,3355000,NA,3900800,4127600,4
"5035","Q91XU0","RLS(0.865)ES(0.104)S(0.031)ALK",5658000,NA,5855400,8529500,NA,3,NA,NA,NA,5685400,1,NA,NA,7464300,NA,NA,1,NA,NA,NA,8068100,1,NA,5722600,NA,8568200,2,11121000,NA,7070000,NA,2,NA,5726300,7959700,10267000,4295000,4,5103300,6267800,11722000,8270700,6209600,5
"5043","Q91XV3","APAPAAPAAAEPQAEAPAAAAS(0.043)S(0.94)EQS(0.017)VAVK",3078200,2521600,NA,2644200,NA,3,2982100,NA,NA,NA,1,1853800,NA,2796900,NA,2765600,3,3508900,NA,3139200,NA,2,1857400,NA,NA,2975500,2,NA,2512800,3106800,3132700,3,1698000,3345100,NA,2983100,NA,3,3265600,NA,NA,2887200,2600000,3
"5049","Q91XV3","KTEAPAAAGPEAKS(0.998)DAAPAAS(0.001)DSK",619210,NA,741480,1596800,NA,3,NA,NA,NA,513600,1,632850,NA,870430,1323900,NA,3,NA,2062600,NA,NA,1,1141400,1015100,921010,1095100,4,NA,NA,NA,NA,0,915420,NA,NA,NA,NA,1,661280,NA,NA,NA,NA,1
"5056","Q91Y86","TAGT(0.019)S(0.952)FMMT(0.029)PYVVTR",NA,NA,872340,1453700,1601700,3,NA,NA,1183100,NA,1,1765600,1764000,2277900,NA,NA,3,NA,1080000,2707800,1780800,3,2067500,384050,3153400,2785200,4,NA,NA,NA,717880,1,NA,1388400,780630,2159900,1901900,4,746990,1824200,NA,1683900,1538300,4
"5171","Q99J36","DQQPS(1)GS(1)EGEDDDAEAALKK",2694900,2418500,NA,2072400,4841900,4,NA,3846400,NA,NA,1,NA,NA,NA,2652600,3653100,2,5851600,6365200,6432200,3627800,4,3081500,NA,6096200,4927500,3,NA,4955900,3794800,2673600,3,NA,NA,3016800,NA,2278300,2,NA,NA,3840800,NA,NA,1
"5200","Q99KN9","AS(1)PDQNASTHTPQSSAK",1729300,1601400,NA,721300,NA,3,835100,NA,NA,NA,1,NA,3437500,NA,NA,NA,1,NA,135920,NA,NA,1,607400,1105900,NA,740970,3,NA,NA,NA,NA,0,1756100,2146600,NA,NA,NA,2,928340,NA,NA,NA,NA,1
"5250","Q99NB9","TMIIS(1)PERLDPFADGGK",216520,NA,358390,NA,216000,3,NA,404040,NA,NA,1,791980,NA,NA,NA,386500,2,NA,NA,360930,763380,2,361960,NA,NA,NA,1,937860,NA,NA,NA,1,429250,NA,1295600,NA,NA,2,NA,NA,1105100,411010,NA,2
"5283","Q99P72","VVKEDGVMS(1)PEK",27327000,18173000,27157000,23721000,25211000,5,NA,19322000,NA,NA,1,13773000,35145000,46632000,12063000,NA,4,42697000,36171000,40590000,NA,3,20658000,NA,33054000,20145000,3,52250000,45165000,34225000,23498000,4,29070000,25203000,41168000,29251000,21003000,5,23990000,29804000,32935000,NA,17223000,4
"5334","Q9CQV4","AMS(1)GSWER",620550,NA,NA,745270,984650,3,NA,NA,900880,NA,1,NA,NA,1778200,NA,NA,1,NA,NA,NA,552530,1,NA,NA,NA,NA,0,1058100,NA,NA,NA,1,NA,NA,1485900,780590,NA,2,NA,774440,NA,787170,NA,2
"5404","Q9CYT6","THT(0.006)PS(0.413)PT(0.583)S(0.998)PK",139620,64387000,832820,344090,NA,4,NA,NA,1036700,NA,1,NA,NA,NA,NA,NA,0,NA,NA,703810,NA,1,682970,223840,NA,NA,2,76367,77789,NA,1067800,3,880590,284120,88931,NA,1152500,4,NA,NA,NA,NA,NA,0
"5424","Q9D074","EDADS(0.999)PT(0.001)EDGEKPR",497400,NA,278120,373860,NA,3,NA,NA,NA,NA,0,NA,NA,338300,NA,NA,1,NA,227990,NA,NA,1,392220,NA,NA,331580,2,319410,NA,NA,NA,1,NA,568390,NA,NA,NA,1,NA,NA,NA,NA,NA,0
"5441","Q9D1C2","PLFGSIFS(1)PK",259310,NA,NA,86422,283890,3,236460,NA,NA,NA,1,408600,NA,95785,530860,618100,4,158190,526800,284860,791050,4,340080,NA,NA,400320,2,546100,NA,NA,NA,1,328680,88745,457820,619210,188080,5,93911,NA,NA,NA,332730,2
"5490","Q9D5V6","LS(0.027)AGAAPS(0.125)EES(0.844)PERPVEPT(0.003)EEQQQQPPT(0.001)EDPQFLHQAK",NA,NA,21248000,7035000,12806000,3,NA,17451000,NA,NA,1,NA,NA,21424000,NA,NA,1,NA,NA,22407000,NA,1,NA,7905700,20338000,NA,2,NA,21496000,NA,NA,1,NA,NA,16185000,NA,7476800,2,NA,NA,12411000,NA,8955100,2
"5519","Q9D8S9","LEQALS(1)PEVLELR",918460,NA,597680,216960,NA,3,NA,862300,NA,NA,1,NA,NA,1118000,NA,603640,2,NA,NA,854910,1185100,2,NA,NA,NA,893610,1,1095300,NA,NA,914600,2,774900,NA,1395100,NA,NA,2,NA,NA,NA,NA,NA,0
"5526","Q9DA69","KVS(1)EEMEDHR",501600,NA,113590,636360,NA,3,NA,NA,200940,NA,1,511330,NA,321220,NA,NA,2,NA,NA,NA,NA,0,1144900,NA,NA,749100,2,NA,NA,NA,NA,0,981550,1314000,NA,NA,NA,2,696990,341650,NA,NA,NA,2
"5540","Q9DBC3","ASATSLS(0.007)GS(0.927)DS(0.066)ETEGK",1263400,NA,903720,NA,901280,3,NA,NA,2201100,NA,1,813910,NA,NA,NA,881470,2,NA,1508000,1147100,NA,2,982980,1442700,NA,1403600,3,NA,NA,NA,NA,0,1693000,NA,981960,NA,NA,2,1139100,875110,NA,NA,NA,2
"5549","Q9DBJ3","SIS(0.988)T(0.012)VDLTEK",NA,NA,4114300,2946100,1546100,3,NA,NA,2398100,NA,1,NA,NA,NA,NA,NA,0,NA,891950,NA,NA,1,312580,2013000,1867700,NA,3,NA,2148900,2129900,1797800,3,NA,NA,NA,NA,NA,0,NA,NA,868800,NA,NA,1
"5675","Q9ES97","AESSAATQS(0.002)PS(0.01)VS(0.003)S(0.003)S(0.001)S(0.001)S(0.001)GAEPS(0.908)ALGGGGGS(0.071)PGACPALGAK",4427100,NA,3666200,58499000,NA,3,NA,NA,150190000,NA,1,NA,182560000,5124300,NA,NA,2,69612000,164270000,NA,NA,2,NA,4502900,NA,4146000,2,9315400,NA,98540000,NA,2,93837000,NA,NA,3542700,1807200,3,5629000,107920000,NA,56484000,NA,3
"5676","Q9ES97","AESSAATQSPSVSSSSSGAEPS(0.004)ALGGGGGS(0.996)PGACPALGAK",NA,40857000,50816000,48154000,38609000,4,NA,NA,75795000,NA,1,NA,68530000,NA,NA,2403900,2,52783000,73741000,NA,59497000,3,NA,31979000,2911100,56304000,3,82429000,49838000,NA,NA,2,1776900,42047000,64431000,NA,15721000,4,84340000,NA,NA,31896000,NA,2
"5712","Q9ESU6","PQQVIQHHPS(1)PR",1178400,NA,953500,1099800,NA,3,NA,NA,1086100,NA,1,182350,NA,NA,NA,NA,1,NA,NA,NA,NA,0,NA,1189200,NA,1421500,2,1247700,NA,NA,NA,1,NA,1522900,NA,NA,NA,1,857140,695210,NA,NA,NA,2
"5791","Q9JLM8","ISQHGGSST(0.003)S(0.987)LS(0.005)S(0.005)TK",2389200,NA,557820,3241100,NA,3,2000500,NA,NA,NA,1,665950,1861600,1392200,3913800,181340,5,490210,369660,NA,66164,3,1946500,4272100,404970,NA,3,3250000,NA,NA,NA,1,NA,15721000,NA,148100,NA,2,8042200,2329900,NA,95588,NA,3
"5816","Q9JMA1","VNQQPNANDKNS(1)PPK",921550,NA,535340,226930,NA,3,282880,NA,NA,NA,1,NA,NA,542690,NA,96392,2,NA,603860,NA,66861,2,NA,NA,NA,529690,1,460240,NA,NA,NA,1,2114000,1792800,NA,NA,NA,2,648560,235570,NA,NA,NA,2
"5843","Q9QWI6","AVS(1)VEAAERDWEEK",1864100,NA,NA,1217800,612380,3,NA,NA,NA,NA,0,NA,NA,1046100,1646600,676420,3,NA,NA,1031100,2101400,2,5129100,NA,3535500,708580,3,NA,NA,NA,NA,0,NA,3932600,753800,NA,2436700,3,NA,NA,1253500,1085500,938570,3
"5845","Q9QWI6","DS(0.075)GS(0.913)S(0.011)S(0.001)VFAESPGGK",4607600,NA,623190,NA,2399100,3,NA,NA,NA,NA,0,NA,4168700,NA,NA,3731200,2,NA,NA,3336100,4086400,2,NA,NA,4479400,NA,1,NA,NA,NA,NA,0,NA,NA,NA,NA,NA,0,NA,NA,NA,NA,NA,0
"5860","Q9QWI6","LADVSAPS(0.004)GGPPPPHS(0.008)PY(0.187)S(0.804)GPPS(0.919)RGS(0.078)PVR",NA,NA,1833200,2333900,2502600,3,NA,2638200,NA,NA,1,NA,3906100,2505500,NA,1943000,3,2094300,4349700,NA,2663000,3,2336800,NA,NA,1924500,2,4700500,1946800,NA,NA,2,12007000,1660000,NA,2660500,2174100,4,NA,2616200,NA,NA,NA,1
"5931","Q9QXS6","S(0.019)PS(0.979)DS(0.002)STASTPIAEQIER",1952800,NA,1066400,1948400,1776400,4,2979600,NA,NA,NA,1,1645100,2850000,NA,2786300,NA,3,2464200,2466100,NA,NA,2,NA,1565600,NA,1203700,2,4178200,1349500,NA,1496600,3,NA,3756100,2222100,3103700,2462900,4,2733100,2221800,NA,2828100,NA,3
"5942","Q9QXW9","PIFKPTPVKDPDS(1)EEQP",NA,NA,1431100,1109000,1714900,3,NA,NA,1523900,NA,1,NA,NA,2051400,NA,1575200,2,2108100,NA,NA,1594900,2,NA,NA,NA,1689700,1,1766400,1146000,907370,NA,3,938350,NA,1288600,NA,NA,2,1050800,731760,1565500,NA,NA,3
"5999","Q9QYC0","SRSPGTPAGEGSGS(1)PPK",852550,NA,673490,977320,153110,4,NA,705620,NA,NA,1,797520,NA,2911200,NA,NA,2,1952300,NA,436530,NA,2,869550,1301600,NA,NA,2,1742900,727640,244770,NA,3,NA,1421800,54605,NA,NA,2,952990,1061000,NA,NA,666160,3
"6020","Q9QYG0","TASLT(0.013)S(0.988)AAS(0.999)IDGSR",2149600,NA,1108700,4097300,1864400,4,NA,2903800,NA,NA,1,27409000,6511400,1453100,1142600,6299000,5,27494000,NA,2141500,1777200,3,1357300,5486700,2008600,NA,3,3668600,2223900,NA,3578200,3,3474500,5792900,4874100,2430100,2217000,5,21700000,NA,1849700,NA,2028900,3
"6108","Q9QYR6","VRTES(0.828)S(0.172)EALK",2443900,NA,NA,190860,83748,3,NA,NA,NA,NA,0,NA,NA,NA,NA,175020,1,NA,NA,NA,74732,1,NA,NA,NA,NA,0,NA,NA,NA,NA,0,2227200,NA,NA,NA,77526,2,255670,NA,NA,NA,NA,1
"6120","Q9QYX7","KDS(1)FSQESSPS(0.015)S(0.967)PS(0.018)DLAK",1930600,NA,2958700,3027000,NA,3,NA,NA,1098500,NA,1,526530,4293300,NA,1441600,1909900,4,NA,4302900,NA,3095000,2,1260000,926650,3612900,NA,3,3238800,NA,NA,NA,1,2260100,1542200,2468800,3581100,NA,4,1101900,2283300,2064400,1934200,976600,5
"6241","Q9R1V6","S(0.004)PS(0.023)S(0.979)S(0.992)T(0.97)GS(0.032)IASSRK",1158500,502150,NA,1105300,NA,3,NA,NA,1747700,NA,1,NA,1413200,NA,NA,NA,1,NA,NA,NA,NA,0,NA,4219800,NA,NA,1,821080,NA,NA,2733300,2,NA,NA,NA,NA,NA,0,1031400,NA,NA,NA,NA,1
"6245","Q9WTK7","IDS(0.977)T(0.023)EVIYQPR",5834300,3178300,NA,5118700,2056500,4,NA,684190,NA,NA,1,NA,8215500,7580500,7318100,6647600,4,NA,NA,7121200,6748800,2,NA,5185800,13164000,NA,2,11455000,3400400,3723200,4161200,4,6337700,NA,5373100,7463000,NA,3,4413000,6950400,7002400,NA,NA,3
"6317","Q9Z0H8","HSSPVGRPSVGSASSSVVAS(0.003)T(0.078)S(0.133)GS(0.786)K",NA,NA,1987800,2122600,4792200,3,NA,NA,2416500,NA,1,NA,NA,4355600,3993500,1789900,3,NA,6138300,3031600,6485600,3,3289400,1450100,9363800,2379200,4,4173100,NA,NA,4196800,2,2316000,6445500,NA,NA,NA,2,1971400,2722400,NA,NA,NA,2
"6387","Q9Z1D1","GIPLPT(0.008)GDT(0.071)S(0.921)PEPELLPGDPLPPPK",4485500,NA,5258400,NA,2065900,3,NA,NA,14694000,NA,1,6330100,14362000,3479200,NA,6968400,4,NA,10224000,NA,11008000,2,5169400,NA,NA,6315300,2,12684000,NA,15002000,4218500,3,NA,NA,NA,16981000,4822600,2,NA,6194500,11818000,3117400,11959000,4
"6406","Q9Z1X4","RPMEEDGEEKS(0.997)PS(0.003)K",2689400,NA,37719,141790,137600,4,NA,NA,NA,53432,1,167450,NA,NA,NA,116740,2,NA,NA,55209,199780,2,219520,73398,NA,100650,3,54972,NA,NA,NA,1,668570,105150,90628,NA,103000,4,NA,NA,75630,87053,NA,2
"6448","Q9Z2H5","HQAS(1)INELK",8159100,NA,1750900,9053600,NA,3,NA,NA,4582200,NA,1,1116000,9855500,NA,NA,NA,2,NA,15067000,NA,NA,1,15517000,4419800,NA,8142000,3,20207000,NA,4742300,4800300,3,3579100,28205000,NA,18810000,5461000,4,5221200,31249000,NA,14958000,4753000,4
"6459","Q9Z2I9","INFDS(0.107)NS(0.893)AYR",2049200,1615200,1950000,NA,NA,3,NA,NA,NA,NA,0,NA,2733900,NA,NA,4070700,2,NA,NA,NA,2403700,1,NA,NA,NA,NA,0,NA,NA,2165000,2011100,2,NA,NA,NA,3062000,NA,1,2216100,NA,NA,NA,NA,1
"6486","A2AJI0","RSS(1)QPS(0.002)PT(0.829)T(0.17)VPASDSPPAK",2777200,NA,NA,4891100,3539200,3,NA,3272100,NA,NA,1,1195800,NA,NA,NA,2371300,2,NA,NA,7064200,4963300,2,NA,NA,NA,5996200,1,4291800,NA,NA,NA,1,2569700,NA,6557000,NA,NA,2,2257200,4922800,6086800,2370700,NA,4
"6492","A2AP18","KVAS(0.02)VEEGDET(0.98)LDSPGSQSR",5200200,NA,3874900,6569500,NA,3,NA,5987300,NA,NA,1,3549200,NA,14599000,7326900,10871000,4,NA,NA,NA,NA,0,NA,NA,NA,10771000,1,15556000,6756100,6269400,NA,3,9933300,NA,15021000,NA,NA,2,NA,9501100,10139000,7612100,3927200,4
"6537","O08648","ELES(0.018)GT(0.918)EES(0.064)DEEPTPSPR",NA,1823500,3314200,3886700,NA,3,4773000,NA,NA,NA,1,NA,NA,NA,NA,NA,0,NA,NA,NA,NA,0,NA,NA,NA,4001700,1,NA,1899700,NA,1791700,2,NA,NA,NA,NA,NA,0,NA,NA,NA,NA,NA,0
"6570","O54781","TVSAS(0.008)S(0.135)T(0.857)GDLPK",NA,NA,1405700,2200000,2305800,3,NA,NA,NA,1197600,1,1101100,NA,2272000,2477100,NA,3,2238900,NA,2120700,2075500,3,NA,NA,NA,1601000,1,NA,1499300,NA,NA,1,1822600,NA,1926400,NA,NA,2,2156200,1851900,1572700,NA,NA,3
"6627","P06837","AGSAETESAAKAT(0.994)T(0.006)DNS(0.882)PS(0.116)S(0.002)K",128980,NA,121460,127350,NA,3,115300,NA,NA,NA,1,NA,NA,NA,NA,NA,0,192930,286130,NA,NA,2,NA,147370,NA,124590,2,357600,NA,NA,NA,1,211850,NA,NA,NA,NA,1,168040,NA,NA,NA,NA,1
"6654","P11798","ES(0.136)S(0.861)ES(0.047)T(0.949)NT(0.006)T(0.001)IEDEDTK",4598000,1836000,NA,2832800,NA,3,NA,NA,NA,NA,0,NA,NA,NA,5684800,561150,2,14535000,18601000,NA,1272000,3,NA,8780000,NA,1367300,2,NA,NA,7915100,NA,1,3184200,NA,20458000,10471000,NA,3,NA,1243700,12731000,682940,3687400,4
"6671","P14873","DYNASAS(0.002)T(0.983)IS(0.005)PPS(0.007)S(0.002)MEEDK",8539700,1479000,NA,NA,7979200,3,NA,NA,NA,NA,0,NA,NA,9707600,3444700,NA,2,9508200,9059500,NA,NA,2,NA,NA,7974000,NA,1,NA,NA,NA,NA,0,NA,NA,NA,NA,NA,0,NA,8165200,9287800,8810800,NA,3
"6699","P16054","KQET(1)PDEVGSQR",1304800,NA,504460,914060,NA,3,1691300,NA,NA,NA,1,NA,544160,230120,NA,NA,2,NA,575880,NA,NA,1,NA,1352700,NA,659910,2,301930,NA,NA,NA,1,NA,2774800,NA,NA,NA,1,1007300,NA,NA,NA,NA,1
"6719","P20357","KET(0.884)S(0.116)PETSLIQDEVALK",NA,NA,74454000,29880000,48881000,3,89447000,NA,NA,NA,1,NA,NA,130820000,NA,NA,1,NA,119130000,132210000,NA,2,NA,17051000,NA,NA,1,NA,137560000,980890,NA,2,NA,NA,NA,NA,NA,0,NA,NA,NA,119210000,116180000,2
"6812","P51830","AS(0.011)S(0.011)PHQQLLHHHS(0.273)T(0.632)EVS(0.072)CDSSGDSNSVR",NA,NA,6805800,2857400,5728400,3,NA,NA,NA,NA,0,NA,NA,NA,NA,6479300,1,NA,NA,10116000,NA,1,NA,NA,NA,NA,0,8632400,NA,NA,1267000,2,NA,NA,NA,NA,NA,0,NA,NA,NA,NA,NA,0
"6851","P62071","FQEQECPPS(0.043)PEPT(0.957)R",NA,2687200,6585800,NA,3197800,3,2390700,NA,NA,NA,1,725460,NA,5536400,NA,NA,2,NA,6986000,NA,4588700,2,1867100,381430,4374600,5135300,4,5411700,NA,4651200,NA,2,NA,NA,6874800,NA,NA,1,3673400,4654700,2861700,NA,1249700,4
"6946","Q08509","S(0.004)ADT(0.004)PS(0.009)APS(0.026)PPPT(0.957)PAPVPVPLPPSVPAPVSVPK",2147800,NA,1447600,NA,1420700,3,NA,NA,1732900,NA,1,1407100,NA,NA,NA,NA,1,NA,2525200,1942000,NA,2,2366200,NA,NA,NA,1,NA,1465600,NA,NA,1,NA,855760,2298900,1749600,NA,3,797630,NA,2357100,1498400,NA,3
"6947","Q0GA42","APT(0.316)T(0.327)RGT(0.373)PQT(0.983)PKDDPVLTLLSNR",NA,NA,716750,328770,1043500,3,NA,1221800,NA,NA,1,NA,NA,705720,1108700,1256000,3,NA,1483700,1373600,4562400,3,NA,NA,NA,934570,1,3154200,NA,NA,NA,1,928250,NA,2750500,1131000,NA,3,NA,1051700,2472900,763700,NA,3
"6993","Q3UHL1","AAAT(1)PEPAVAQPDSTALEGATGQAPPSSK",NA,4131300,2096500,NA,2395000,3,NA,2603800,NA,NA,1,7302400,11721000,8655400,14474000,8866800,5,7285800,4933700,NA,10200000,3,NA,3136700,NA,9908500,2,NA,4330600,NA,NA,1,NA,24549000,3195200,13057000,13063000,4,13805000,13375000,NA,11933000,9404400,4
"7017","Q3V0G7","GASAHT(0.003)S(0.996)PQT(1)PPAR",2469400,1238400,1016500,1341100,NA,4,3529400,NA,NA,NA,1,885430,3454400,1248300,NA,43958,4,879620,2580000,93475,NA,3,2019500,2458600,NA,1729900,3,1583800,NA,NA,NA,1,2829500,2197100,NA,NA,104210,3,1648700,144560,NA,NA,NA,2
"7025","Q4KMM3","VVS(0.002)S(0.031)T(0.75)S(0.217)EEEEAFTEK",2616400,48227000,NA,103040000,NA,3,NA,NA,NA,NA,0,NA,NA,NA,NA,NA,0,NA,NA,NA,NA,0,NA,NA,NA,NA,0,NA,100960000,94889000,NA,2,NA,NA,NA,NA,NA,0,NA,112190000,NA,NA,NA,1
"7144","Q62261","RRPPSPDPNT(1)K",1342500,4716400,327050,939320,NA,4,NA,NA,1210700,NA,1,507590,42668000,NA,NA,360580,3,3981500,783170,295320,588400,4,419450,659740,301570,630830,4,2193100,NA,213990,409380,3,708210,NA,1044400,489310,NA,3,762970,422210,52973,249980,336810,5
"7175","Q68FF6","SQSELDDQHDYDSVASDEDT(1)DQEPLPSAGATR",11500000,NA,6512300,4951500,6735000,4,NA,NA,NA,NA,0,NA,21714000,NA,8671200,11959000,3,NA,27146000,8778900,25614000,3,NA,1970100,19232000,4096200,3,24951000,NA,13709000,7349600,3,NA,7954800,NA,11533000,2959400,3,9984400,7931700,11000000,7710600,NA,4
"7286","Q7TSC1","GS(0.038)ET(0.163)GS(0.163)ET(0.635)HESDLAPSDK",NA,NA,1214800,1074400,1296600,3,NA,NA,NA,NA,0,790380,NA,1631000,1202500,NA,3,2122000,NA,1647600,NA,2,1506500,NA,1494600,1523800,3,NA,NA,NA,NA,0,1267700,1411100,NA,NA,NA,2,NA,NA,1631100,1312200,NA,2
"7300","Q80TJ1","VILHPT(0.725)PNS(0.275)PK",2571500,NA,3960900,2005500,5422500,4,NA,NA,3655100,NA,1,NA,NA,NA,NA,3958500,1,2649300,5950400,NA,NA,2,1343800,2288200,NA,NA,2,5321600,NA,4173500,2462100,3,3331700,NA,NA,NA,1283300,2,3376400,NA,NA,NA,1059700,2
"7376","Q8BHL3","ASPVPGPGT(0.849)PT(0.151)R",4330000,NA,NA,8368300,1742300,3,6034900,NA,NA,NA,1,NA,NA,NA,8507100,NA,1,NA,4479100,NA,6847400,2,NA,2465300,NA,NA,1,NA,NA,1579000,4698400,2,NA,NA,NA,NA,4549600,1,NA,NA,6684700,8871500,6053700,3
"7377","Q8BHL3","ASPVPGPGT(0.024)PT(0.976)R",4330000,2112500,NA,8368300,1742300,4,NA,NA,NA,NA,0,NA,3805700,NA,NA,NA,1,NA,NA,NA,6847400,1,NA,NA,NA,NA,0,NA,NA,NA,NA,0,NA,NA,NA,4432700,NA,1,NA,NA,6684700,NA,NA,1
"7428","Q8BWG8","DDKDEEDDGT(0.971)GS(0.029)PHLNNR",1569000,NA,1639300,1452300,NA,3,NA,NA,NA,NA,0,NA,1456900,3017600,2006500,NA,3,NA,NA,NA,1524000,1,2094700,1416400,NA,1883600,3,2138900,NA,NA,677950,2,2205300,1651800,1905200,NA,878900,4,NA,1544900,NA,1027600,608090,3
"7463","Q8C8R3","DSLAHQDT(1)CENDREER",4373800,NA,2300700,8740200,NA,3,NA,3555000,NA,NA,1,4135200,NA,16829000,6103000,NA,3,NA,24992000,7706500,NA,2,14306000,7393800,15070000,3625900,4,13255000,2874500,2403700,593890,4,17263000,17093000,5116300,17532000,7319900,5,5954500,13338000,6959100,3369100,5054100,5
"7510","Q8CHU3","T(0.633)T(0.079)S(0.287)PDLFESQSLTSASSK",737730,5401300,NA,NA,8957000,3,NA,10460000,NA,NA,1,NA,NA,NA,NA,13220000,1,NA,NA,NA,NA,0,NA,5365800,NA,NA,1,NA,2982700,NA,NA,1,NA,12497000,NA,NA,NA,1,NA,NA,NA,NA,NA,0
"7524","Q8K1A6","LANHDEGSDDEEEET(1)PKK",159990,NA,135700,409380,NA,3,320790,NA,NA,NA,1,154980,NA,199380,NA,NA,2,NA,292470,NA,NA,1,508940,201120,NA,469550,3,259870,NA,NA,NA,1,NA,301860,NA,NA,NA,1,428560,NA,NA,NA,NA,1
"7536","Q8K2P7","RS(0.321)LT(0.664)NS(0.015)HLEK",3632500,NA,332490,3064300,125370,4,NA,NA,NA,70928,1,1178000,NA,NA,NA,NA,1,NA,NA,NA,103360,1,NA,NA,NA,2182800,1,NA,NA,NA,NA,0,3983300,6810000,NA,NA,NA,2,NA,403010,NA,NA,NA,1
"7552","Q8K4Q0","GPDQT(0.899)T(0.101)DDADDAAGHK",644970,NA,151430,1203700,NA,3,NA,NA,NA,NA,0,289930,NA,324760,NA,NA,2,NA,796080,NA,NA,1,1044000,NA,NA,324280,2,NA,NA,NA,NA,0,594560,628440,NA,NA,NA,2,801430,NA,NA,NA,NA,1
"7588","Q8VD37","ECGLGQRAT(1)PPPPPPPTYR",1489700,NA,592000,896200,NA,3,NA,NA,NA,805250,1,843390,NA,NA,NA,760090,2,1074200,NA,NA,925090,2,1114800,807630,NA,1659000,3,1732800,NA,NA,1032700,2,1378300,835170,982050,974610,692190,5,706930,821940,NA,1405200,1275400,4
"7687","Q9CPS8","T(0.87)PS(0.13)PGEQQQVQEVK",695890,1004400,1553800,NA,NA,3,NA,1022000,NA,NA,1,NA,1382600,NA,NA,3298700,2,NA,1371000,NA,NA,1,NA,907410,NA,NA,1,4481100,NA,NA,1221700,2,837140,686630,4594900,1284600,NA,4,797490,709660,772360,NA,NA,3
"7709","Q9CYT6","THT(0.027)PS(0.152)PT(0.843)S(0.978)PK",1691800,9038800,NA,344090,NA,3,NA,NA,NA,NA,0,NA,NA,NA,NA,2180300,1,NA,NA,NA,NA,0,NA,223840,NA,NA,1,76367,NA,NA,NA,1,880590,284120,1716100,NA,NA,3,NA,NA,NA,NA,609000,1
"7846","Q9QYG0","T(0.013)LS(0.013)QS(0.015)S(0.045)ES(0.108)GT(0.778)LPS(0.027)GPPGHT(0.001)MEVSC",NA,NA,4263400,5934200,3588500,3,13721000,NA,NA,NA,1,NA,NA,NA,NA,NA,0,NA,NA,NA,NA,0,NA,NA,NA,NA,0,NA,NA,NA,NA,0,NA,NA,NA,NA,NA,0,NA,NA,NA,8139500,NA,1
"7847","Q9QYR6","AELEEMEEVHPS(0.012)DEEEEET(0.988)K",NA,NA,1621200,167890000,228280000,3,339940000,NA,NA,NA,1,1455600,NA,2933400,156770000,NA,3,NA,NA,NA,NA,0,247280000,NA,NA,210360000,2,2143900,244390000,NA,NA,2,1043700,1110200,NA,NA,NA,2,NA,1877100,NA,233680000,183670000,3
"7910","Q9WV34","T(0.016)Y(0.002)ET(0.983)PPPS(0.999)PGLDPTFSNQPVPPDAVR",8583400,1857000,3062700,NA,1351000,4,NA,NA,NA,2131200,1,NA,10332000,NA,10211000,7488500,3,2930600,9212800,9977400,10018000,4,6459100,1147800,9970900,8239500,4,12141000,7660700,10181000,4147700,4,NA,1838400,NA,NA,3462200,2,2365400,7059400,11381000,3158200,5685500,5
"7914","Q9WV92","DEVDAAES(0.106)T(0.858)PT(0.036)DR",848440,NA,NA,766190,515640,3,NA,649220,NA,NA,1,NA,NA,NA,NA,386590,1,NA,NA,852620,677050,2,1348300,NA,NA,1084800,2,1219100,740720,NA,NA,2,576800,964270,775940,796320,NA,4,NA,875130,688710,432830,701930,4
"7944","Q9Z266","AAAGSAAVS(1)GAGT(1)PVAGPTGR",1582700,3817600,1966100,2537700,1885200,5,NA,2229700,NA,NA,1,1425000,6047900,3417200,3156300,1919800,5,1890600,3581400,3299400,3193900,4,2204200,2204200,3350000,1729400,4,3799000,2755700,2487600,1820600,4,1333800,2841500,2855800,2815100,2639600,5,2227200,2184300,1911100,2374000,2429400,5
"7970","P14873","TLEVVSPSQS(0.001)VT(0.009)GS(0.006)AGHT(0.019)PY(0.067)Y(0.627)QS(0.244)PT(0.026)DEK",25594000,NA,4380900,19912000,NA,3,NA,NA,NA,NA,0,NA,NA,NA,NA,NA,0,3809600,NA,NA,NA,1,NA,NA,NA,NA,0,NA,NA,NA,NA,0,15562000,NA,NA,NA,NA,1,NA,NA,NA,NA,NA,0
