"","Leading.proteins","Phospho..STY..Probabilities","WT_NT.1.1","WT_NT.2.1","WT_NT.3.1","WT_NT.4.1","WT_NT.5.1","COUNT.WT","WT_EGCG.2.1","WT_EGCG.3.1","WT_EGCG.4.1","WT_EGCG.5.1","COUNT.WT_EGCG","WT_EGCG_EE.1.1","WT_EGCG_EE.2.1","WT_EGCG_EE.3.1","WT_EGCG_EE.4.1","WT_EGCG_EE.5.1","COUNT.WT_EGCG_EE","WT_EE.1.1","WT_EE.2.1","WT_EE.3.1","WT_EE.5.1","COUNT.WT_EE","TS_NT.1.1","TS_NT.2.1","TS_NT.3.1","TS_NT.4.1","COUNT.TS","TS_EGCG.2.1","TS_EGCG.3.1","TS_EGCG.4.1","TS_EGCG.5.1","COUNT.TS.EGCG","TS_EGCG_EE.1.1","TS_EGCG_EE.2.1","TS_EGCG_EE.3.1","TS_EGCG_EE.4.1","TS_EGCG_EE.5.1","COUNT.TS_EGCG","TS_EE.1.1","TS_EE.2.1","TS_EE.3.1","TS_EE.4.1","TS_EE.5.1","COUNT.TS.EE"
"62","A2AJI0","EPAAPAS(1)PAPSPVPSPTPAQPQK",1906900,NA,NA,1494700,NA,2,NA,NA,2480500,2020800,2,1211200,NA,2682700,1897000,1937000,4,2123900,4050200,NA,1875900,3,686170,2956400,NA,1984300,3,3200400,NA,NA,1836400,2,NA,NA,NA,NA,889540,1,NA,2024500,NA,NA,NA,1
"164","B2RUJ5","S(0.981)NS(0.019)QENVEASHPSQDGK",NA,NA,2683800,NA,NA,1,2265900,138560,NA,NA,2,260900,6403500,983790,NA,NA,3,715700,NA,NA,NA,1,1366100,2463200,NA,1089500,3,NA,NA,NA,NA,0,NA,NA,NA,NA,NA,0,NA,NA,NA,NA,NA,0
"251","G3X9K3","TTIPHALLTWRPT(0.003)S(0.003)GEAEPPS(0.96)PS(0.032)AVS(0.001)EK",NA,NA,NA,NA,2010600,1,NA,NA,NA,NA,0,3036300,NA,NA,2039900,3457700,3,NA,NA,NA,2802500,1,1270200,NA,4416800,NA,2,4434600,2214100,3650200,NA,3,NA,NA,3523000,NA,NA,1,NA,NA,NA,NA,864370,1
"302","O08599","S(0.005)S(0.005)AS(0.001)FSTTAVS(0.989)AR",NA,NA,NA,NA,NA,0,NA,1079000,1529600,NA,2,1094000,NA,1936500,NA,2066400,3,NA,NA,1611400,3240500,2,4800600,NA,6746400,2578800,3,NA,NA,NA,NA,0,NA,5168200,NA,NA,NA,1,1182300,NA,3536400,NA,NA,2
"319","O09044","ATWGDGGDNS(0.989)PS(0.011)NVVSK",NA,NA,NA,NA,NA,0,929180,493010,3240000,1502500,4,494420,NA,2256700,NA,1744700,3,NA,NA,NA,1713700,1,752640,NA,NA,2023600,2,2149200,1752100,NA,NA,2,NA,NA,2679000,NA,NA,1,NA,621030,1632900,1105700,NA,3
"375","O35927","TSTAPS(0.98)S(0.02)PGVDSVPLQR",NA,NA,13613000,15877000,NA,2,NA,NA,17775000,NA,1,NA,NA,5228500,15032000,13411000,3,5608500,12429000,7600200,18637000,4,11686000,NA,27378000,3289400,3,28838000,3502400,14187000,10937000,4,NA,NA,NA,NA,NA,0,NA,17604000,NA,NA,8500200,2
"526","O88703","TAAPSPDRRDS(0.868)AS(0.131)PGAAS(0.001)GLDPLDSAR",NA,NA,NA,NA,NA,0,NA,NA,NA,4169500,1,4366600,NA,6060600,5911800,NA,3,5188800,NA,NA,NA,1,NA,4991000,NA,4839300,2,NA,NA,NA,4394400,1,NA,NA,NA,4941900,NA,1,NA,NA,6818000,NA,NA,1
"597","O88746","AADRLPNLAS(0.998)PS(0.002)AEGPPRPSPGTAPR",4604100,NA,2359500,NA,NA,2,NA,4449300,NA,3262700,2,3883400,NA,9089400,9137800,NA,3,3853300,NA,8532400,NA,2,7893900,NA,15485000,NA,2,NA,4988500,NA,NA,1,NA,NA,5371500,NA,NA,1,6785900,NA,NA,5877700,NA,2
"718","P0C913","DTTEDS(0.999)IT(0.001)EDDK",3258700,NA,NA,4501200,3143000,3,3830200,1943000,4815900,4414100,4,3730300,4244500,4056300,3335600,2688600,5,4719500,4647100,2787100,4688900,4,NA,5345700,2936500,3428500,3,6088600,NA,3808300,3650800,3,NA,NA,NA,NA,3862400,1,2645100,3698000,7667300,NA,5601800,4
"843","P14873","KES(1)KEETPEVTK",2048500,NA,186400,328620,246770,4,NA,168980,NA,NA,1,730800,21602000,NA,208250,431210,4,NA,NA,145100,754790,2,577410,296390,158260,536370,4,262480,NA,191160,43105,3,NA,NA,NA,NA,276250,1,270360,NA,NA,157090,217900,3
"2312","Q52KI8","HRPS(0.999)S(0.998)PAT(0.003)PPPK",335310,1587700,56855,197930,NA,4,NA,NA,NA,NA,0,189420,6886700,51076,NA,NA,3,442950,128970,NA,NA,2,212180,NA,NA,230210,2,NA,NA,NA,NA,0,1097800,NA,NA,NA,NA,1,231020,90148,NA,NA,NA,2
"2327","Q52KI8","SRVS(1)VS(1)PGR",5932700,NA,NA,2438100,NA,2,3996900,NA,NA,NA,1,1260300,7205300,765020,NA,81136,4,NA,NA,NA,NA,0,2157300,NA,NA,1184200,2,NA,NA,NA,NA,0,NA,NA,NA,NA,NA,0,3610400,NA,NA,NA,NA,1
"2328","Q52KI8","SRVS(1)VS(1)PGR",5932700,NA,NA,2438100,NA,2,3996900,NA,NA,NA,1,1260300,7205300,765020,NA,81136,4,NA,NA,NA,NA,0,2157300,NA,NA,1184200,2,NA,NA,NA,NA,0,NA,NA,NA,NA,NA,0,3610400,NA,NA,NA,NA,1
"2334","Q569Z6","FSGEEGEIEDDES(0.935)GT(0.065)ENREEK",NA,NA,9202700,NA,9171600,2,10839000,10035000,NA,10644000,3,3271600,NA,11341000,7737400,12606000,4,10537000,20151000,14170000,12094000,4,NA,7669100,12133000,NA,2,NA,12868000,12896000,11565000,3,NA,NA,NA,NA,NA,0,NA,NA,10351000,NA,4972700,2
"2460","Q5SP85","HVLSGS(1)PEHFQK",3054000,NA,7173400,NA,NA,2,6669900,7028800,8002800,4100900,4,4338500,NA,8776900,NA,7368200,3,5632600,10662000,9823500,6386400,4,4289900,5139500,NA,NA,2,11058000,7095000,6784700,5359700,4,4590300,NA,NA,NA,NA,1,5063600,NA,6688200,6402700,4979400,4
"2599","Q61026","LLQDS(0.144)S(0.555)S(0.301)PVDLAK",508440,NA,NA,662830,1437900,3,NA,NA,1049400,1019600,2,870920,NA,NA,1032800,945600,3,NA,NA,NA,1158700,1,NA,795520,NA,1679300,2,1025000,651210,NA,NA,2,NA,NA,1384700,NA,NA,1,617600,896400,NA,845320,456810,4
"2857","Q62446","FLQDHGS(0.986)DS(0.014)FLAEHK",1869300,NA,3545500,NA,NA,2,3939000,3289300,NA,750750,3,748190,NA,2680100,NA,788090,3,NA,5349600,NA,901550,2,892100,NA,5394400,3493200,3,NA,823260,NA,3000300,2,NA,NA,NA,4103200,NA,1,NA,2006900,NA,NA,NA,1
"3484","Q80TJ1","AGGGRPS(0.013)S(0.021)PS(0.966)PS(0.325)VVS(0.675)EK",NA,NA,NA,NA,NA,0,NA,NA,NA,468690,1,NA,18959000,NA,3525300,1948600,3,1087000,NA,1223000,4395900,3,8218300,NA,18053000,NA,2,NA,NA,NA,NA,0,NA,NA,897060,NA,NA,1,2905100,4994400,1131400,NA,NA,3
"3524","Q80TV8","NSSNTGVGS(0.994)PS(0.006)NTIGR",1885100,NA,NA,2372900,NA,2,NA,NA,NA,1063100,1,NA,3332100,2179600,NA,1918300,3,NA,4459900,1543400,2780200,3,NA,NA,3354700,1479100,2,3494800,NA,NA,2245700,2,NA,NA,NA,NA,1195000,1,2119600,2783600,1760100,1815900,NA,4
"3689","Q80XQ2","EFT(0.002)GS(0.998)PPPS(0.001)ATK",4280400,NA,4439800,NA,NA,2,3498500,4239800,NA,NA,2,3110400,NA,NA,3078000,4178000,3,NA,5415900,7612100,4401400,3,3961800,3909400,4038700,3726400,4,4130100,4430700,3026000,NA,3,NA,3617300,NA,NA,NA,1,4206900,3718300,NA,NA,2042500,3
"3745","Q80YV2","SMGTGDSAGVEVPS(0.659)S(0.341)PLRR",1475000,NA,NA,NA,2270600,2,3425200,NA,2443700,1336600,3,1055800,NA,2231100,NA,1876400,3,NA,NA,NA,2651800,1,918880,1177900,1840500,1494800,4,NA,1758100,NA,1559400,2,NA,NA,2710000,NA,NA,1,1611400,NA,NA,NA,NA,1
"3763","Q80ZF8","SIFTPVS(0.317)S(0.683)K",NA,NA,NA,NA,3750300,1,NA,6176900,NA,NA,1,4527200,NA,NA,5113700,5122500,3,NA,10133000,NA,6627200,2,NA,5444800,7219300,NA,2,9682400,4822700,NA,NA,2,NA,NA,NA,NA,NA,0,NA,5409100,6929900,6091300,NA,3
"3837","Q8BGD9","SLENETLNKEEDCHS(0.001)PT(0.07)S(0.928)KPPKPDQPLK",NA,4290200,35372000,20955000,NA,3,NA,12007000,NA,NA,1,669460,12868000,NA,6517400,NA,3,NA,NA,27635000,NA,1,3312700,NA,63206000,NA,2,NA,14622000,NA,NA,1,NA,NA,NA,NA,NA,0,NA,NA,NA,NA,NA,0
"4039","Q8BSF4","MAAS(1)GGRACVRS(1)LRGGVLWR",8728700,8430500,NA,NA,10837000,3,12059000,11757000,NA,7414400,3,9065200,12689000,12712000,12255000,8378800,5,10525000,13852000,15524000,9809400,4,8479400,8558600,12035000,9106600,4,15836000,11142000,NA,7789200,3,11731000,NA,NA,NA,NA,1,10497000,8985400,NA,10115000,9701200,4
"4040","Q8BSF4","MAAS(1)GGRACVRS(1)LRGGVLWR",8728700,8430500,NA,NA,10837000,3,12059000,11757000,NA,7414400,3,9065200,12689000,12712000,12255000,8378800,5,10525000,13852000,15524000,9809400,4,8479400,8558600,12035000,9106600,4,15836000,11142000,NA,7789200,3,11731000,NA,NA,NA,NA,1,10497000,8985400,NA,10115000,9701200,4
"4167","Q8BZH4","SLDAEPSVPS(0.008)AAKPS(0.168)S(0.824)PEK",977160,NA,NA,1121000,NA,2,2238700,NA,1257600,NA,2,857740,NA,1293800,2209700,1132500,4,1261600,2143500,1892000,1356700,4,828660,932280,NA,NA,2,1673900,NA,NA,NA,1,1503000,NA,NA,NA,NA,1,NA,743760,1762300,1232100,863820,4
"4190","Q8C0D5","LAAAQGQT(0.003)S(0.002)QGPT(0.006)QDGGALET(0.322)S(0.665)PHEDEPRGDEPDVAS(0.001)VS(0.001)R",2605900,NA,2852100,NA,NA,2,NA,NA,2927700,NA,1,2033900,NA,3824700,NA,4791500,3,2868200,5170700,NA,NA,2,2845600,NA,NA,3564600,2,4463600,4068800,NA,NA,2,NA,NA,NA,3128300,NA,1,3120600,2575600,2170400,NA,1829700,4
"4583","Q8K207","ANMHIS(0.012)ES(0.988)QQEFFR",NA,NA,878010,NA,NA,1,859920,NA,NA,NA,1,756660,NA,NA,821060,1207000,3,NA,1216400,NA,2421000,2,NA,NA,2174900,840260,2,NA,650350,1358500,1201000,3,NA,NA,NA,1325000,NA,1,NA,NA,1933400,NA,602280,2
"4654","Q8K3W3","RLEQTPVRDPS(1)PEPDAPLLGSPEK",1346100,NA,1626100,1354300,NA,3,2241300,1684000,NA,1281000,3,1301900,NA,2283700,NA,1724300,3,NA,1827800,2016400,1492400,3,1393000,NA,NA,1459100,2,3077200,1515400,NA,1478300,3,1635900,NA,NA,NA,NA,1,992890,1116200,1511500,NA,NA,3
"4680","Q8K4I3","PSERPLS(1)PK",22435000,1500400,21944000,23545000,20440000,5,NA,24068000,29400000,23689000,3,12118000,NA,26339000,22511000,28170000,4,29577000,NA,25983000,28668000,3,22000000,NA,30284000,28405000,3,42682000,NA,NA,NA,1,24064000,NA,NA,NA,NA,1,NA,NA,23893000,22773000,16840000,3
"4760","Q8R361","KY(0.016)DLES(0.586)AS(0.397)AILPSSALEDPELGSLGK",NA,NA,NA,NA,NA,0,NA,NA,NA,NA,0,1191500,NA,NA,2129300,461940,3,NA,NA,NA,1610200,1,816390,NA,5106900,NA,2,NA,NA,NA,NA,0,NA,NA,NA,1467300,NA,1,NA,NA,1042900,NA,NA,1
"4903","Q8VDP4","DEVQNEGTAAESDS(1)PLK",NA,1594900,1680500,NA,NA,2,2053300,1861500,2149500,NA,3,1153400,1407100,2730600,1696200,NA,4,2589900,2589100,4034000,NA,3,NA,2291900,2446300,NA,2,NA,1696600,2085800,1442600,3,1704500,NA,NA,NA,NA,1,1639900,1459000,3037800,NA,1191200,4
"4924","Q8VDZ4","SIGSASPGPGQPPLS(0.715)S(0.21)PT(0.075)R",NA,NA,NA,4044700,NA,1,NA,2692200,NA,1548900,2,NA,NA,3566800,3933600,3104700,3,3277400,3860300,3660200,NA,3,3575900,2629300,NA,NA,2,NA,NA,NA,NA,0,NA,NA,NA,NA,2433000,1,NA,NA,3226900,NA,NA,1
"4938","Q8VED9","AGS(1)VADSDAVVK",NA,NA,8410400,NA,NA,1,NA,11039000,15038000,9428300,3,NA,12361000,15507000,11381000,13216000,4,8394800,12080000,13350000,11817000,4,8032500,NA,NA,363120,2,NA,11194000,8445500,7089100,3,NA,NA,16344000,NA,NA,1,NA,6303400,9656700,4432800,3415600,4
"5023","Q91X56","S(0.001)PS(0.999)AAGPSGGGLR",978720,NA,653940,1536500,NA,3,1514600,1317400,1664900,NA,3,251860,NA,NA,1000900,754030,3,NA,NA,NA,925840,1,505670,1518100,NA,NA,2,1631800,557380,NA,NA,2,NA,NA,NA,NA,708090,1,1711500,NA,NA,NA,523110,2
"5031","Q91XM9","NLSQIENVHGYVLQS(0.009)HIS(0.991)PLK",NA,NA,21063000,NA,NA,1,NA,NA,3303300,NA,1,4848900,2434200,NA,40284000,21795000,4,NA,NA,11956000,NA,1,NA,NA,47131000,4934800,2,NA,NA,NA,11577000,1,NA,NA,44237000,NA,NA,1,NA,NA,29104000,NA,NA,1
"5049","Q91XV3","KTEAPAAAGPEAKS(0.998)DAAPAAS(0.001)DSK",619210,NA,741480,1596800,NA,3,NA,NA,NA,513600,1,632850,NA,870430,1323900,NA,3,NA,2062600,NA,NA,1,1141400,1015100,921010,1095100,4,NA,NA,NA,NA,0,915420,NA,NA,NA,NA,1,661280,NA,NA,NA,NA,1
"5051","Q91XV3","SDAAPAAS(0.048)DS(0.837)KPS(0.875)S(0.24)AEPAPSSK",1802800,NA,NA,2843500,NA,2,2721300,2447600,NA,NA,2,1676100,NA,2347400,1917400,NA,3,NA,3051600,NA,NA,1,2608100,2501300,2104100,2450900,4,NA,NA,NA,NA,0,NA,3702100,NA,NA,NA,1,NA,1711700,3446100,3982200,NA,3
"5228","Q99M31","FELLCS(1)PLFNK",NA,NA,1312700,NA,5833600,2,NA,1617200,NA,1086500,2,NA,NA,1752900,1473900,1563100,3,1688500,NA,2199100,755110,3,NA,NA,7869000,2896900,2,2405000,1541600,NA,NA,2,NA,NA,NA,NA,NA,0,NA,NA,2718900,NA,NA,1
"5247","Q99N57","SAS(1)EPSLHR",NA,NA,4229700,NA,NA,1,NA,1394900,1690700,NA,2,3299800,6433100,5584600,NA,94203,4,1273100,4734900,633100,NA,3,4663400,NA,195890,NA,2,6020100,695300,420680,NA,3,NA,4626100,NA,NA,NA,1,4877900,NA,364830,NA,551820,3
"5249","Q99N57","S(0.127)T(0.127)S(0.716)T(0.029)PNVHMVSTTLHVDSR",NA,NA,1066200,NA,NA,1,NA,NA,NA,NA,0,1290700,NA,NA,1395900,1452300,3,NA,NA,1446700,2571800,2,1725200,NA,3035500,NA,2,3256400,1017500,2514100,NA,3,NA,NA,NA,NA,NA,0,NA,NA,2353000,NA,1241500,2
"5282","Q99P72","EAEEKLPS(1)DTEK",3248700,NA,5516900,2862300,3416300,4,NA,4589200,10176000,4077600,3,1019100,NA,4311800,NA,3983300,3,5437000,NA,5796500,5472800,3,2506900,NA,NA,2477000,2,9819500,6767000,4916600,4086400,4,NA,NA,NA,NA,2047400,1,4058200,8244100,3830000,2834900,1764000,5
"5396","Q9CY64","FTAS(1)PLEEEK",744770,NA,NA,1049900,NA,2,NA,NA,1290000,1050000,2,1277500,NA,1374700,NA,1091600,3,NA,NA,NA,1167100,1,812100,1201100,1093000,NA,3,1308300,NA,NA,NA,1,1157400,NA,NA,NA,NA,1,723500,NA,NA,NA,NA,1
"5493","Q9D620","T(0.999)PLS(0.002)QS(0.997)MS(0.975)VLPT(0.569)S(0.458)K",995830,NA,NA,1071900,NA,2,NA,1047800,NA,NA,1,1280800,NA,1388000,1188100,NA,3,NA,NA,NA,NA,0,1402900,1566100,NA,NA,2,NA,NA,NA,NA,0,NA,NA,NA,NA,1062800,1,NA,NA,837200,547990,1220600,3
"5610","Q9EPQ8","LS(0.648)T(0.172)S(0.18)PATRDEAAS(1)PGAK",NA,NA,NA,NA,1385800,1,NA,1741700,NA,1032800,2,NA,NA,1211400,1840000,811190,3,1854400,NA,1683900,2144600,3,1287500,NA,1397400,NA,2,NA,1206500,NA,NA,1,NA,NA,1639900,NA,NA,1,NA,NA,2498000,NA,NA,1
"5847","Q9QWI6","EVSGPNET(0.148)S(0.804)S(0.047)PGS(0.001)EKPSGSR",NA,2935600,6296200,NA,NA,2,7570800,NA,NA,NA,1,NA,NA,7400100,3947300,6469100,3,9510000,NA,NA,NA,1,3972100,NA,13214000,NA,2,NA,NA,NA,NA,0,NA,NA,NA,NA,NA,0,NA,8298100,4748000,NA,NA,2
"5849","Q9QWI6","EVSGPNET(0.005)S(0.014)S(0.109)PGS(0.872)EKPSGSR",598390,NA,1233100,NA,NA,2,1059700,1175500,1707200,NA,3,NA,NA,1424500,744270,781060,3,2104800,2660300,1906800,NA,3,1336600,830740,3183300,NA,3,3596300,1732000,NA,934580,3,NA,NA,NA,1004800,NA,1,1204500,1683000,NA,NA,426850,3
"6014","Q9QYF9","THS(0.79)T(0.075)S(0.127)S(0.729)S(0.253)IGS(0.026)GES(0.001)PFSR",NA,NA,NA,NA,5290300,1,NA,6896700,NA,3677000,2,2403800,2433500,NA,4091000,NA,3,3063600,NA,4553200,4414600,3,2406600,NA,4328500,NA,2,NA,4784800,6179800,NA,2,NA,NA,NA,NA,NA,0,NA,3077800,5623600,NA,NA,2
"6080","Q9QYR6","PAS(0.067)PALS(0.396)EGS(0.379)S(0.379)S(0.763)EAT(0.013)T(0.003)PVISSVAER",4560900,NA,2195300,1924800,NA,3,2790000,2339600,4305600,NA,3,3117400,NA,NA,7008100,2247600,3,2541400,NA,17715000,NA,2,3866000,NA,NA,18357000,2,4457700,NA,NA,NA,1,NA,NA,3314400,NA,NA,1,2089800,NA,3951400,13801000,NA,3
"6111","Q9QYR6","YS(0.584)EERES(0.208)T(0.208)FLDEGPNEQEITPLQHTPR",NA,NA,NA,NA,NA,0,NA,NA,NA,NA,0,1574100,NA,NA,3465500,1908100,3,NA,NA,3301800,NA,1,3117300,NA,6166400,NA,2,NA,NA,NA,NA,0,2495900,NA,NA,NA,NA,1,NA,2869000,2408800,NA,NA,2
"6475","A2A5R2","PMQSKPQS(1)PVIQAT(0.904)AGS(0.096)PK",NA,NA,NA,NA,NA,0,NA,2424500,NA,NA,1,NA,NA,3337700,3307300,2828600,3,2386000,NA,3627800,NA,2,791590,NA,NA,2876700,2,NA,NA,2287000,NA,1,NA,NA,2440900,NA,NA,1,NA,NA,NA,NA,NA,0
"6524","G5E829","IEDSEPHIPLIDDT(1)DAEDDAPTK",NA,NA,NA,NA,NA,0,NA,NA,NA,NA,0,NA,8046900,NA,13401000,10398000,3,7556400,NA,NA,NA,1,NA,NA,14795000,8115400,2,NA,NA,NA,NA,0,NA,NA,NA,9078200,NA,1,NA,NA,NA,NA,NA,0
"6632","P08226","NEVHTMLGQS(0.048)T(0.952)EEIR",NA,NA,NA,NA,2309100,1,NA,1970500,2729200,2019200,3,973660,NA,2386700,1660300,NA,3,NA,NA,3145800,2252300,2,1724900,NA,3010200,NA,2,NA,3017700,NA,NA,1,2054600,NA,NA,NA,NA,1,1493700,2428800,NA,NA,NA,2
"6708","P18572","RKPDQT(1)LDEDDPGAAPLK",682320,NA,1177500,1031800,NA,3,1206600,NA,NA,767620,2,NA,NA,1493100,1117700,1121500,3,1220500,998380,1742000,1435400,4,477690,NA,NA,1423000,2,NA,1022000,719860,NA,2,NA,NA,NA,1098000,NA,1,531110,1335500,NA,NA,NA,2
"6917","Q01341","NAEPPS(0.313)PT(0.687)PAAHTR",656440,NA,570630,NA,NA,2,1557300,NA,906600,NA,2,627120,NA,1398500,575970,NA,3,NA,1665100,NA,NA,1,NA,739340,1221300,1168300,3,NA,NA,NA,NA,0,NA,NA,NA,NA,NA,0,NA,NA,864040,NA,NA,1
"7099","Q61206","PLHELIMQLLEET(1)PEEK",NA,NA,NA,NA,NA,0,NA,NA,NA,NA,0,11106000,NA,NA,3248800,1113600,3,NA,NA,NA,1151800,1,NA,NA,11421000,316330,2,1191600,378990,5133600,NA,3,NA,NA,NA,1994200,NA,1,NA,NA,NA,NA,665520,1
"7162","Q640R3","T(0.001)HT(0.985)S(0.014)PPRAPS(0.856)S(0.144)PGR",NA,14389000,NA,NA,NA,1,NA,NA,NA,NA,0,NA,NA,21907000,14820000,9192200,3,NA,36675000,NA,NA,1,NA,NA,23360000,15093000,2,24880000,NA,NA,NA,1,NA,NA,NA,NA,NA,0,NA,18998000,NA,NA,NA,1
"7241","Q6Y7W8","ALSSGGS(0.004)IT(0.929)S(0.066)PPLSPALPK",NA,NA,NA,5969200,NA,1,NA,NA,5145700,NA,1,4894400,NA,6312900,6005600,4035200,4,NA,NA,NA,NA,0,5298200,NA,7066800,NA,2,NA,NA,NA,NA,0,NA,NA,NA,NA,NA,0,NA,NA,NA,NA,NA,0
"7485","Q8CB93","DVT(0.027)KT(0.957)VS(0.655)S(0.655)S(0.668)AY(0.036)VIS(0.002)PS(1)MK",NA,NA,NA,2330700,NA,1,NA,2272100,2752700,NA,2,NA,2768800,2289100,1720700,1594300,4,NA,2601100,2253300,NA,2,NA,1322200,2641100,NA,2,NA,2001700,NA,NA,1,NA,NA,2736400,NA,NA,1,NA,NA,1551500,NA,NA,1
"7587","Q8VCY8","LSPWEDLSQAPT(0.992)MDS(0.008)PLEK",895420,NA,NA,NA,728550,2,NA,NA,1573800,1019200,2,883790,NA,889270,1655600,1493600,4,NA,NA,NA,1202000,1,656260,NA,NA,1677800,2,1497200,NA,NA,NA,1,NA,NA,NA,1103600,NA,1,NA,707230,NA,NA,NA,1
"7986","P63318","LVLASIDQADFQGFT(0.002)Y(0.998)VNPDFVHPDAR",NA,NA,NA,NA,NA,0,NA,NA,NA,NA,0,5819600,NA,NA,12992000,919210,3,NA,NA,NA,1755700,1,NA,NA,13768000,685870,2,2638900,NA,4702800,NA,2,NA,NA,NA,NA,NA,0,NA,NA,NA,NA,1698000,1
